{"failedCount":0,"prefixedPath":"classpath:com\/api\/automation\/getrequest\/getRequest.feature","packageQualifiedName":"com.api.automation.getrequest.getRequest","loopIndex":-1,"relativePath":"com\/api\/automation\/getrequest\/getRequest.feature","scenarioResults":[{"sectionIndex":1,"stepResults":[{"result":{"nanos":1136200,"startTime":1711617883800,"endTime":1711617883801,"millis":1.1362,"status":"passed"},"step":{"background":true,"line":4,"prefix":"Given","index":0,"text":"url 'https:\/\/reqres.in'"},"stepLog":"14:54:43.762 karate.env system property was: null \n"},{"result":{"nanos":1443000,"startTime":1711617883804,"endTime":1711617883805,"millis":1.443,"status":"passed"},"step":{"background":true,"line":5,"prefix":"And","index":1,"text":"print '========This is the Background keyword ====================='"},"stepLog":"14:54:43.805 [print] ========This is the Background keyword ===================== \n"},{"result":{"nanos":261400,"startTime":1711617883806,"endTime":1711617883806,"millis":0.2614,"status":"passed"},"step":{"line":33,"prefix":"Given","index":0,"text":"path '\/api\/users?page=2'"}},{"result":{"nanos":297400,"startTime":1711617883807,"endTime":1711617883807,"millis":0.2974,"status":"passed"},"step":{"line":34,"prefix":"And","index":1,"text":"header Accept = 'application\/json'"}},{"result":{"nanos":1162783500,"startTime":1711617883807,"endTime":1711617884970,"millis":1162.7835,"status":"passed"},"step":{"line":35,"prefix":"When","index":2,"text":"method get #send the get request"},"stepLog":"14:54:44.146 request:\n1 > GET https:\/\/reqres.in\/api\/users%3Fpage=2\n1 > Accept: application\/json\n1 > Host: reqres.in\n1 > Connection: Keep-Alive\n1 > User-Agent: Apache-HttpClient\/4.5.14 (Java\/17.0.2)\n1 > Accept-Encoding: gzip,deflate\n\n\n14:54:44.969 response time in milliseconds: 822\n1 < 200\n1 < Date: Thu, 28 Mar 2024 09:24:45 GMT\n1 < Content-Type: application\/json; charset=utf-8\n1 < Transfer-Encoding: chunked\n1 < Connection: keep-alive\n1 < Report-To: {\"group\":\"heroku-nel\",\"max_age\":3600,\"endpoints\":[{\"url\":\"https:\/\/nel.heroku.com\/reports?ts=1711617885&sid=c4c9725f-1ab0-44d8-820f-430df2718e11&s=0X16%2BcC6XnwxTHrwW2rNuAN%2BTZvqY10fejNkUFdqjdU%3D\"}]}\n1 < Reporting-Endpoints: heroku-nel=https:\/\/nel.heroku.com\/reports?ts=1711617885&sid=c4c9725f-1ab0-44d8-820f-430df2718e11&s=0X16%2BcC6XnwxTHrwW2rNuAN%2BTZvqY10fejNkUFdqjdU%3D\n1 < Nel: {\"report_to\":\"heroku-nel\",\"max_age\":3600,\"success_fraction\":0.005,\"failure_fraction\":0.05,\"response_headers\":[\"Via\"]}\n1 < X-Powered-By: Express\n1 < Access-Control-Allow-Origin: *\n1 < Etag: W\/\"2c1-N6Rqerxquq2kgQhL51EiSg4x0R8\"\n1 < Via: 1.1 vegur\n1 < Cache-Control: max-age=14400\n1 < CF-Cache-Status: MISS\n1 < Vary: Accept-Encoding\n1 < Server: cloudflare\n1 < CF-RAY: 86b691a848674543-BOM\n{\"page\":1,\"per_page\":6,\"total\":12,\"total_pages\":2,\"data\":[{\"id\":1,\"name\":\"cerulean\",\"year\":2000,\"color\":\"#98B2D1\",\"pantone_value\":\"15-4020\"},{\"id\":2,\"name\":\"fuchsia rose\",\"year\":2001,\"color\":\"#C74375\",\"pantone_value\":\"17-2031\"},{\"id\":3,\"name\":\"true red\",\"year\":2002,\"color\":\"#BF1932\",\"pantone_value\":\"19-1664\"},{\"id\":4,\"name\":\"aqua sky\",\"year\":2003,\"color\":\"#7BC4C4\",\"pantone_value\":\"14-4811\"},{\"id\":5,\"name\":\"tigerlily\",\"year\":2004,\"color\":\"#E2583E\",\"pantone_value\":\"17-1456\"},{\"id\":6,\"name\":\"blue turquoise\",\"year\":2005,\"color\":\"#53B0AE\",\"pantone_value\":\"15-5217\"}],\"support\":{\"url\":\"https:\/\/reqres.in\/#support-heading\",\"text\":\"To keep ReqRes free, contributions towards server costs are appreciated!\"}}\n\n"},{"result":{"nanos":9000,"startTime":1711617884970,"endTime":1711617884970,"millis":0.009,"status":"passed"},"step":{"line":36,"prefix":"Then","index":3,"text":"status 200 #the status code response should be 200"}}],"line":32,"description":"","durationMillis":1165.9305,"failed":false,"tags":["Regression","Smoke"],"executorName":"pool-1-thread-4","name":"To get all the data from the application in JSON format using path variable","startTime":1711617883711,"refId":"[2:32]","endTime":1711617884970,"exampleIndex":-1}],"callDepth":0,"name":"To test the endpoint of the application","description":"","resultDate":"2024-03-28 02:54:46 pm","durationMillis":1165.9305,"passedCount":1}