{"failedCount":1,"prefixedPath":"classpath:com\/api\/automation\/getrequest\/responseMatcher.feature","packageQualifiedName":"com.api.automation.getrequest.responseMatcher","loopIndex":-1,"relativePath":"com\/api\/automation\/getrequest\/responseMatcher.feature","scenarioResults":[{"sectionIndex":0,"stepResults":[{"result":{"nanos":1136300,"startTime":1711617883800,"endTime":1711617883801,"millis":1.1363,"status":"passed"},"step":{"background":true,"line":6,"prefix":"Given","index":0,"text":"url 'https:\/\/reqres.in'"},"stepLog":"14:54:43.762 karate.env system property was: null \n"},{"result":{"nanos":332500,"startTime":1711617883804,"endTime":1711617883804,"millis":0.3325,"status":"passed"},"step":{"line":11,"prefix":"Given","index":0,"text":"path '\/api\/users?page=2'"}},{"result":{"nanos":304700,"startTime":1711617883805,"endTime":1711617883805,"millis":0.3047,"status":"passed"},"step":{"line":12,"prefix":"And","index":1,"text":"header Accept = 'application\/json'"}},{"result":{"nanos":937935000,"startTime":1711617883805,"endTime":1711617884743,"millis":937.935,"status":"passed"},"step":{"line":13,"prefix":"When","index":2,"text":"method get"},"stepLog":"14:54:44.146 request:\n1 > GET https:\/\/reqres.in\/api\/users%3Fpage=2\n1 > Accept: application\/json\n1 > Host: reqres.in\n1 > Connection: Keep-Alive\n1 > User-Agent: Apache-HttpClient\/4.5.14 (Java\/17.0.2)\n1 > Accept-Encoding: gzip,deflate\n\n\n14:54:44.742 response time in milliseconds: 593\n1 < 200\n1 < Date: Thu, 28 Mar 2024 09:24:45 GMT\n1 < Content-Type: application\/json; charset=utf-8\n1 < Transfer-Encoding: chunked\n1 < Connection: keep-alive\n1 < Report-To: {\"group\":\"heroku-nel\",\"max_age\":3600,\"endpoints\":[{\"url\":\"https:\/\/nel.heroku.com\/reports?ts=1711003883&sid=c4c9725f-1ab0-44d8-820f-430df2718e11&s=h2mgxR8gt8mxFqapBpqiWcX%2FVAsrY46G33P1iRl2wzs%3D\"}]}\n1 < Reporting-Endpoints: heroku-nel=https:\/\/nel.heroku.com\/reports?ts=1711003883&sid=c4c9725f-1ab0-44d8-820f-430df2718e11&s=h2mgxR8gt8mxFqapBpqiWcX%2FVAsrY46G33P1iRl2wzs%3D\n1 < Nel: {\"report_to\":\"heroku-nel\",\"max_age\":3600,\"success_fraction\":0.005,\"failure_fraction\":0.05,\"response_headers\":[\"Via\"]}\n1 < X-Powered-By: Express\n1 < Access-Control-Allow-Origin: *\n1 < Etag: W\/\"2c1-N6Rqerxquq2kgQhL51EiSg4x0R8\"\n1 < Via: 1.1 vegur\n1 < Cache-Control: max-age=14400\n1 < CF-Cache-Status: HIT\n1 < Age: 6134\n1 < Vary: Accept-Encoding\n1 < Server: cloudflare\n1 < CF-RAY: 86b691a8494954d7-DEL\n{\"page\":1,\"per_page\":6,\"total\":12,\"total_pages\":2,\"data\":[{\"id\":1,\"name\":\"cerulean\",\"year\":2000,\"color\":\"#98B2D1\",\"pantone_value\":\"15-4020\"},{\"id\":2,\"name\":\"fuchsia rose\",\"year\":2001,\"color\":\"#C74375\",\"pantone_value\":\"17-2031\"},{\"id\":3,\"name\":\"true red\",\"year\":2002,\"color\":\"#BF1932\",\"pantone_value\":\"19-1664\"},{\"id\":4,\"name\":\"aqua sky\",\"year\":2003,\"color\":\"#7BC4C4\",\"pantone_value\":\"14-4811\"},{\"id\":5,\"name\":\"tigerlily\",\"year\":2004,\"color\":\"#E2583E\",\"pantone_value\":\"17-1456\"},{\"id\":6,\"name\":\"blue turquoise\",\"year\":2005,\"color\":\"#53B0AE\",\"pantone_value\":\"15-5217\"}],\"support\":{\"url\":\"https:\/\/reqres.in\/#support-heading\",\"text\":\"To keep ReqRes free, contributions towards server costs are appreciated!\"}}\n\n"},{"result":{"nanos":14700,"startTime":1711617884743,"endTime":1711617884743,"millis":0.0147,"status":"passed"},"step":{"line":14,"prefix":"Then","index":3,"text":"status 200"}},{"result":{"nanos":4901200,"startTime":1711617884744,"endTime":1711617884749,"millis":4.9012,"status":"passed"},"step":{"line":15,"prefix":"And","index":4,"text":"print response"},"stepLog":"14:54:44.749 [print] {\n  \"page\": 1,\n  \"per_page\": 6,\n  \"total\": 12,\n  \"total_pages\": 2,\n  \"data\": [\n    {\n      \"id\": 1,\n      \"name\": \"cerulean\",\n      \"year\": 2000,\n      \"color\": \"#98B2D1\",\n      \"pantone_value\": \"15-4020\"\n    },\n    {\n      \"id\": 2,\n      \"name\": \"fuchsia rose\",\n      \"year\": 2001,\n      \"color\": \"#C74375\",\n      \"pantone_value\": \"17-2031\"\n    },\n    {\n      \"id\": 3,\n      \"name\": \"true red\",\n      \"year\": 2002,\n      \"color\": \"#BF1932\",\n      \"pantone_value\": \"19-1664\"\n    },\n    {\n      \"id\": 4,\n      \"name\": \"aqua sky\",\n      \"year\": 2003,\n      \"color\": \"#7BC4C4\",\n      \"pantone_value\": \"14-4811\"\n    },\n    {\n      \"id\": 5,\n      \"name\": \"tigerlily\",\n      \"year\": 2004,\n      \"color\": \"#E2583E\",\n      \"pantone_value\": \"17-1456\"\n    },\n    {\n      \"id\": 6,\n      \"name\": \"blue turquoise\",\n      \"year\": 2005,\n      \"color\": \"#53B0AE\",\n      \"pantone_value\": \"15-5217\"\n    }\n  ],\n  \"support\": {\n    \"url\": \"https:\/\/reqres.in\/#support-heading\",\n    \"text\": \"To keep ReqRes free, contributions towards server costs are appreciated!\"\n  }\n}\n \n"},{"result":{"nanos":13352200,"startTime":1711617884749,"endTime":1711617884762,"millis":13.3522,"status":"passed"},"step":{"endLine":71,"line":16,"prefix":"And","docString":"{ \"page\": 1,\n  \"per_page\": 6,\n  \"total\": 12,\n  \"total_pages\": 2,\n  \"data\": [\n{\n  \"id\": 1,\n  \"name\": \"cerulean\",\n  \"year\": 2000,\n  \"color\": \"#98B2D1\",\n  \"pantone_value\": \"15-4020\"\n},\n{\n  \"id\": 2,\n  \"name\": \"fuchsia rose\",\n  \"year\": 2001,\n  \"color\": \"#C74375\",\n  \"pantone_value\": \"17-2031\"\n},\n{\n  \"id\": 3,\n  \"name\": \"true red\",\n  \"year\": 2002,\n  \"color\": \"#BF1932\",\n  \"pantone_value\": \"19-1664\"\n},\n{\n  \"id\": 4,\n  \"name\": \"aqua sky\",\n  \"year\": 2003,\n  \"color\": \"#7BC4C4\",\n  \"pantone_value\": \"14-4811\"\n},\n{\n  \"id\": 5,\n  \"name\": \"tigerlily\",\n  \"year\": 2004,\n  \"color\": \"#E2583E\",\n  \"pantone_value\": \"17-1456\"\n},\n{\n  \"id\": 6,\n  \"name\": \"blue turquoise\",\n  \"year\": 2005,\n  \"color\": \"#53B0AE\",\n  \"pantone_value\": \"15-5217\"\n}\n  ],\n  \"support\": {\n\"url\": \"https:\/\/reqres.in\/#support-heading\",\n\"text\": \"To keep ReqRes free, contributions towards server costs are appreciated!\"\n  }\n}","index":5,"text":"match response =="}}],"line":10,"description":"","durationMillis":957.9766,"failed":false,"tags":["Regression","Smoke"],"executorName":"pool-1-thread-5","name":"To get all the data from the application in JSON format using match equals variable","startTime":1711617883711,"refId":"[1:10]","endTime":1711617884762,"exampleIndex":-1},{"sectionIndex":1,"stepResults":[{"result":{"nanos":446300,"startTime":1711617884769,"endTime":1711617884769,"millis":0.4463,"status":"passed"},"step":{"background":true,"line":6,"prefix":"Given","index":0,"text":"url 'https:\/\/reqres.in'"},"stepLog":"14:54:44.768 karate.env system property was: null \n"},{"result":{"nanos":262400,"startTime":1711617884770,"endTime":1711617884770,"millis":0.2624,"status":"passed"},"step":{"line":75,"prefix":"Given","index":0,"text":"path '\/api\/users?page=2'"}},{"result":{"nanos":245400,"startTime":1711617884770,"endTime":1711617884770,"millis":0.2454,"status":"passed"},"step":{"line":76,"prefix":"And","index":1,"text":"header Accept = 'application\/json'"}},{"result":{"nanos":92010900,"startTime":1711617884770,"endTime":1711617884862,"millis":92.0109,"status":"passed"},"step":{"line":77,"prefix":"When","index":2,"text":"method get"},"stepLog":"14:54:44.772 request:\n1 > GET https:\/\/reqres.in\/api\/users%3Fpage=2\n1 > Accept: application\/json\n1 > Host: reqres.in\n1 > Connection: Keep-Alive\n1 > User-Agent: Apache-HttpClient\/4.5.14 (Java\/17.0.2)\n1 > Accept-Encoding: gzip,deflate\n\n\n14:54:44.862 response time in milliseconds: 89\n1 < 200\n1 < Date: Thu, 28 Mar 2024 09:24:45 GMT\n1 < Content-Type: application\/json; charset=utf-8\n1 < Transfer-Encoding: chunked\n1 < Connection: keep-alive\n1 < Report-To: {\"group\":\"heroku-nel\",\"max_age\":3600,\"endpoints\":[{\"url\":\"https:\/\/nel.heroku.com\/reports?ts=1709546419&sid=c4c9725f-1ab0-44d8-820f-430df2718e11&s=D82YLegJPXXT0B%2FaJN7iM%2BsnLEqrcTuRt2kPxqXVYe4%3D\"}]}\n1 < Reporting-Endpoints: heroku-nel=https:\/\/nel.heroku.com\/reports?ts=1709546419&sid=c4c9725f-1ab0-44d8-820f-430df2718e11&s=D82YLegJPXXT0B%2FaJN7iM%2BsnLEqrcTuRt2kPxqXVYe4%3D\n1 < Nel: {\"report_to\":\"heroku-nel\",\"max_age\":3600,\"success_fraction\":0.005,\"failure_fraction\":0.05,\"response_headers\":[\"Via\"]}\n1 < X-Powered-By: Express\n1 < Access-Control-Allow-Origin: *\n1 < Etag: W\/\"2c1-N6Rqerxquq2kgQhL51EiSg4x0R8\"\n1 < Via: 1.1 vegur\n1 < Cache-Control: max-age=14400\n1 < CF-Cache-Status: HIT\n1 < Age: 1125\n1 < Vary: Accept-Encoding\n1 < Server: cloudflare\n1 < CF-RAY: 86b691a938ca40b1-BOM\n{\"page\":1,\"per_page\":6,\"total\":12,\"total_pages\":2,\"data\":[{\"id\":1,\"name\":\"cerulean\",\"year\":2000,\"color\":\"#98B2D1\",\"pantone_value\":\"15-4020\"},{\"id\":2,\"name\":\"fuchsia rose\",\"year\":2001,\"color\":\"#C74375\",\"pantone_value\":\"17-2031\"},{\"id\":3,\"name\":\"true red\",\"year\":2002,\"color\":\"#BF1932\",\"pantone_value\":\"19-1664\"},{\"id\":4,\"name\":\"aqua sky\",\"year\":2003,\"color\":\"#7BC4C4\",\"pantone_value\":\"14-4811\"},{\"id\":5,\"name\":\"tigerlily\",\"year\":2004,\"color\":\"#E2583E\",\"pantone_value\":\"17-1456\"},{\"id\":6,\"name\":\"blue turquoise\",\"year\":2005,\"color\":\"#53B0AE\",\"pantone_value\":\"15-5217\"}],\"support\":{\"url\":\"https:\/\/reqres.in\/#support-heading\",\"text\":\"To keep ReqRes free, contributions towards server costs are appreciated!\"}}\n\n"},{"result":{"nanos":6900,"startTime":1711617884863,"endTime":1711617884863,"millis":0.0069,"status":"passed"},"step":{"line":78,"prefix":"Then","index":3,"text":"status 200"}},{"result":{"nanos":1092500,"startTime":1711617884863,"endTime":1711617884864,"millis":1.0925,"status":"passed"},"step":{"line":79,"prefix":"And","index":4,"text":"print response"},"stepLog":"14:54:44.864 [print] {\n  \"page\": 1,\n  \"per_page\": 6,\n  \"total\": 12,\n  \"total_pages\": 2,\n  \"data\": [\n    {\n      \"id\": 1,\n      \"name\": \"cerulean\",\n      \"year\": 2000,\n      \"color\": \"#98B2D1\",\n      \"pantone_value\": \"15-4020\"\n    },\n    {\n      \"id\": 2,\n      \"name\": \"fuchsia rose\",\n      \"year\": 2001,\n      \"color\": \"#C74375\",\n      \"pantone_value\": \"17-2031\"\n    },\n    {\n      \"id\": 3,\n      \"name\": \"true red\",\n      \"year\": 2002,\n      \"color\": \"#BF1932\",\n      \"pantone_value\": \"19-1664\"\n    },\n    {\n      \"id\": 4,\n      \"name\": \"aqua sky\",\n      \"year\": 2003,\n      \"color\": \"#7BC4C4\",\n      \"pantone_value\": \"14-4811\"\n    },\n    {\n      \"id\": 5,\n      \"name\": \"tigerlily\",\n      \"year\": 2004,\n      \"color\": \"#E2583E\",\n      \"pantone_value\": \"17-1456\"\n    },\n    {\n      \"id\": 6,\n      \"name\": \"blue turquoise\",\n      \"year\": 2005,\n      \"color\": \"#53B0AE\",\n      \"pantone_value\": \"15-5217\"\n    }\n  ],\n  \"support\": {\n    \"url\": \"https:\/\/reqres.in\/#support-heading\",\n    \"text\": \"To keep ReqRes free, contributions towards server costs are appreciated!\"\n  }\n}\n \n"},{"result":{"nanos":946600,"startTime":1711617884865,"endTime":1711617884866,"millis":0.9466,"status":"passed"},"step":{"endLine":135,"line":80,"prefix":"And","docString":"{ \"page\": 11,\n  \"per_page\": 6,\n  \"total\": 12,\n  \"total_pages\": 2,\n  \"data\": [\n{\n  \"id\": 1,\n  \"name\": \"cerulean\",\n  \"year\": 2000,\n  \"color\": \"#98B2D1\",\n  \"pantone_value\": \"15-4020\"\n},\n{\n  \"id\": 2,\n  \"name\": \"fuchsia rose\",\n  \"year\": 2001,\n  \"color\": \"#C74375\",\n  \"pantone_value\": \"17-2031\"\n},\n{\n  \"id\": 3,\n  \"name\": \"true red\",\n  \"year\": 2002,\n  \"color\": \"#BF1932\",\n  \"pantone_value\": \"19-1664\"\n},\n{\n  \"id\": 4,\n  \"name\": \"aqua sky\",\n  \"year\": 2003,\n  \"color\": \"#7BC4C4\",\n  \"pantone_value\": \"14-4811\"\n},\n{\n  \"id\": 5,\n  \"name\": \"tigerlily\",\n  \"year\": 2004,\n  \"color\": \"#E2583E\",\n  \"pantone_value\": \"17-1456\"\n},\n{\n  \"id\": 6,\n  \"name\": \"blue turquoise\",\n  \"year\": 2005,\n  \"color\": \"#53B0AE\",\n  \"pantone_value\": \"15-5217\"\n}\n  ],\n  \"support\": {\n\"url\": \"https:\/\/reqres.in\/#support-heading\",\n\"text\": \"To keep ReqRes free, contributions towards server costs are appreciated!\"\n  }\n}","index":5,"text":"match response !="}}],"line":74,"description":"","durationMillis":95.011,"failed":false,"tags":["Regression","Smoke"],"executorName":"pool-1-thread-5","name":"To get all the data from the application in JSON format using negate operator","startTime":1711617884766,"refId":"[2:74]","endTime":1711617884866,"exampleIndex":-1},{"sectionIndex":2,"stepResults":[{"result":{"nanos":355700,"startTime":1711617884874,"endTime":1711617884874,"millis":0.3557,"status":"passed"},"step":{"background":true,"line":6,"prefix":"Given","index":0,"text":"url 'https:\/\/reqres.in'"},"stepLog":"14:54:44.874 karate.env system property was: null \n"},{"result":{"nanos":231200,"startTime":1711617884875,"endTime":1711617884875,"millis":0.2312,"status":"passed"},"step":{"line":140,"prefix":"Given","index":0,"text":"path '\/api\/users?page=2'"}},{"result":{"nanos":201900,"startTime":1711617884875,"endTime":1711617884875,"millis":0.2019,"status":"passed"},"step":{"line":141,"prefix":"And","index":1,"text":"header Accept = 'application\/json'"}},{"result":{"nanos":139823600,"startTime":1711617884876,"endTime":1711617885016,"millis":139.8236,"status":"passed"},"step":{"line":142,"prefix":"When","index":2,"text":"method get"},"stepLog":"14:54:44.877 request:\n1 > GET https:\/\/reqres.in\/api\/users%3Fpage=2\n1 > Accept: application\/json\n1 > Host: reqres.in\n1 > Connection: Keep-Alive\n1 > User-Agent: Apache-HttpClient\/4.5.14 (Java\/17.0.2)\n1 > Accept-Encoding: gzip,deflate\n\n\n14:54:45.015 response time in milliseconds: 136\n1 < 200\n1 < Date: Thu, 28 Mar 2024 09:24:45 GMT\n1 < Content-Type: application\/json; charset=utf-8\n1 < Transfer-Encoding: chunked\n1 < Connection: keep-alive\n1 < Report-To: {\"group\":\"heroku-nel\",\"max_age\":3600,\"endpoints\":[{\"url\":\"https:\/\/nel.heroku.com\/reports?ts=1711003883&sid=c4c9725f-1ab0-44d8-820f-430df2718e11&s=h2mgxR8gt8mxFqapBpqiWcX%2FVAsrY46G33P1iRl2wzs%3D\"}]}\n1 < Reporting-Endpoints: heroku-nel=https:\/\/nel.heroku.com\/reports?ts=1711003883&sid=c4c9725f-1ab0-44d8-820f-430df2718e11&s=h2mgxR8gt8mxFqapBpqiWcX%2FVAsrY46G33P1iRl2wzs%3D\n1 < Nel: {\"report_to\":\"heroku-nel\",\"max_age\":3600,\"success_fraction\":0.005,\"failure_fraction\":0.05,\"response_headers\":[\"Via\"]}\n1 < X-Powered-By: Express\n1 < Access-Control-Allow-Origin: *\n1 < Etag: W\/\"2c1-N6Rqerxquq2kgQhL51EiSg4x0R8\"\n1 < Via: 1.1 vegur\n1 < Cache-Control: max-age=14400\n1 < CF-Cache-Status: HIT\n1 < Age: 6134\n1 < Vary: Accept-Encoding\n1 < Server: cloudflare\n1 < CF-RAY: 86b691aa2b2f5474-DEL\n{\"page\":1,\"per_page\":6,\"total\":12,\"total_pages\":2,\"data\":[{\"id\":1,\"name\":\"cerulean\",\"year\":2000,\"color\":\"#98B2D1\",\"pantone_value\":\"15-4020\"},{\"id\":2,\"name\":\"fuchsia rose\",\"year\":2001,\"color\":\"#C74375\",\"pantone_value\":\"17-2031\"},{\"id\":3,\"name\":\"true red\",\"year\":2002,\"color\":\"#BF1932\",\"pantone_value\":\"19-1664\"},{\"id\":4,\"name\":\"aqua sky\",\"year\":2003,\"color\":\"#7BC4C4\",\"pantone_value\":\"14-4811\"},{\"id\":5,\"name\":\"tigerlily\",\"year\":2004,\"color\":\"#E2583E\",\"pantone_value\":\"17-1456\"},{\"id\":6,\"name\":\"blue turquoise\",\"year\":2005,\"color\":\"#53B0AE\",\"pantone_value\":\"15-5217\"}],\"support\":{\"url\":\"https:\/\/reqres.in\/#support-heading\",\"text\":\"To keep ReqRes free, contributions towards server costs are appreciated!\"}}\n\n"},{"result":{"nanos":9100,"startTime":1711617885016,"endTime":1711617885016,"millis":0.0091,"status":"passed"},"step":{"line":143,"prefix":"Then","index":3,"text":"status 200"}},{"result":{"nanos":2012300,"startTime":1711617885016,"endTime":1711617885018,"millis":2.0123,"status":"passed"},"step":{"line":144,"prefix":"And","index":4,"text":"print response"},"stepLog":"14:54:45.018 [print] {\n  \"page\": 1,\n  \"per_page\": 6,\n  \"total\": 12,\n  \"total_pages\": 2,\n  \"data\": [\n    {\n      \"id\": 1,\n      \"name\": \"cerulean\",\n      \"year\": 2000,\n      \"color\": \"#98B2D1\",\n      \"pantone_value\": \"15-4020\"\n    },\n    {\n      \"id\": 2,\n      \"name\": \"fuchsia rose\",\n      \"year\": 2001,\n      \"color\": \"#C74375\",\n      \"pantone_value\": \"17-2031\"\n    },\n    {\n      \"id\": 3,\n      \"name\": \"true red\",\n      \"year\": 2002,\n      \"color\": \"#BF1932\",\n      \"pantone_value\": \"19-1664\"\n    },\n    {\n      \"id\": 4,\n      \"name\": \"aqua sky\",\n      \"year\": 2003,\n      \"color\": \"#7BC4C4\",\n      \"pantone_value\": \"14-4811\"\n    },\n    {\n      \"id\": 5,\n      \"name\": \"tigerlily\",\n      \"year\": 2004,\n      \"color\": \"#E2583E\",\n      \"pantone_value\": \"17-1456\"\n    },\n    {\n      \"id\": 6,\n      \"name\": \"blue turquoise\",\n      \"year\": 2005,\n      \"color\": \"#53B0AE\",\n      \"pantone_value\": \"15-5217\"\n    }\n  ],\n  \"support\": {\n    \"url\": \"https:\/\/reqres.in\/#support-heading\",\n    \"text\": \"To keep ReqRes free, contributions towards server costs are appreciated!\"\n  }\n}\n \n"},{"result":{"nanos":3537600,"startTime":1711617885018,"endTime":1711617885022,"millis":3.5376,"status":"passed"},"step":{"line":145,"prefix":"And","index":5,"text":"match response contains deep {\"data\":[ {\"name\": \"blue turquoise\"}]}"}},{"result":{"nanos":1789300,"errorMessage":"match failed: CONTAINS_DEEP\n  $ | actual does not contain expected | actual does not contain key - 'text' (MAP:MAP)\n  {\"page\":1,\"per_page\":6,\"total\":12,\"total_pages\":2,\"data\":[{\"id\":1,\"name\":\"cerulean\",\"year\":2000,\"color\":\"#98B2D1\",\"pantone_value\":\"15-4020\"},{\"id\":2,\"name\":\"fuchsia rose\",\"year\":2001,\"color\":\"#C74375\",\"pantone_value\":\"17-2031\"},{\"id\":3,\"name\":\"true red\",\"year\":2002,\"color\":\"#BF1932\",\"pantone_value\":\"19-1664\"},{\"id\":4,\"name\":\"aqua sky\",\"year\":2003,\"color\":\"#7BC4C4\",\"pantone_value\":\"14-4811\"},{\"id\":5,\"name\":\"tigerlily\",\"year\":2004,\"color\":\"#E2583E\",\"pantone_value\":\"17-1456\"},{\"id\":6,\"name\":\"blue turquoise\",\"year\":2005,\"color\":\"#53B0AE\",\"pantone_value\":\"15-5217\"}],\"support\":{\"url\":\"https:\/\/reqres.in\/#support-heading\",\"text\":\"To keep ReqRes free, contributions towards server costs are appreciated!\"}}\n  {\"text\":\"To keep ReqRes free, contributions towards server costs are appreciated!\"}\n\n\nclasspath:com\/api\/automation\/getrequest\/responseMatcher.feature:146","startTime":1711617885021,"endTime":1711617885023,"millis":1.7893,"status":"failed"},"step":{"line":146,"prefix":"And","index":6,"text":"match response contains deep {\"text\": \"To keep ReqRes free, contributions towards server costs are appreciated!\" }"},"stepLog":"14:54:45.025 classpath:com\/api\/automation\/getrequest\/responseMatcher.feature:146\nAnd match response contains deep {\"text\": \"To keep ReqRes free, contributions towards server costs are appreciated!\" }\nmatch failed: CONTAINS_DEEP\n  $ | actual does not contain expected | actual does not contain key - 'text' (MAP:MAP)\n  {\"page\":1,\"per_page\":6,\"total\":12,\"total_pages\":2,\"data\":[{\"id\":1,\"name\":\"cerulean\",\"year\":2000,\"color\":\"#98B2D1\",\"pantone_value\":\"15-4020\"},{\"id\":2,\"name\":\"fuchsia rose\",\"year\":2001,\"color\":\"#C74375\",\"pantone_value\":\"17-2031\"},{\"id\":3,\"name\":\"true red\",\"year\":2002,\"color\":\"#BF1932\",\"pantone_value\":\"19-1664\"},{\"id\":4,\"name\":\"aqua sky\",\"year\":2003,\"color\":\"#7BC4C4\",\"pantone_value\":\"14-4811\"},{\"id\":5,\"name\":\"tigerlily\",\"year\":2004,\"color\":\"#E2583E\",\"pantone_value\":\"17-1456\"},{\"id\":6,\"name\":\"blue turquoise\",\"year\":2005,\"color\":\"#53B0AE\",\"pantone_value\":\"15-5217\"}],\"support\":{\"url\":\"https:\/\/reqres.in\/#support-heading\",\"text\":\"To keep ReqRes free, contributions towards server costs are appreciated!\"}}\n  {\"text\":\"To keep ReqRes free, contributions towards server costs are appreciated!\"}\n\n\nclasspath:com\/api\/automation\/getrequest\/responseMatcher.feature:146\n"},{"result":{"nanos":0,"startTime":1711617885025,"endTime":1711617885025,"millis":0.0,"status":"skipped"},"step":{"line":147,"prefix":"And","index":7,"text":"match header Content-Type == 'application\/json'"}},{"result":{"nanos":0,"startTime":1711617885025,"endTime":1711617885025,"millis":0.0,"status":"skipped"},"step":{"line":148,"prefix":"And","index":8,"text":"match header Connection == 'keep-alive'"}}],"line":139,"description":"","durationMillis":147.9607,"failed":true,"error":"match failed: CONTAINS_DEEP\n  $ | actual does not contain expected | actual does not contain key - 'text' (MAP:MAP)\n  {\"page\":1,\"per_page\":6,\"total\":12,\"total_pages\":2,\"data\":[{\"id\":1,\"name\":\"cerulean\",\"year\":2000,\"color\":\"#98B2D1\",\"pantone_value\":\"15-4020\"},{\"id\":2,\"name\":\"fuchsia rose\",\"year\":2001,\"color\":\"#C74375\",\"pantone_value\":\"17-2031\"},{\"id\":3,\"name\":\"true red\",\"year\":2002,\"color\":\"#BF1932\",\"pantone_value\":\"19-1664\"},{\"id\":4,\"name\":\"aqua sky\",\"year\":2003,\"color\":\"#7BC4C4\",\"pantone_value\":\"14-4811\"},{\"id\":5,\"name\":\"tigerlily\",\"year\":2004,\"color\":\"#E2583E\",\"pantone_value\":\"17-1456\"},{\"id\":6,\"name\":\"blue turquoise\",\"year\":2005,\"color\":\"#53B0AE\",\"pantone_value\":\"15-5217\"}],\"support\":{\"url\":\"https:\/\/reqres.in\/#support-heading\",\"text\":\"To keep ReqRes free, contributions towards server costs are appreciated!\"}}\n  {\"text\":\"To keep ReqRes free, contributions towards server costs are appreciated!\"}\n\n\nclasspath:com\/api\/automation\/getrequest\/responseMatcher.feature:146","tags":["Regression","Smoke"],"executorName":"pool-1-thread-5","name":"To get all the data from the application in JSON format for specific property","startTime":1711617884872,"refId":"[3:139]","endTime":1711617885025,"exampleIndex":-1}],"callDepth":0,"name":"To validate the Get endpoint","description":"To validate the Get endpoint response","resultDate":"2024-03-28 02:54:46 pm","durationMillis":1200.9483,"passedCount":2}