{"failedCount":1,"prefixedPath":"classpath:com\/api\/automation\/getrequest\/responseMatcher.feature","packageQualifiedName":"com.api.automation.getrequest.responseMatcher","loopIndex":-1,"relativePath":"com\/api\/automation\/getrequest\/responseMatcher.feature","scenarioResults":[{"sectionIndex":0,"stepResults":[{"result":{"nanos":167400,"startTime":1711621458600,"endTime":1711621458600,"millis":0.1674,"status":"passed"},"step":{"background":true,"line":6,"prefix":"Given","index":0,"text":"url 'https:\/\/reqres.in'"}},{"result":{"nanos":139900,"startTime":1711621458601,"endTime":1711621458601,"millis":0.1399,"status":"passed"},"step":{"line":11,"prefix":"Given","index":0,"text":"path '\/api\/users?page=2'"}},{"result":{"nanos":820200,"startTime":1711621458601,"endTime":1711621458602,"millis":0.8202,"status":"passed"},"step":{"line":12,"prefix":"And","index":1,"text":"header Accept = 'application\/json'"}},{"result":{"nanos":93520000,"startTime":1711621458602,"endTime":1711621458696,"millis":93.52,"status":"passed"},"step":{"line":13,"prefix":"When","index":2,"text":"method get"}},{"result":{"nanos":8900,"startTime":1711621458696,"endTime":1711621458696,"millis":0.0089,"status":"passed"},"step":{"line":14,"prefix":"Then","index":3,"text":"status 200"}},{"result":{"nanos":1523300,"startTime":1711621458696,"endTime":1711621458698,"millis":1.5233,"status":"passed"},"step":{"line":15,"prefix":"And","index":4,"text":"print response"}},{"result":{"nanos":15971900,"startTime":1711621458698,"endTime":1711621458714,"millis":15.9719,"status":"passed"},"step":{"endLine":71,"line":16,"prefix":"And","docString":"{ \"page\": 1,\n  \"per_page\": 6,\n  \"total\": 12,\n  \"total_pages\": 2,\n  \"data\": [\n{\n  \"id\": 1,\n  \"name\": \"cerulean\",\n  \"year\": 2000,\n  \"color\": \"#98B2D1\",\n  \"pantone_value\": \"15-4020\"\n},\n{\n  \"id\": 2,\n  \"name\": \"fuchsia rose\",\n  \"year\": 2001,\n  \"color\": \"#C74375\",\n  \"pantone_value\": \"17-2031\"\n},\n{\n  \"id\": 3,\n  \"name\": \"true red\",\n  \"year\": 2002,\n  \"color\": \"#BF1932\",\n  \"pantone_value\": \"19-1664\"\n},\n{\n  \"id\": 4,\n  \"name\": \"aqua sky\",\n  \"year\": 2003,\n  \"color\": \"#7BC4C4\",\n  \"pantone_value\": \"14-4811\"\n},\n{\n  \"id\": 5,\n  \"name\": \"tigerlily\",\n  \"year\": 2004,\n  \"color\": \"#E2583E\",\n  \"pantone_value\": \"17-1456\"\n},\n{\n  \"id\": 6,\n  \"name\": \"blue turquoise\",\n  \"year\": 2005,\n  \"color\": \"#53B0AE\",\n  \"pantone_value\": \"15-5217\"\n}\n  ],\n  \"support\": {\n\"url\": \"https:\/\/reqres.in\/#support-heading\",\n\"text\": \"To keep ReqRes free, contributions towards server costs are appreciated!\"\n  }\n}","index":5,"text":"match response =="}}],"line":10,"description":"","durationMillis":112.1516,"failed":false,"tags":["Regression","Smoke"],"executorName":"pool-1-thread-1","name":"To get all the data from the application in JSON format using match equals variable","startTime":1711621458599,"refId":"[1:10]","endTime":1711621458714,"exampleIndex":-1},{"sectionIndex":1,"stepResults":[{"result":{"nanos":140200,"startTime":1711621458718,"endTime":1711621458718,"millis":0.1402,"status":"passed"},"step":{"background":true,"line":6,"prefix":"Given","index":0,"text":"url 'https:\/\/reqres.in'"}},{"result":{"nanos":64000,"startTime":1711621458718,"endTime":1711621458718,"millis":0.064,"status":"passed"},"step":{"line":75,"prefix":"Given","index":0,"text":"path '\/api\/users?page=2'"}},{"result":{"nanos":111600,"startTime":1711621458718,"endTime":1711621458718,"millis":0.1116,"status":"passed"},"step":{"line":76,"prefix":"And","index":1,"text":"header Accept = 'application\/json'"}},{"result":{"nanos":77323300,"startTime":1711621458718,"endTime":1711621458795,"millis":77.3233,"status":"passed"},"step":{"line":77,"prefix":"When","index":2,"text":"method get"}},{"result":{"nanos":11500,"startTime":1711621458795,"endTime":1711621458795,"millis":0.0115,"status":"passed"},"step":{"line":78,"prefix":"Then","index":3,"text":"status 200"}},{"result":{"nanos":406700,"startTime":1711621458795,"endTime":1711621458795,"millis":0.4067,"status":"passed"},"step":{"line":79,"prefix":"And","index":4,"text":"print response"}},{"result":{"nanos":1168100,"startTime":1711621458796,"endTime":1711621458797,"millis":1.1681,"status":"passed"},"step":{"endLine":135,"line":80,"prefix":"And","docString":"{ \"page\": 11,\n  \"per_page\": 6,\n  \"total\": 12,\n  \"total_pages\": 2,\n  \"data\": [\n{\n  \"id\": 1,\n  \"name\": \"cerulean\",\n  \"year\": 2000,\n  \"color\": \"#98B2D1\",\n  \"pantone_value\": \"15-4020\"\n},\n{\n  \"id\": 2,\n  \"name\": \"fuchsia rose\",\n  \"year\": 2001,\n  \"color\": \"#C74375\",\n  \"pantone_value\": \"17-2031\"\n},\n{\n  \"id\": 3,\n  \"name\": \"true red\",\n  \"year\": 2002,\n  \"color\": \"#BF1932\",\n  \"pantone_value\": \"19-1664\"\n},\n{\n  \"id\": 4,\n  \"name\": \"aqua sky\",\n  \"year\": 2003,\n  \"color\": \"#7BC4C4\",\n  \"pantone_value\": \"14-4811\"\n},\n{\n  \"id\": 5,\n  \"name\": \"tigerlily\",\n  \"year\": 2004,\n  \"color\": \"#E2583E\",\n  \"pantone_value\": \"17-1456\"\n},\n{\n  \"id\": 6,\n  \"name\": \"blue turquoise\",\n  \"year\": 2005,\n  \"color\": \"#53B0AE\",\n  \"pantone_value\": \"15-5217\"\n}\n  ],\n  \"support\": {\n\"url\": \"https:\/\/reqres.in\/#support-heading\",\n\"text\": \"To keep ReqRes free, contributions towards server costs are appreciated!\"\n  }\n}","index":5,"text":"match response !="}}],"line":74,"description":"","durationMillis":79.2254,"failed":false,"tags":["Regression","Smoke"],"executorName":"pool-1-thread-1","name":"To get all the data from the application in JSON format using negate operator","startTime":1711621458717,"refId":"[2:74]","endTime":1711621458797,"exampleIndex":-1},{"sectionIndex":2,"stepResults":[{"result":{"nanos":199300,"startTime":1711621458801,"endTime":1711621458801,"millis":0.1993,"status":"passed"},"step":{"background":true,"line":6,"prefix":"Given","index":0,"text":"url 'https:\/\/reqres.in'"}},{"result":{"nanos":132900,"startTime":1711621458801,"endTime":1711621458801,"millis":0.1329,"status":"passed"},"step":{"line":140,"prefix":"Given","index":0,"text":"path '\/api\/users?page=2'"}},{"result":{"nanos":179200,"startTime":1711621458802,"endTime":1711621458802,"millis":0.1792,"status":"passed"},"step":{"line":141,"prefix":"And","index":1,"text":"header Accept = 'application\/json'"}},{"result":{"nanos":345544300,"startTime":1711621458802,"endTime":1711621459148,"millis":345.5443,"status":"passed"},"step":{"line":142,"prefix":"When","index":2,"text":"method get"}},{"result":{"nanos":428900,"startTime":1711621459148,"endTime":1711621459148,"millis":0.4289,"status":"passed"},"step":{"line":143,"prefix":"Then","index":3,"text":"status 200"}},{"result":{"nanos":814500,"startTime":1711621459149,"endTime":1711621459150,"millis":0.8145,"status":"passed"},"step":{"line":144,"prefix":"And","index":4,"text":"print response"}},{"result":{"nanos":862300,"startTime":1711621459149,"endTime":1711621459150,"millis":0.8623,"status":"passed"},"step":{"line":145,"prefix":"And","index":5,"text":"match response contains deep {\"data\":[ {\"name\": \"blue turquoise\"}]}"}},{"result":{"nanos":622200,"errorMessage":"match failed: CONTAINS_DEEP\n  $ | actual does not contain expected | actual does not contain key - 'text' (MAP:MAP)\n  {\"page\":1,\"per_page\":6,\"total\":12,\"total_pages\":2,\"data\":[{\"id\":1,\"name\":\"cerulean\",\"year\":2000,\"color\":\"#98B2D1\",\"pantone_value\":\"15-4020\"},{\"id\":2,\"name\":\"fuchsia rose\",\"year\":2001,\"color\":\"#C74375\",\"pantone_value\":\"17-2031\"},{\"id\":3,\"name\":\"true red\",\"year\":2002,\"color\":\"#BF1932\",\"pantone_value\":\"19-1664\"},{\"id\":4,\"name\":\"aqua sky\",\"year\":2003,\"color\":\"#7BC4C4\",\"pantone_value\":\"14-4811\"},{\"id\":5,\"name\":\"tigerlily\",\"year\":2004,\"color\":\"#E2583E\",\"pantone_value\":\"17-1456\"},{\"id\":6,\"name\":\"blue turquoise\",\"year\":2005,\"color\":\"#53B0AE\",\"pantone_value\":\"15-5217\"}],\"support\":{\"url\":\"https:\/\/reqres.in\/#support-heading\",\"text\":\"To keep ReqRes free, contributions towards server costs are appreciated!\"}}\n  {\"text\":\"To keep ReqRes free, contributions towards server costs are appreciated!\"}\n\n\nclasspath:com\/api\/automation\/getrequest\/responseMatcher.feature:146","startTime":1711621459150,"endTime":1711621459151,"millis":0.6222,"status":"failed"},"step":{"line":146,"prefix":"And","index":6,"text":"match response contains deep {\"text\": \"To keep ReqRes free, contributions towards server costs are appreciated!\" }"}},{"result":{"nanos":0,"startTime":1711621459151,"endTime":1711621459151,"millis":0.0,"status":"skipped"},"step":{"line":147,"prefix":"And","index":7,"text":"match header Content-Type == 'application\/json'"}},{"result":{"nanos":0,"startTime":1711621459151,"endTime":1711621459151,"millis":0.0,"status":"skipped"},"step":{"line":148,"prefix":"And","index":8,"text":"match header Connection == 'keep-alive'"}}],"line":139,"description":"","durationMillis":348.7836,"failed":true,"error":"match failed: CONTAINS_DEEP\n  $ | actual does not contain expected | actual does not contain key - 'text' (MAP:MAP)\n  {\"page\":1,\"per_page\":6,\"total\":12,\"total_pages\":2,\"data\":[{\"id\":1,\"name\":\"cerulean\",\"year\":2000,\"color\":\"#98B2D1\",\"pantone_value\":\"15-4020\"},{\"id\":2,\"name\":\"fuchsia rose\",\"year\":2001,\"color\":\"#C74375\",\"pantone_value\":\"17-2031\"},{\"id\":3,\"name\":\"true red\",\"year\":2002,\"color\":\"#BF1932\",\"pantone_value\":\"19-1664\"},{\"id\":4,\"name\":\"aqua sky\",\"year\":2003,\"color\":\"#7BC4C4\",\"pantone_value\":\"14-4811\"},{\"id\":5,\"name\":\"tigerlily\",\"year\":2004,\"color\":\"#E2583E\",\"pantone_value\":\"17-1456\"},{\"id\":6,\"name\":\"blue turquoise\",\"year\":2005,\"color\":\"#53B0AE\",\"pantone_value\":\"15-5217\"}],\"support\":{\"url\":\"https:\/\/reqres.in\/#support-heading\",\"text\":\"To keep ReqRes free, contributions towards server costs are appreciated!\"}}\n  {\"text\":\"To keep ReqRes free, contributions towards server costs are appreciated!\"}\n\n\nclasspath:com\/api\/automation\/getrequest\/responseMatcher.feature:146","tags":["Regression","Smoke"],"executorName":"pool-1-thread-1","name":"To get all the data from the application in JSON format for specific property","startTime":1711621458800,"refId":"[3:139]","endTime":1711621459151,"exampleIndex":-1}],"callDepth":0,"name":"To validate the Get endpoint","description":"To validate the Get endpoint response","resultDate":"2024-03-28 03:54:19 pm","durationMillis":540.1606,"passedCount":2}