{"failedCount":1,"prefixedPath":"classpath:com\/api\/automation\/getrequest\/responseMatcher.feature","packageQualifiedName":"com.api.automation.getrequest.responseMatcher","loopIndex":-1,"relativePath":"com\/api\/automation\/getrequest\/responseMatcher.feature","scenarioResults":[{"sectionIndex":0,"stepResults":[{"result":{"nanos":142800,"startTime":1707820938034,"endTime":1707820938034,"millis":0.1428,"status":"passed"},"step":{"background":true,"line":5,"prefix":"Given","index":0,"text":"url 'https:\/\/reqres.in'"},"stepLog":"16:12:18.034 karate.env system property was: null \n"},{"result":{"nanos":28200,"startTime":1707820938035,"endTime":1707820938035,"millis":0.0282,"status":"passed"},"step":{"line":9,"prefix":"Given","index":0,"text":"path '\/api\/users?page=2'"}},{"result":{"nanos":75800,"startTime":1707820938035,"endTime":1707820938035,"millis":0.0758,"status":"passed"},"step":{"line":10,"prefix":"And","index":1,"text":"header Accept = 'application\/json'"}},{"result":{"nanos":135913500,"startTime":1707820938035,"endTime":1707820938171,"millis":135.9135,"status":"passed"},"step":{"line":11,"prefix":"When","index":2,"text":"method get"},"stepLog":"16:12:18.036 request:\n1 > GET https:\/\/reqres.in\/api\/users%3Fpage=2\n1 > Accept: application\/json\n1 > Host: reqres.in\n1 > Connection: Keep-Alive\n1 > User-Agent: Apache-HttpClient\/4.5.14 (Java\/17.0.2)\n1 > Accept-Encoding: gzip,deflate\n\n\n16:12:18.169 response time in milliseconds: 132\n1 < 200\n1 < Date: Tue, 13 Feb 2024 10:42:18 GMT\n1 < Content-Type: application\/json; charset=utf-8\n1 < Transfer-Encoding: chunked\n1 < Connection: keep-alive\n1 < Report-To: {\"group\":\"heroku-nel\",\"max_age\":3600,\"endpoints\":[{\"url\":\"https:\/\/nel.heroku.com\/reports?ts=1707652415&sid=c4c9725f-1ab0-44d8-820f-430df2718e11&s=xcrw9XEcAjhfJ0R1A0F%2FlI3x22KBrtcpl3ApaP8tyR8%3D\"}]}\n1 < Reporting-Endpoints: heroku-nel=https:\/\/nel.heroku.com\/reports?ts=1707652415&sid=c4c9725f-1ab0-44d8-820f-430df2718e11&s=xcrw9XEcAjhfJ0R1A0F%2FlI3x22KBrtcpl3ApaP8tyR8%3D\n1 < Nel: {\"report_to\":\"heroku-nel\",\"max_age\":3600,\"success_fraction\":0.005,\"failure_fraction\":0.05,\"response_headers\":[\"Via\"]}\n1 < X-Powered-By: Express\n1 < Access-Control-Allow-Origin: *\n1 < Etag: W\/\"2c1-N6Rqerxquq2kgQhL51EiSg4x0R8\"\n1 < Via: 1.1 vegur\n1 < Cache-Control: max-age=14400\n1 < CF-Cache-Status: HIT\n1 < Age: 1639\n1 < Vary: Accept-Encoding\n1 < Server: cloudflare\n1 < CF-RAY: 854c76c4798a85b3-BOM\n{\"page\":1,\"per_page\":6,\"total\":12,\"total_pages\":2,\"data\":[{\"id\":1,\"name\":\"cerulean\",\"year\":2000,\"color\":\"#98B2D1\",\"pantone_value\":\"15-4020\"},{\"id\":2,\"name\":\"fuchsia rose\",\"year\":2001,\"color\":\"#C74375\",\"pantone_value\":\"17-2031\"},{\"id\":3,\"name\":\"true red\",\"year\":2002,\"color\":\"#BF1932\",\"pantone_value\":\"19-1664\"},{\"id\":4,\"name\":\"aqua sky\",\"year\":2003,\"color\":\"#7BC4C4\",\"pantone_value\":\"14-4811\"},{\"id\":5,\"name\":\"tigerlily\",\"year\":2004,\"color\":\"#E2583E\",\"pantone_value\":\"17-1456\"},{\"id\":6,\"name\":\"blue turquoise\",\"year\":2005,\"color\":\"#53B0AE\",\"pantone_value\":\"15-5217\"}],\"support\":{\"url\":\"https:\/\/reqres.in\/#support-heading\",\"text\":\"To keep ReqRes free, contributions towards server costs are appreciated!\"}}\n\n"},{"result":{"nanos":11900,"startTime":1707820938171,"endTime":1707820938171,"millis":0.0119,"status":"passed"},"step":{"line":12,"prefix":"Then","index":3,"text":"status 200"}},{"result":{"nanos":2047900,"startTime":1707820938171,"endTime":1707820938173,"millis":2.0479,"status":"passed"},"step":{"line":13,"prefix":"And","index":4,"text":"print response"},"stepLog":"16:12:18.173 [print] {\n  \"page\": 1,\n  \"per_page\": 6,\n  \"total\": 12,\n  \"total_pages\": 2,\n  \"data\": [\n    {\n      \"id\": 1,\n      \"name\": \"cerulean\",\n      \"year\": 2000,\n      \"color\": \"#98B2D1\",\n      \"pantone_value\": \"15-4020\"\n    },\n    {\n      \"id\": 2,\n      \"name\": \"fuchsia rose\",\n      \"year\": 2001,\n      \"color\": \"#C74375\",\n      \"pantone_value\": \"17-2031\"\n    },\n    {\n      \"id\": 3,\n      \"name\": \"true red\",\n      \"year\": 2002,\n      \"color\": \"#BF1932\",\n      \"pantone_value\": \"19-1664\"\n    },\n    {\n      \"id\": 4,\n      \"name\": \"aqua sky\",\n      \"year\": 2003,\n      \"color\": \"#7BC4C4\",\n      \"pantone_value\": \"14-4811\"\n    },\n    {\n      \"id\": 5,\n      \"name\": \"tigerlily\",\n      \"year\": 2004,\n      \"color\": \"#E2583E\",\n      \"pantone_value\": \"17-1456\"\n    },\n    {\n      \"id\": 6,\n      \"name\": \"blue turquoise\",\n      \"year\": 2005,\n      \"color\": \"#53B0AE\",\n      \"pantone_value\": \"15-5217\"\n    }\n  ],\n  \"support\": {\n    \"url\": \"https:\/\/reqres.in\/#support-heading\",\n    \"text\": \"To keep ReqRes free, contributions towards server costs are appreciated!\"\n  }\n}\n \n"},{"result":{"nanos":21099900,"startTime":1707820938173,"endTime":1707820938194,"millis":21.0999,"status":"passed"},"step":{"endLine":69,"line":14,"prefix":"And","docString":"{ \"page\": 1,\n  \"per_page\": 6,\n  \"total\": 12,\n  \"total_pages\": 2,\n  \"data\": [\n{\n  \"id\": 1,\n  \"name\": \"cerulean\",\n  \"year\": 2000,\n  \"color\": \"#98B2D1\",\n  \"pantone_value\": \"15-4020\"\n},\n{\n  \"id\": 2,\n  \"name\": \"fuchsia rose\",\n  \"year\": 2001,\n  \"color\": \"#C74375\",\n  \"pantone_value\": \"17-2031\"\n},\n{\n  \"id\": 3,\n  \"name\": \"true red\",\n  \"year\": 2002,\n  \"color\": \"#BF1932\",\n  \"pantone_value\": \"19-1664\"\n},\n{\n  \"id\": 4,\n  \"name\": \"aqua sky\",\n  \"year\": 2003,\n  \"color\": \"#7BC4C4\",\n  \"pantone_value\": \"14-4811\"\n},\n{\n  \"id\": 5,\n  \"name\": \"tigerlily\",\n  \"year\": 2004,\n  \"color\": \"#E2583E\",\n  \"pantone_value\": \"17-1456\"\n},\n{\n  \"id\": 6,\n  \"name\": \"blue turquoise\",\n  \"year\": 2005,\n  \"color\": \"#53B0AE\",\n  \"pantone_value\": \"15-5217\"\n}\n  ],\n  \"support\": {\n\"url\": \"https:\/\/reqres.in\/#support-heading\",\n\"text\": \"To keep ReqRes free, contributions towards server costs are appreciated!\"\n  }\n}","index":5,"text":"match response =="}}],"executorName":"main","line":8,"name":"To get all the data from the application in JSON format using match equals variable","description":"","durationMillis":159.32,"startTime":1707820938033,"failed":false,"refId":"[1:8]","endTime":1707820938194,"exampleIndex":-1},{"sectionIndex":1,"stepResults":[{"result":{"nanos":463900,"startTime":1707820938202,"endTime":1707820938202,"millis":0.4639,"status":"passed"},"step":{"background":true,"line":5,"prefix":"Given","index":0,"text":"url 'https:\/\/reqres.in'"},"stepLog":"16:12:18.201 karate.env system property was: null \n"},{"result":{"nanos":189500,"startTime":1707820938203,"endTime":1707820938203,"millis":0.1895,"status":"passed"},"step":{"line":73,"prefix":"Given","index":0,"text":"path '\/api\/users?page=2'"}},{"result":{"nanos":253800,"startTime":1707820938203,"endTime":1707820938203,"millis":0.2538,"status":"passed"},"step":{"line":74,"prefix":"And","index":1,"text":"header Accept = 'application\/json'"}},{"result":{"nanos":171754800,"startTime":1707820938203,"endTime":1707820938375,"millis":171.7548,"status":"passed"},"step":{"line":75,"prefix":"When","index":2,"text":"method get"},"stepLog":"16:12:18.204 request:\n1 > GET https:\/\/reqres.in\/api\/users%3Fpage=2\n1 > Accept: application\/json\n1 > Host: reqres.in\n1 > Connection: Keep-Alive\n1 > User-Agent: Apache-HttpClient\/4.5.14 (Java\/17.0.2)\n1 > Accept-Encoding: gzip,deflate\n\n\n16:12:18.374 response time in milliseconds: 169\n1 < 200\n1 < Date: Tue, 13 Feb 2024 10:42:19 GMT\n1 < Content-Type: application\/json; charset=utf-8\n1 < Transfer-Encoding: chunked\n1 < Connection: keep-alive\n1 < Report-To: {\"group\":\"heroku-nel\",\"max_age\":3600,\"endpoints\":[{\"url\":\"https:\/\/nel.heroku.com\/reports?ts=1707110353&sid=c4c9725f-1ab0-44d8-820f-430df2718e11&s=W6hLHYtWOdDEobAl36u4FBholCA0BnlvBNdPNp7XkyU%3D\"}]}\n1 < Reporting-Endpoints: heroku-nel=https:\/\/nel.heroku.com\/reports?ts=1707110353&sid=c4c9725f-1ab0-44d8-820f-430df2718e11&s=W6hLHYtWOdDEobAl36u4FBholCA0BnlvBNdPNp7XkyU%3D\n1 < Nel: {\"report_to\":\"heroku-nel\",\"max_age\":3600,\"success_fraction\":0.005,\"failure_fraction\":0.05,\"response_headers\":[\"Via\"]}\n1 < X-Powered-By: Express\n1 < Access-Control-Allow-Origin: *\n1 < Etag: W\/\"2c1-N6Rqerxquq2kgQhL51EiSg4x0R8\"\n1 < Via: 1.1 vegur\n1 < Cache-Control: max-age=14400\n1 < CF-Cache-Status: HIT\n1 < Age: 3437\n1 < Vary: Accept-Encoding\n1 < Server: cloudflare\n1 < CF-RAY: 854c76c5a98759ff-DEL\n{\"page\":1,\"per_page\":6,\"total\":12,\"total_pages\":2,\"data\":[{\"id\":1,\"name\":\"cerulean\",\"year\":2000,\"color\":\"#98B2D1\",\"pantone_value\":\"15-4020\"},{\"id\":2,\"name\":\"fuchsia rose\",\"year\":2001,\"color\":\"#C74375\",\"pantone_value\":\"17-2031\"},{\"id\":3,\"name\":\"true red\",\"year\":2002,\"color\":\"#BF1932\",\"pantone_value\":\"19-1664\"},{\"id\":4,\"name\":\"aqua sky\",\"year\":2003,\"color\":\"#7BC4C4\",\"pantone_value\":\"14-4811\"},{\"id\":5,\"name\":\"tigerlily\",\"year\":2004,\"color\":\"#E2583E\",\"pantone_value\":\"17-1456\"},{\"id\":6,\"name\":\"blue turquoise\",\"year\":2005,\"color\":\"#53B0AE\",\"pantone_value\":\"15-5217\"}],\"support\":{\"url\":\"https:\/\/reqres.in\/#support-heading\",\"text\":\"To keep ReqRes free, contributions towards server costs are appreciated!\"}}\n\n"},{"result":{"nanos":14800,"startTime":1707820938375,"endTime":1707820938375,"millis":0.0148,"status":"passed"},"step":{"line":76,"prefix":"Then","index":3,"text":"status 200"}},{"result":{"nanos":1195200,"startTime":1707820938375,"endTime":1707820938376,"millis":1.1952,"status":"passed"},"step":{"line":77,"prefix":"And","index":4,"text":"print response"},"stepLog":"16:12:18.376 [print] {\n  \"page\": 1,\n  \"per_page\": 6,\n  \"total\": 12,\n  \"total_pages\": 2,\n  \"data\": [\n    {\n      \"id\": 1,\n      \"name\": \"cerulean\",\n      \"year\": 2000,\n      \"color\": \"#98B2D1\",\n      \"pantone_value\": \"15-4020\"\n    },\n    {\n      \"id\": 2,\n      \"name\": \"fuchsia rose\",\n      \"year\": 2001,\n      \"color\": \"#C74375\",\n      \"pantone_value\": \"17-2031\"\n    },\n    {\n      \"id\": 3,\n      \"name\": \"true red\",\n      \"year\": 2002,\n      \"color\": \"#BF1932\",\n      \"pantone_value\": \"19-1664\"\n    },\n    {\n      \"id\": 4,\n      \"name\": \"aqua sky\",\n      \"year\": 2003,\n      \"color\": \"#7BC4C4\",\n      \"pantone_value\": \"14-4811\"\n    },\n    {\n      \"id\": 5,\n      \"name\": \"tigerlily\",\n      \"year\": 2004,\n      \"color\": \"#E2583E\",\n      \"pantone_value\": \"17-1456\"\n    },\n    {\n      \"id\": 6,\n      \"name\": \"blue turquoise\",\n      \"year\": 2005,\n      \"color\": \"#53B0AE\",\n      \"pantone_value\": \"15-5217\"\n    }\n  ],\n  \"support\": {\n    \"url\": \"https:\/\/reqres.in\/#support-heading\",\n    \"text\": \"To keep ReqRes free, contributions towards server costs are appreciated!\"\n  }\n}\n \n"},{"result":{"nanos":1608800,"startTime":1707820938376,"endTime":1707820938378,"millis":1.6088,"status":"passed"},"step":{"endLine":133,"line":78,"prefix":"And","docString":"{ \"page\": 11,\n  \"per_page\": 6,\n  \"total\": 12,\n  \"total_pages\": 2,\n  \"data\": [\n{\n  \"id\": 1,\n  \"name\": \"cerulean\",\n  \"year\": 2000,\n  \"color\": \"#98B2D1\",\n  \"pantone_value\": \"15-4020\"\n},\n{\n  \"id\": 2,\n  \"name\": \"fuchsia rose\",\n  \"year\": 2001,\n  \"color\": \"#C74375\",\n  \"pantone_value\": \"17-2031\"\n},\n{\n  \"id\": 3,\n  \"name\": \"true red\",\n  \"year\": 2002,\n  \"color\": \"#BF1932\",\n  \"pantone_value\": \"19-1664\"\n},\n{\n  \"id\": 4,\n  \"name\": \"aqua sky\",\n  \"year\": 2003,\n  \"color\": \"#7BC4C4\",\n  \"pantone_value\": \"14-4811\"\n},\n{\n  \"id\": 5,\n  \"name\": \"tigerlily\",\n  \"year\": 2004,\n  \"color\": \"#E2583E\",\n  \"pantone_value\": \"17-1456\"\n},\n{\n  \"id\": 6,\n  \"name\": \"blue turquoise\",\n  \"year\": 2005,\n  \"color\": \"#53B0AE\",\n  \"pantone_value\": \"15-5217\"\n}\n  ],\n  \"support\": {\n\"url\": \"https:\/\/reqres.in\/#support-heading\",\n\"text\": \"To keep ReqRes free, contributions towards server costs are appreciated!\"\n  }\n}","index":5,"text":"match response !="}}],"executorName":"main","line":72,"name":"To get all the data from the application in JSON format using negate operator","description":"","durationMillis":175.4808,"startTime":1707820938199,"failed":false,"refId":"[2:72]","endTime":1707820938378,"exampleIndex":-1},{"sectionIndex":2,"stepResults":[{"result":{"nanos":99600,"startTime":1707820938384,"endTime":1707820938384,"millis":0.0996,"status":"passed"},"step":{"background":true,"line":5,"prefix":"Given","index":0,"text":"url 'https:\/\/reqres.in'"},"stepLog":"16:12:18.384 karate.env system property was: null \n"},{"result":{"nanos":28900,"startTime":1707820938384,"endTime":1707820938384,"millis":0.0289,"status":"passed"},"step":{"line":137,"prefix":"Given","index":0,"text":"path '\/api\/users?page=2'"}},{"result":{"nanos":95800,"startTime":1707820938384,"endTime":1707820938384,"millis":0.0958,"status":"passed"},"step":{"line":138,"prefix":"And","index":1,"text":"header Accept = 'application\/json'"}},{"result":{"nanos":156905100,"startTime":1707820938385,"endTime":1707820938542,"millis":156.9051,"status":"passed"},"step":{"line":139,"prefix":"When","index":2,"text":"method get"},"stepLog":"16:12:18.386 request:\n1 > GET https:\/\/reqres.in\/api\/users%3Fpage=2\n1 > Accept: application\/json\n1 > Host: reqres.in\n1 > Connection: Keep-Alive\n1 > User-Agent: Apache-HttpClient\/4.5.14 (Java\/17.0.2)\n1 > Accept-Encoding: gzip,deflate\n\n\n16:12:18.541 response time in milliseconds: 153\n1 < 200\n1 < Date: Tue, 13 Feb 2024 10:42:19 GMT\n1 < Content-Type: application\/json; charset=utf-8\n1 < Transfer-Encoding: chunked\n1 < Connection: keep-alive\n1 < Report-To: {\"group\":\"heroku-nel\",\"max_age\":3600,\"endpoints\":[{\"url\":\"https:\/\/nel.heroku.com\/reports?ts=1707110353&sid=c4c9725f-1ab0-44d8-820f-430df2718e11&s=W6hLHYtWOdDEobAl36u4FBholCA0BnlvBNdPNp7XkyU%3D\"}]}\n1 < Reporting-Endpoints: heroku-nel=https:\/\/nel.heroku.com\/reports?ts=1707110353&sid=c4c9725f-1ab0-44d8-820f-430df2718e11&s=W6hLHYtWOdDEobAl36u4FBholCA0BnlvBNdPNp7XkyU%3D\n1 < Nel: {\"report_to\":\"heroku-nel\",\"max_age\":3600,\"success_fraction\":0.005,\"failure_fraction\":0.05,\"response_headers\":[\"Via\"]}\n1 < X-Powered-By: Express\n1 < Access-Control-Allow-Origin: *\n1 < Etag: W\/\"2c1-N6Rqerxquq2kgQhL51EiSg4x0R8\"\n1 < Via: 1.1 vegur\n1 < Cache-Control: max-age=14400\n1 < CF-Cache-Status: HIT\n1 < Age: 3437\n1 < Vary: Accept-Encoding\n1 < Server: cloudflare\n1 < CF-RAY: 854c76c6bcc75a02-DEL\n{\"page\":1,\"per_page\":6,\"total\":12,\"total_pages\":2,\"data\":[{\"id\":1,\"name\":\"cerulean\",\"year\":2000,\"color\":\"#98B2D1\",\"pantone_value\":\"15-4020\"},{\"id\":2,\"name\":\"fuchsia rose\",\"year\":2001,\"color\":\"#C74375\",\"pantone_value\":\"17-2031\"},{\"id\":3,\"name\":\"true red\",\"year\":2002,\"color\":\"#BF1932\",\"pantone_value\":\"19-1664\"},{\"id\":4,\"name\":\"aqua sky\",\"year\":2003,\"color\":\"#7BC4C4\",\"pantone_value\":\"14-4811\"},{\"id\":5,\"name\":\"tigerlily\",\"year\":2004,\"color\":\"#E2583E\",\"pantone_value\":\"17-1456\"},{\"id\":6,\"name\":\"blue turquoise\",\"year\":2005,\"color\":\"#53B0AE\",\"pantone_value\":\"15-5217\"}],\"support\":{\"url\":\"https:\/\/reqres.in\/#support-heading\",\"text\":\"To keep ReqRes free, contributions towards server costs are appreciated!\"}}\n\n"},{"result":{"nanos":7400,"startTime":1707820938542,"endTime":1707820938542,"millis":0.0074,"status":"passed"},"step":{"line":140,"prefix":"Then","index":3,"text":"status 200"}},{"result":{"nanos":703200,"startTime":1707820938542,"endTime":1707820938543,"millis":0.7032,"status":"passed"},"step":{"line":141,"prefix":"And","index":4,"text":"print response"},"stepLog":"16:12:18.543 [print] {\n  \"page\": 1,\n  \"per_page\": 6,\n  \"total\": 12,\n  \"total_pages\": 2,\n  \"data\": [\n    {\n      \"id\": 1,\n      \"name\": \"cerulean\",\n      \"year\": 2000,\n      \"color\": \"#98B2D1\",\n      \"pantone_value\": \"15-4020\"\n    },\n    {\n      \"id\": 2,\n      \"name\": \"fuchsia rose\",\n      \"year\": 2001,\n      \"color\": \"#C74375\",\n      \"pantone_value\": \"17-2031\"\n    },\n    {\n      \"id\": 3,\n      \"name\": \"true red\",\n      \"year\": 2002,\n      \"color\": \"#BF1932\",\n      \"pantone_value\": \"19-1664\"\n    },\n    {\n      \"id\": 4,\n      \"name\": \"aqua sky\",\n      \"year\": 2003,\n      \"color\": \"#7BC4C4\",\n      \"pantone_value\": \"14-4811\"\n    },\n    {\n      \"id\": 5,\n      \"name\": \"tigerlily\",\n      \"year\": 2004,\n      \"color\": \"#E2583E\",\n      \"pantone_value\": \"17-1456\"\n    },\n    {\n      \"id\": 6,\n      \"name\": \"blue turquoise\",\n      \"year\": 2005,\n      \"color\": \"#53B0AE\",\n      \"pantone_value\": \"15-5217\"\n    }\n  ],\n  \"support\": {\n    \"url\": \"https:\/\/reqres.in\/#support-heading\",\n    \"text\": \"To keep ReqRes free, contributions towards server costs are appreciated!\"\n  }\n}\n \n"},{"result":{"nanos":900200,"startTime":1707820938543,"endTime":1707820938544,"millis":0.9002,"status":"passed"},"step":{"line":142,"prefix":"And","index":5,"text":"match response contains deep {\"data\":[ {\"name\": \"blue turquoise\"}]}"}},{"result":{"nanos":896400,"errorMessage":"net.minidev.json.parser.ParseException: Unexpected character ({) at position 10.\nclasspath:com\/api\/automation\/getrequest\/responseMatcher.feature:143","startTime":1707820938544,"endTime":1707820938545,"millis":0.8964,"status":"failed"},"step":{"line":143,"prefix":"And","index":6,"text":"match response contains deep {\"support\" { \"text\": \"To keep ReqRes free, contributions towards server costs are appreciated!\" } }"},"stepLog":"16:12:18.546 classpath:com\/api\/automation\/getrequest\/responseMatcher.feature:143\nAnd match response contains deep {\"support\" { \"text\": \"To keep ReqRes free, contributions towards server costs are appreciated!\" } }\nnet.minidev.json.parser.ParseException: Unexpected character ({) at position 10.\nclasspath:com\/api\/automation\/getrequest\/responseMatcher.feature:143\n"},{"result":{"nanos":0,"startTime":1707820938546,"endTime":1707820938546,"millis":0.0,"status":"skipped"},"step":{"line":144,"prefix":"And","index":7,"text":"match header Content-Type == 'application\/json'"}},{"result":{"nanos":0,"startTime":1707820938546,"endTime":1707820938546,"millis":0.0,"status":"skipped"},"step":{"line":145,"prefix":"And","index":8,"text":"match header Connection == 'keep-alive'"}}],"line":136,"description":"","durationMillis":159.6366,"failed":true,"error":"net.minidev.json.parser.ParseException: Unexpected character ({) at position 10.\nclasspath:com\/api\/automation\/getrequest\/responseMatcher.feature:143","executorName":"main","name":"To get all the data from the application in JSON format for specific property","startTime":1707820938383,"refId":"[3:136]","endTime":1707820938546,"exampleIndex":-1}],"callDepth":0,"name":"To validate the Get endpoint","description":"To validate the Get endpoint response","resultDate":"2024-02-13 04:12:18 pm","durationMillis":494.4374,"passedCount":2}