{"failedCount":1,"prefixedPath":"classpath:com\/api\/automation\/getrequest\/jsonPathExpression.feature","packageQualifiedName":"com.api.automation.getrequest.jsonPathExpression","loopIndex":-1,"relativePath":"com\/api\/automation\/getrequest\/jsonPathExpression.feature","scenarioResults":[{"sectionIndex":0,"stepResults":[{"result":{"nanos":1147800,"startTime":1708578507808,"endTime":1708578507809,"millis":1.1478,"status":"passed"},"step":{"background":true,"line":4,"prefix":"Given","index":0,"text":"url 'https:\/\/reqres.in'"},"stepLog":"10:38:27.764 karate.env system property was: null \n"},{"result":{"nanos":478400,"startTime":1708578507812,"endTime":1708578507812,"millis":0.4784,"status":"passed"},"step":{"line":7,"prefix":"Given","index":0,"text":"path '\/api\/users?page=2'"}},{"result":{"nanos":1106879300,"startTime":1708578507812,"endTime":1708578508919,"millis":1106.8793,"status":"passed"},"step":{"line":8,"prefix":"When","index":1,"text":"method get"},"stepLog":"10:38:28.170 request:\n1 > GET https:\/\/reqres.in\/api\/users%3Fpage=2\n1 > Host: reqres.in\n1 > Connection: Keep-Alive\n1 > User-Agent: Apache-HttpClient\/4.5.14 (Java\/17.0.2)\n1 > Accept-Encoding: gzip,deflate\n\n\n10:38:28.881 response time in milliseconds: 705\n1 < 200\n1 < Date: Thu, 22 Feb 2024 05:08:29 GMT\n1 < Content-Type: application\/json; charset=utf-8\n1 < Transfer-Encoding: chunked\n1 < Connection: keep-alive\n1 < Report-To: {\"group\":\"heroku-nel\",\"max_age\":3600,\"endpoints\":[{\"url\":\"https:\/\/nel.heroku.com\/reports?ts=1708476076&sid=c4c9725f-1ab0-44d8-820f-430df2718e11&s=FRg8nciG6tqjpFtbb9zkIeLpSo4qH0CKs047FJZnrNU%3D\"}]}\n1 < Reporting-Endpoints: heroku-nel=https:\/\/nel.heroku.com\/reports?ts=1708476076&sid=c4c9725f-1ab0-44d8-820f-430df2718e11&s=FRg8nciG6tqjpFtbb9zkIeLpSo4qH0CKs047FJZnrNU%3D\n1 < Nel: {\"report_to\":\"heroku-nel\",\"max_age\":3600,\"success_fraction\":0.005,\"failure_fraction\":0.05,\"response_headers\":[\"Via\"]}\n1 < X-Powered-By: Express\n1 < Access-Control-Allow-Origin: *\n1 < Etag: W\/\"2c1-N6Rqerxquq2kgQhL51EiSg4x0R8\"\n1 < Via: 1.1 vegur\n1 < Cache-Control: max-age=14400\n1 < CF-Cache-Status: REVALIDATED\n1 < Vary: Accept-Encoding\n1 < Server: cloudflare\n1 < CF-RAY: 8594b620bce76efe-BOM\n{\"page\":1,\"per_page\":6,\"total\":12,\"total_pages\":2,\"data\":[{\"id\":1,\"name\":\"cerulean\",\"year\":2000,\"color\":\"#98B2D1\",\"pantone_value\":\"15-4020\"},{\"id\":2,\"name\":\"fuchsia rose\",\"year\":2001,\"color\":\"#C74375\",\"pantone_value\":\"17-2031\"},{\"id\":3,\"name\":\"true red\",\"year\":2002,\"color\":\"#BF1932\",\"pantone_value\":\"19-1664\"},{\"id\":4,\"name\":\"aqua sky\",\"year\":2003,\"color\":\"#7BC4C4\",\"pantone_value\":\"14-4811\"},{\"id\":5,\"name\":\"tigerlily\",\"year\":2004,\"color\":\"#E2583E\",\"pantone_value\":\"17-1456\"},{\"id\":6,\"name\":\"blue turquoise\",\"year\":2005,\"color\":\"#53B0AE\",\"pantone_value\":\"15-5217\"}],\"support\":{\"url\":\"https:\/\/reqres.in\/#support-heading\",\"text\":\"To keep ReqRes free, contributions towards server costs are appreciated!\"}}\n\n"},{"result":{"nanos":22700,"startTime":1708578508920,"endTime":1708578508920,"millis":0.0227,"status":"passed"},"step":{"line":9,"prefix":"Then","index":2,"text":"status 200"}},{"result":{"nanos":40199900,"startTime":1708578508920,"endTime":1708578508960,"millis":40.1999,"status":"passed"},"step":{"comments":["#karate.jsonPath(doc, jsonPathExpression )"],"line":11,"prefix":"*","index":3,"text":"def total_pages = karate.jsonPath(response, \"$.total_pages\")"}},{"result":{"nanos":3834500,"startTime":1708578508960,"endTime":1708578508964,"millis":3.8345,"status":"passed"},"step":{"line":12,"prefix":"And","index":4,"text":"print response"},"stepLog":"10:38:28.964 [print] {\n  \"page\": 1,\n  \"per_page\": 6,\n  \"total\": 12,\n  \"total_pages\": 2,\n  \"data\": [\n    {\n      \"id\": 1,\n      \"name\": \"cerulean\",\n      \"year\": 2000,\n      \"color\": \"#98B2D1\",\n      \"pantone_value\": \"15-4020\"\n    },\n    {\n      \"id\": 2,\n      \"name\": \"fuchsia rose\",\n      \"year\": 2001,\n      \"color\": \"#C74375\",\n      \"pantone_value\": \"17-2031\"\n    },\n    {\n      \"id\": 3,\n      \"name\": \"true red\",\n      \"year\": 2002,\n      \"color\": \"#BF1932\",\n      \"pantone_value\": \"19-1664\"\n    },\n    {\n      \"id\": 4,\n      \"name\": \"aqua sky\",\n      \"year\": 2003,\n      \"color\": \"#7BC4C4\",\n      \"pantone_value\": \"14-4811\"\n    },\n    {\n      \"id\": 5,\n      \"name\": \"tigerlily\",\n      \"year\": 2004,\n      \"color\": \"#E2583E\",\n      \"pantone_value\": \"17-1456\"\n    },\n    {\n      \"id\": 6,\n      \"name\": \"blue turquoise\",\n      \"year\": 2005,\n      \"color\": \"#53B0AE\",\n      \"pantone_value\": \"15-5217\"\n    }\n  ],\n  \"support\": {\n    \"url\": \"https:\/\/reqres.in\/#support-heading\",\n    \"text\": \"To keep ReqRes free, contributions towards server costs are appreciated!\"\n  }\n}\n \n"},{"result":{"nanos":18196000,"errorMessage":"js failed:\n>>>>\n01: karate.jsonPath(response, \"$[data].[?(@.id== 2)].name\")\n<<<<\norg.graalvm.polyglot.PolyglotException: Could not parse token starting at position 1. Expected ?, ', 0-9, * \n- com.jayway.jsonpath.internal.path.PathCompiler.fail(PathCompiler.java:638)\n- com.jayway.jsonpath.internal.path.PathCompiler.readNextToken(PathCompiler.java:139)\n- com.jayway.jsonpath.internal.path.PathCompiler.readContextToken(PathCompiler.java:123)\n- com.jayway.jsonpath.internal.path.PathCompiler.compile(PathCompiler.java:58)\n- com.jayway.jsonpath.internal.path.PathCompiler.compile(PathCompiler.java:75)\n- com.jayway.jsonpath.JsonPath.<init>(JsonPath.java:97)\n- com.jayway.jsonpath.JsonPath.compile(JsonPath.java:515)\n\nclasspath:com\/api\/automation\/getrequest\/jsonPathExpression.feature:13","startTime":1708578508965,"endTime":1708578508983,"millis":18.196,"status":"failed"},"step":{"line":13,"prefix":"*","index":5,"text":"def data_name = karate.jsonPath(response, \"$[data].[?(@.id== 2)].name\")"},"stepLog":"10:38:28.984 classpath:com\/api\/automation\/getrequest\/jsonPathExpression.feature:13\n* def data_name = karate.jsonPath(response, \"$[data].[?(@.id== 2)].name\")\njs failed:\n>>>>\n01: karate.jsonPath(response, \"$[data].[?(@.id== 2)].name\")\n<<<<\norg.graalvm.polyglot.PolyglotException: Could not parse token starting at position 1. Expected ?, ', 0-9, * \n- com.jayway.jsonpath.internal.path.PathCompiler.fail(PathCompiler.java:638)\n- com.jayway.jsonpath.internal.path.PathCompiler.readNextToken(PathCompiler.java:139)\n- com.jayway.jsonpath.internal.path.PathCompiler.readContextToken(PathCompiler.java:123)\n- com.jayway.jsonpath.internal.path.PathCompiler.compile(PathCompiler.java:58)\n- com.jayway.jsonpath.internal.path.PathCompiler.compile(PathCompiler.java:75)\n- com.jayway.jsonpath.JsonPath.<init>(JsonPath.java:97)\n- com.jayway.jsonpath.JsonPath.compile(JsonPath.java:515)\n\nclasspath:com\/api\/automation\/getrequest\/jsonPathExpression.feature:13\n"},{"result":{"nanos":0,"startTime":1708578508984,"endTime":1708578508984,"millis":0.0,"status":"skipped"},"step":{"comments":["#* def support_text = karate.jsonPath(response, \"$[support].text\")"],"line":15,"prefix":"And","index":6,"text":"print \"Total Pages -->\" , total_pages"}}],"line":6,"description":"","durationMillis":1170.7586,"failed":true,"error":"js failed:\n>>>>\n01: karate.jsonPath(response, \"$[data].[?(@.id== 2)].name\")\n<<<<\norg.graalvm.polyglot.PolyglotException: Could not parse token starting at position 1. Expected ?, ', 0-9, * \n- com.jayway.jsonpath.internal.path.PathCompiler.fail(PathCompiler.java:638)\n- com.jayway.jsonpath.internal.path.PathCompiler.readNextToken(PathCompiler.java:139)\n- com.jayway.jsonpath.internal.path.PathCompiler.readContextToken(PathCompiler.java:123)\n- com.jayway.jsonpath.internal.path.PathCompiler.compile(PathCompiler.java:58)\n- com.jayway.jsonpath.internal.path.PathCompiler.compile(PathCompiler.java:75)\n- com.jayway.jsonpath.JsonPath.<init>(JsonPath.java:97)\n- com.jayway.jsonpath.JsonPath.compile(JsonPath.java:515)\n\nclasspath:com\/api\/automation\/getrequest\/jsonPathExpression.feature:13","executorName":"main","name":"To get all the data from the application using json path expression","startTime":1708578507529,"refId":"[1:6]","endTime":1708578508985,"exampleIndex":-1}],"callDepth":0,"name":"To test the endpoint of the application","description":"","resultDate":"2024-02-22 10:38:28 am","durationMillis":1170.7586,"passedCount":0}