{"failedCount":0,"prefixedPath":"classpath:com\/api\/automation\/getrequest\/getRequest.feature","packageQualifiedName":"com.api.automation.getrequest.getRequest","loopIndex":-1,"relativePath":"com\/api\/automation\/getrequest\/getRequest.feature","scenarioResults":[{"sectionIndex":0,"stepResults":[{"result":{"nanos":819200,"startTime":1707820936700,"endTime":1707820936701,"millis":0.8192,"status":"passed"},"step":{"background":true,"line":4,"prefix":"Given","index":0,"text":"url 'https:\/\/reqres.in'"},"stepLog":"16:12:16.678 karate.env system property was: null \n"},{"result":{"nanos":1162500,"startTime":1707820936702,"endTime":1707820936703,"millis":1.1625,"status":"passed"},"step":{"background":true,"line":5,"prefix":"And","index":1,"text":"print '========This is the Background keyword ====================='"},"stepLog":"16:12:16.703 [print] ========This is the Background keyword ===================== \n"},{"result":{"nanos":248300,"startTime":1707820936704,"endTime":1707820936704,"millis":0.2483,"status":"passed"},"step":{"line":23,"prefix":"Given","index":0,"text":"path '\/api\/users?page=2'"}},{"result":{"nanos":528302000,"startTime":1707820936704,"endTime":1707820937232,"millis":528.302,"status":"passed"},"step":{"line":24,"prefix":"When","index":1,"text":"method get #send the get request"},"stepLog":"16:12:16.901 request:\n1 > GET https:\/\/reqres.in\/api\/users%3Fpage=2\n1 > Host: reqres.in\n1 > Connection: Keep-Alive\n1 > User-Agent: Apache-HttpClient\/4.5.14 (Java\/17.0.2)\n1 > Accept-Encoding: gzip,deflate\n\n\n16:12:17.208 response time in milliseconds: 304\n1 < 200\n1 < Date: Tue, 13 Feb 2024 10:42:17 GMT\n1 < Content-Type: application\/json; charset=utf-8\n1 < Transfer-Encoding: chunked\n1 < Connection: keep-alive\n1 < Report-To: {\"group\":\"heroku-nel\",\"max_age\":3600,\"endpoints\":[{\"url\":\"https:\/\/nel.heroku.com\/reports?ts=1707110353&sid=c4c9725f-1ab0-44d8-820f-430df2718e11&s=W6hLHYtWOdDEobAl36u4FBholCA0BnlvBNdPNp7XkyU%3D\"}]}\n1 < Reporting-Endpoints: heroku-nel=https:\/\/nel.heroku.com\/reports?ts=1707110353&sid=c4c9725f-1ab0-44d8-820f-430df2718e11&s=W6hLHYtWOdDEobAl36u4FBholCA0BnlvBNdPNp7XkyU%3D\n1 < Nel: {\"report_to\":\"heroku-nel\",\"max_age\":3600,\"success_fraction\":0.005,\"failure_fraction\":0.05,\"response_headers\":[\"Via\"]}\n1 < X-Powered-By: Express\n1 < Access-Control-Allow-Origin: *\n1 < Etag: W\/\"2c1-N6Rqerxquq2kgQhL51EiSg4x0R8\"\n1 < Via: 1.1 vegur\n1 < Cache-Control: max-age=14400\n1 < CF-Cache-Status: HIT\n1 < Age: 3435\n1 < Vary: Accept-Encoding\n1 < Server: cloudflare\n1 < CF-RAY: 854c76be4cf359e7-DEL\n{\"page\":1,\"per_page\":6,\"total\":12,\"total_pages\":2,\"data\":[{\"id\":1,\"name\":\"cerulean\",\"year\":2000,\"color\":\"#98B2D1\",\"pantone_value\":\"15-4020\"},{\"id\":2,\"name\":\"fuchsia rose\",\"year\":2001,\"color\":\"#C74375\",\"pantone_value\":\"17-2031\"},{\"id\":3,\"name\":\"true red\",\"year\":2002,\"color\":\"#BF1932\",\"pantone_value\":\"19-1664\"},{\"id\":4,\"name\":\"aqua sky\",\"year\":2003,\"color\":\"#7BC4C4\",\"pantone_value\":\"14-4811\"},{\"id\":5,\"name\":\"tigerlily\",\"year\":2004,\"color\":\"#E2583E\",\"pantone_value\":\"17-1456\"},{\"id\":6,\"name\":\"blue turquoise\",\"year\":2005,\"color\":\"#53B0AE\",\"pantone_value\":\"15-5217\"}],\"support\":{\"url\":\"https:\/\/reqres.in\/#support-heading\",\"text\":\"To keep ReqRes free, contributions towards server costs are appreciated!\"}}\n\n"},{"result":{"nanos":26800,"startTime":1707820937233,"endTime":1707820937233,"millis":0.0268,"status":"passed"},"step":{"line":25,"prefix":"Then","index":2,"text":"status 200 #the status code response should be 200"}}],"executorName":"main","line":22,"name":"To get all the data from the application in JSON format","description":"","durationMillis":530.5588,"startTime":1707820936571,"failed":false,"refId":"[1:22]","endTime":1707820937233,"exampleIndex":-1},{"sectionIndex":1,"stepResults":[{"result":{"nanos":489100,"startTime":1707820937245,"endTime":1707820937245,"millis":0.4891,"status":"passed"},"step":{"background":true,"line":4,"prefix":"Given","index":0,"text":"url 'https:\/\/reqres.in'"},"stepLog":"16:12:17.244 karate.env system property was: null \n"},{"result":{"nanos":723100,"startTime":1707820937246,"endTime":1707820937247,"millis":0.7231,"status":"passed"},"step":{"background":true,"line":5,"prefix":"And","index":1,"text":"print '========This is the Background keyword ====================='"},"stepLog":"16:12:17.246 [print] ========This is the Background keyword ===================== \n"},{"result":{"nanos":217000,"startTime":1707820937246,"endTime":1707820937246,"millis":0.217,"status":"passed"},"step":{"line":29,"prefix":"Given","index":0,"text":"path '\/api\/users?page=2'"}},{"result":{"nanos":516600,"startTime":1707820937247,"endTime":1707820937248,"millis":0.5166,"status":"passed"},"step":{"line":30,"prefix":"And","index":1,"text":"header Accept = 'application\/json'"}},{"result":{"nanos":185810400,"startTime":1707820937247,"endTime":1707820937433,"millis":185.8104,"status":"passed"},"step":{"line":31,"prefix":"When","index":2,"text":"method get #send the get request"},"stepLog":"16:12:17.249 request:\n1 > GET https:\/\/reqres.in\/api\/users%3Fpage=2\n1 > Accept: application\/json\n1 > Host: reqres.in\n1 > Connection: Keep-Alive\n1 > User-Agent: Apache-HttpClient\/4.5.14 (Java\/17.0.2)\n1 > Accept-Encoding: gzip,deflate\n\n\n16:12:17.431 response time in milliseconds: 180\n1 < 200\n1 < Date: Tue, 13 Feb 2024 10:42:18 GMT\n1 < Content-Type: application\/json; charset=utf-8\n1 < Transfer-Encoding: chunked\n1 < Connection: keep-alive\n1 < Report-To: {\"group\":\"heroku-nel\",\"max_age\":3600,\"endpoints\":[{\"url\":\"https:\/\/nel.heroku.com\/reports?ts=1707110353&sid=c4c9725f-1ab0-44d8-820f-430df2718e11&s=W6hLHYtWOdDEobAl36u4FBholCA0BnlvBNdPNp7XkyU%3D\"}]}\n1 < Reporting-Endpoints: heroku-nel=https:\/\/nel.heroku.com\/reports?ts=1707110353&sid=c4c9725f-1ab0-44d8-820f-430df2718e11&s=W6hLHYtWOdDEobAl36u4FBholCA0BnlvBNdPNp7XkyU%3D\n1 < Nel: {\"report_to\":\"heroku-nel\",\"max_age\":3600,\"success_fraction\":0.005,\"failure_fraction\":0.05,\"response_headers\":[\"Via\"]}\n1 < X-Powered-By: Express\n1 < Access-Control-Allow-Origin: *\n1 < Etag: W\/\"2c1-N6Rqerxquq2kgQhL51EiSg4x0R8\"\n1 < Via: 1.1 vegur\n1 < Cache-Control: max-age=14400\n1 < CF-Cache-Status: HIT\n1 < Age: 3436\n1 < Vary: Accept-Encoding\n1 < Server: cloudflare\n1 < CF-RAY: 854c76bfc8eb59de-DEL\n{\"page\":1,\"per_page\":6,\"total\":12,\"total_pages\":2,\"data\":[{\"id\":1,\"name\":\"cerulean\",\"year\":2000,\"color\":\"#98B2D1\",\"pantone_value\":\"15-4020\"},{\"id\":2,\"name\":\"fuchsia rose\",\"year\":2001,\"color\":\"#C74375\",\"pantone_value\":\"17-2031\"},{\"id\":3,\"name\":\"true red\",\"year\":2002,\"color\":\"#BF1932\",\"pantone_value\":\"19-1664\"},{\"id\":4,\"name\":\"aqua sky\",\"year\":2003,\"color\":\"#7BC4C4\",\"pantone_value\":\"14-4811\"},{\"id\":5,\"name\":\"tigerlily\",\"year\":2004,\"color\":\"#E2583E\",\"pantone_value\":\"17-1456\"},{\"id\":6,\"name\":\"blue turquoise\",\"year\":2005,\"color\":\"#53B0AE\",\"pantone_value\":\"15-5217\"}],\"support\":{\"url\":\"https:\/\/reqres.in\/#support-heading\",\"text\":\"To keep ReqRes free, contributions towards server costs are appreciated!\"}}\n\n"},{"result":{"nanos":27100,"startTime":1707820937434,"endTime":1707820937434,"millis":0.0271,"status":"passed"},"step":{"line":32,"prefix":"Then","index":3,"text":"status 200 #the status code response should be 200"}}],"executorName":"main","line":28,"name":"To get all the data from the application in JSON format using path variable","description":"","durationMillis":187.7833,"startTime":1707820937242,"failed":false,"refId":"[2:28]","endTime":1707820937434,"exampleIndex":-1},{"sectionIndex":2,"stepResults":[{"result":{"nanos":165800,"startTime":1707820937441,"endTime":1707820937441,"millis":0.1658,"status":"passed"},"step":{"background":true,"line":4,"prefix":"Given","index":0,"text":"url 'https:\/\/reqres.in'"},"stepLog":"16:12:17.440 karate.env system property was: null \n"},{"result":{"nanos":341100,"startTime":1707820937441,"endTime":1707820937441,"millis":0.3411,"status":"passed"},"step":{"background":true,"line":5,"prefix":"And","index":1,"text":"print '========This is the Background keyword ====================='"},"stepLog":"16:12:17.442 [print] ========This is the Background keyword ===================== \n"},{"result":{"nanos":77900,"startTime":1707820937442,"endTime":1707820937442,"millis":0.0779,"status":"passed"},"step":{"comments":["#Given url 'https:\/\/reqres.in'"],"line":37,"prefix":"Given","index":0,"text":"path '\/api\/users?page=2'"}},{"result":{"nanos":423500,"startTime":1707820937442,"endTime":1707820937442,"millis":0.4235,"status":"passed"},"step":{"line":38,"prefix":"And","index":1,"text":"header Accept = 'application\/xml*'"}},{"result":{"nanos":189868300,"startTime":1707820937442,"endTime":1707820937632,"millis":189.8683,"status":"passed"},"step":{"line":39,"prefix":"When","index":2,"text":"method get #send the get request"},"stepLog":"16:12:17.444 request:\n1 > GET https:\/\/reqres.in\/api\/users%3Fpage=2\n1 > Accept: application\/xml*\n1 > Host: reqres.in\n1 > Connection: Keep-Alive\n1 > User-Agent: Apache-HttpClient\/4.5.14 (Java\/17.0.2)\n1 > Accept-Encoding: gzip,deflate\n\n\n16:12:17.632 response time in milliseconds: 186\n1 < 200\n1 < Date: Tue, 13 Feb 2024 10:42:18 GMT\n1 < Content-Type: application\/json; charset=utf-8\n1 < Transfer-Encoding: chunked\n1 < Connection: keep-alive\n1 < Report-To: {\"group\":\"heroku-nel\",\"max_age\":3600,\"endpoints\":[{\"url\":\"https:\/\/nel.heroku.com\/reports?ts=1707110353&sid=c4c9725f-1ab0-44d8-820f-430df2718e11&s=W6hLHYtWOdDEobAl36u4FBholCA0BnlvBNdPNp7XkyU%3D\"}]}\n1 < Reporting-Endpoints: heroku-nel=https:\/\/nel.heroku.com\/reports?ts=1707110353&sid=c4c9725f-1ab0-44d8-820f-430df2718e11&s=W6hLHYtWOdDEobAl36u4FBholCA0BnlvBNdPNp7XkyU%3D\n1 < Nel: {\"report_to\":\"heroku-nel\",\"max_age\":3600,\"success_fraction\":0.005,\"failure_fraction\":0.05,\"response_headers\":[\"Via\"]}\n1 < X-Powered-By: Express\n1 < Access-Control-Allow-Origin: *\n1 < Etag: W\/\"2c1-N6Rqerxquq2kgQhL51EiSg4x0R8\"\n1 < Via: 1.1 vegur\n1 < Cache-Control: max-age=14400\n1 < CF-Cache-Status: HIT\n1 < Age: 3436\n1 < Vary: Accept-Encoding\n1 < Server: cloudflare\n1 < CF-RAY: 854c76c0fba359a2-DEL\n{\"page\":1,\"per_page\":6,\"total\":12,\"total_pages\":2,\"data\":[{\"id\":1,\"name\":\"cerulean\",\"year\":2000,\"color\":\"#98B2D1\",\"pantone_value\":\"15-4020\"},{\"id\":2,\"name\":\"fuchsia rose\",\"year\":2001,\"color\":\"#C74375\",\"pantone_value\":\"17-2031\"},{\"id\":3,\"name\":\"true red\",\"year\":2002,\"color\":\"#BF1932\",\"pantone_value\":\"19-1664\"},{\"id\":4,\"name\":\"aqua sky\",\"year\":2003,\"color\":\"#7BC4C4\",\"pantone_value\":\"14-4811\"},{\"id\":5,\"name\":\"tigerlily\",\"year\":2004,\"color\":\"#E2583E\",\"pantone_value\":\"17-1456\"},{\"id\":6,\"name\":\"blue turquoise\",\"year\":2005,\"color\":\"#53B0AE\",\"pantone_value\":\"15-5217\"}],\"support\":{\"url\":\"https:\/\/reqres.in\/#support-heading\",\"text\":\"To keep ReqRes free, contributions towards server costs are appreciated!\"}}\n\n"},{"result":{"nanos":6900,"startTime":1707820937633,"endTime":1707820937633,"millis":0.0069,"status":"passed"},"step":{"line":40,"prefix":"Then","index":3,"text":"status 200 #the status code response should be 200"}}],"executorName":"main","line":35,"name":"To get all the data from the application in xml format using path variable","description":"","durationMillis":190.8835,"startTime":1707820937440,"failed":false,"refId":"[3:35]","endTime":1707820937633,"exampleIndex":-1}],"callDepth":0,"name":"To test the endpoint of the application","description":"","resultDate":"2024-02-13 04:12:17 pm","durationMillis":909.2256,"passedCount":3}