{"failedCount":0,"prefixedPath":"classpath:com\/api\/automation\/postrequest\/schemaValidation.feature","packageQualifiedName":"com.api.automation.postrequest.schemaValidation","loopIndex":-1,"relativePath":"com\/api\/automation\/postrequest\/schemaValidation.feature","scenarioResults":[{"sectionIndex":0,"stepResults":[{"result":{"nanos":1163900,"startTime":1708515799957,"endTime":1708515799958,"millis":1.1639,"status":"passed"},"step":{"background":true,"line":5,"prefix":"Given","index":0,"text":"url 'https:\/\/reqres.in'"},"stepLog":"17:13:19.919 karate.env system property was: null \n"},{"result":{"nanos":444700,"startTime":1708515799961,"endTime":1708515799961,"millis":0.4447,"status":"passed"},"step":{"line":8,"prefix":"Given","index":0,"text":"path '\/api\/users'"}},{"result":{"nanos":50936900,"startTime":1708515799961,"endTime":1708515800012,"millis":50.9369,"status":"passed"},"step":{"line":9,"prefix":"*","index":1,"text":"def body = read(\"data\/createUser.json\")"}},{"result":{"nanos":1744800,"startTime":1708515800013,"endTime":1708515800015,"millis":1.7448,"status":"passed"},"step":{"line":10,"prefix":"And","index":2,"text":"request body"}},{"result":{"nanos":570000,"startTime":1708515800015,"endTime":1708515800016,"millis":0.57,"status":"passed"},"step":{"line":11,"prefix":"And","index":3,"text":"header Accept = 'application\/json'"}},{"result":{"nanos":2279282200,"startTime":1708515800016,"endTime":1708515802295,"millis":2279.2822,"status":"passed"},"step":{"line":12,"prefix":"When","index":4,"text":"method post"},"stepLog":"17:13:20.332 request:\n1 > POST https:\/\/reqres.in\/api\/users\n1 > Accept: application\/json\n1 > Content-Type: application\/json; charset=UTF-8\n1 > Content-Length: 34\n1 > Host: reqres.in\n1 > Connection: Keep-Alive\n1 > User-Agent: Apache-HttpClient\/4.5.14 (Java\/17.0.2)\n1 > Accept-Encoding: gzip,deflate\n{\"name\":\"morpheus\",\"job\":\"leader\"}\n\n17:13:22.293 response time in milliseconds: 1957\n1 < 201\n1 < Date: Wed, 21 Feb 2024 11:43:22 GMT\n1 < Content-Type: application\/json; charset=utf-8\n1 < Content-Length: 83\n1 < Connection: keep-alive\n1 < Report-To: {\"group\":\"heroku-nel\",\"max_age\":3600,\"endpoints\":[{\"url\":\"https:\/\/nel.heroku.com\/reports?ts=1708515802&sid=c4c9725f-1ab0-44d8-820f-430df2718e11&s=%2FFdr02ytdF6zckKjrIxpbkDE%2FUIxOBzgPMWlcFSsStw%3D\"}]}\n1 < Reporting-Endpoints: heroku-nel=https:\/\/nel.heroku.com\/reports?ts=1708515802&sid=c4c9725f-1ab0-44d8-820f-430df2718e11&s=%2FFdr02ytdF6zckKjrIxpbkDE%2FUIxOBzgPMWlcFSsStw%3D\n1 < Nel: {\"report_to\":\"heroku-nel\",\"max_age\":3600,\"success_fraction\":0.005,\"failure_fraction\":0.05,\"response_headers\":[\"Via\"]}\n1 < X-Powered-By: Express\n1 < Access-Control-Allow-Origin: *\n1 < Etag: W\/\"53-4EWrxX74w6ooO3w\/nnZkVqQIy7M\"\n1 < Via: 1.1 vegur\n1 < CF-Cache-Status: DYNAMIC\n1 < Server: cloudflare\n1 < CF-RAY: 858ebb342f2e62e2-ORD\n{\"name\":\"morpheus\",\"job\":\"leader\",\"id\":\"77\",\"createdAt\":\"2024-02-21T11:43:22.432Z\"}\n\n"},{"result":{"nanos":19900,"startTime":1708515802295,"endTime":1708515802295,"millis":0.0199,"status":"passed"},"step":{"line":13,"prefix":"Then","index":5,"text":"status 201"}},{"result":{"nanos":2447100,"startTime":1708515802295,"endTime":1708515802297,"millis":2.4471,"status":"passed"},"step":{"line":14,"prefix":"And","index":6,"text":"print response"},"stepLog":"17:13:22.297 [print] {\n  \"name\": \"morpheus\",\n  \"job\": \"leader\",\n  \"id\": \"77\",\n  \"createdAt\": \"2024-02-21T11:43:22.432Z\"\n}\n \n"},{"result":{"nanos":9740600,"startTime":1708515802298,"endTime":1708515802308,"millis":9.7406,"status":"passed"},"step":{"endLine":24,"line":15,"prefix":"And","docString":"{\n\"name\": '#string',\n\"job\": '#string',\n\"id\": '#string',\n\"createdAt\": '#string'\n}","index":7,"text":"match response =="}}],"executorName":"main","line":7,"name":"To create users in JSON format","description":"","durationMillis":2346.3501,"startTime":1708515799773,"failed":false,"refId":"[1:7]","endTime":1708515802307,"exampleIndex":-1},{"sectionIndex":1,"stepResults":[{"result":{"nanos":416800,"startTime":1708515802322,"endTime":1708515802322,"millis":0.4168,"status":"passed"},"step":{"background":true,"line":5,"prefix":"Given","index":0,"text":"url 'https:\/\/reqres.in'"},"stepLog":"17:13:22.321 karate.env system property was: null \n"},{"result":{"nanos":233400,"startTime":1708515802323,"endTime":1708515802323,"millis":0.2334,"status":"passed"},"step":{"line":27,"prefix":"Given","index":0,"text":"path '\/api\/users?page=2'"}},{"result":{"nanos":285800,"startTime":1708515802323,"endTime":1708515802323,"millis":0.2858,"status":"passed"},"step":{"line":28,"prefix":"And","index":1,"text":"header Accept = 'application\/json'"}},{"result":{"nanos":1130550900,"startTime":1708515802324,"endTime":1708515803455,"millis":1130.5509,"status":"passed"},"step":{"line":29,"prefix":"When","index":2,"text":"method get #send the get request"},"stepLog":"17:13:22.325 request:\n1 > GET https:\/\/reqres.in\/api\/users%3Fpage=2\n1 > Accept: application\/json\n1 > Host: reqres.in\n1 > Connection: Keep-Alive\n1 > User-Agent: Apache-HttpClient\/4.5.14 (Java\/17.0.2)\n1 > Accept-Encoding: gzip,deflate\n\n\n17:13:23.452 response time in milliseconds: 1126\n1 < 200\n1 < Date: Wed, 21 Feb 2024 11:43:23 GMT\n1 < Content-Type: application\/json; charset=utf-8\n1 < Transfer-Encoding: chunked\n1 < Connection: keep-alive\n1 < Report-To: {\"group\":\"heroku-nel\",\"max_age\":3600,\"endpoints\":[{\"url\":\"https:\/\/nel.heroku.com\/reports?ts=1708515803&sid=c4c9725f-1ab0-44d8-820f-430df2718e11&s=IKxyMpHp1gGSwKltpFCxt85fqmXCt4f5S7ZoEMOhkbI%3D\"}]}\n1 < Reporting-Endpoints: heroku-nel=https:\/\/nel.heroku.com\/reports?ts=1708515803&sid=c4c9725f-1ab0-44d8-820f-430df2718e11&s=IKxyMpHp1gGSwKltpFCxt85fqmXCt4f5S7ZoEMOhkbI%3D\n1 < Nel: {\"report_to\":\"heroku-nel\",\"max_age\":3600,\"success_fraction\":0.005,\"failure_fraction\":0.05,\"response_headers\":[\"Via\"]}\n1 < X-Powered-By: Express\n1 < Access-Control-Allow-Origin: *\n1 < Etag: W\/\"2c1-N6Rqerxquq2kgQhL51EiSg4x0R8\"\n1 < Via: 1.1 vegur\n1 < Cache-Control: max-age=14400\n1 < CF-Cache-Status: MISS\n1 < Vary: Accept-Encoding\n1 < Server: cloudflare\n1 < CF-RAY: 858ebb3b78d8231e-ORD\n{\"page\":1,\"per_page\":6,\"total\":12,\"total_pages\":2,\"data\":[{\"id\":1,\"name\":\"cerulean\",\"year\":2000,\"color\":\"#98B2D1\",\"pantone_value\":\"15-4020\"},{\"id\":2,\"name\":\"fuchsia rose\",\"year\":2001,\"color\":\"#C74375\",\"pantone_value\":\"17-2031\"},{\"id\":3,\"name\":\"true red\",\"year\":2002,\"color\":\"#BF1932\",\"pantone_value\":\"19-1664\"},{\"id\":4,\"name\":\"aqua sky\",\"year\":2003,\"color\":\"#7BC4C4\",\"pantone_value\":\"14-4811\"},{\"id\":5,\"name\":\"tigerlily\",\"year\":2004,\"color\":\"#E2583E\",\"pantone_value\":\"17-1456\"},{\"id\":6,\"name\":\"blue turquoise\",\"year\":2005,\"color\":\"#53B0AE\",\"pantone_value\":\"15-5217\"}],\"support\":{\"url\":\"https:\/\/reqres.in\/#support-heading\",\"text\":\"To keep ReqRes free, contributions towards server costs are appreciated!\"}}\n\n"},{"result":{"nanos":10100,"startTime":1708515803454,"endTime":1708515803454,"millis":0.0101,"status":"passed"},"step":{"line":30,"prefix":"Then","index":3,"text":"status 200 #the status code response should be 200"}},{"result":{"nanos":400700,"startTime":1708515803454,"endTime":1708515803454,"millis":0.4007,"status":"passed"},"step":{"line":31,"prefix":"*","index":4,"text":"def dataSchema = { \"id\": '#number' , \"name\": '#string', \"year\": '#number',\"color\": '#string', \"pantone_value\": '#string'}"}},{"result":{"nanos":314200,"startTime":1708515803455,"endTime":1708515803455,"millis":0.3142,"status":"passed"},"step":{"line":32,"prefix":"*","index":5,"text":"def supportSchema = { \"url\": '#string', \"text\": '#string'}"}},{"result":{"nanos":1381500,"startTime":1708515803455,"endTime":1708515803456,"millis":1.3815,"status":"passed"},"step":{"line":33,"prefix":"*","index":6,"text":"def mainSchema = { \"page\": '#number', \"per_page\": '#number', \"total\": '#number', \"total_pages\": '#number', \"data\": '#[] ##(dataSchema)', \"support\": '##(supportSchema)' }"}},{"result":{"nanos":10831300,"startTime":1708515803457,"endTime":1708515803468,"millis":10.8313,"status":"passed"},"step":{"endLine":37,"line":34,"prefix":"And","docString":"'##(mainSchema)'","index":7,"text":"match response =="}}],"executorName":"main","line":26,"name":"Schema validation for Get Endpoint","description":"","durationMillis":1144.4247,"startTime":1708515802319,"failed":false,"refId":"[2:26]","endTime":1708515803467,"exampleIndex":-1}],"callDepth":0,"name":"validate the JSON Schema","description":"To validate the JSON Schema for the POST API","resultDate":"2024-02-21 05:13:23 pm","durationMillis":3490.7748,"passedCount":2}