{"failedCount":1,"prefixedPath":"classpath:com\/api\/automation\/getrequest\/responseMatcher.feature","packageQualifiedName":"com.api.automation.getrequest.responseMatcher","loopIndex":-1,"relativePath":"com\/api\/automation\/getrequest\/responseMatcher.feature","scenarioResults":[{"sectionIndex":0,"stepResults":[{"result":{"nanos":381400,"startTime":1711625465510,"endTime":1711625465510,"millis":0.3814,"status":"passed"},"step":{"background":true,"line":6,"prefix":"Given","index":0,"text":"url 'https:\/\/reqres.in'"}},{"result":{"nanos":214100,"startTime":1711625465511,"endTime":1711625465511,"millis":0.2141,"status":"passed"},"step":{"line":11,"prefix":"Given","index":0,"text":"path '\/api\/users?page=2'"}},{"result":{"nanos":219900,"startTime":1711625465511,"endTime":1711625465511,"millis":0.2199,"status":"passed"},"step":{"line":12,"prefix":"And","index":1,"text":"header Accept = 'application\/json'"}},{"result":{"nanos":72301800,"startTime":1711625465512,"endTime":1711625465584,"millis":72.3018,"status":"passed"},"step":{"line":13,"prefix":"When","index":2,"text":"method get"}},{"result":{"nanos":6100,"startTime":1711625465584,"endTime":1711625465584,"millis":0.0061,"status":"passed"},"step":{"line":14,"prefix":"Then","index":3,"text":"status 200"}},{"result":{"nanos":1000400,"startTime":1711625465584,"endTime":1711625465585,"millis":1.0004,"status":"passed"},"step":{"line":15,"prefix":"And","index":4,"text":"print response"}},{"result":{"nanos":10842300,"startTime":1711625465585,"endTime":1711625465596,"millis":10.8423,"status":"passed"},"step":{"endLine":71,"line":16,"prefix":"And","docString":"{ \"page\": 1,\n  \"per_page\": 6,\n  \"total\": 12,\n  \"total_pages\": 2,\n  \"data\": [\n{\n  \"id\": 1,\n  \"name\": \"cerulean\",\n  \"year\": 2000,\n  \"color\": \"#98B2D1\",\n  \"pantone_value\": \"15-4020\"\n},\n{\n  \"id\": 2,\n  \"name\": \"fuchsia rose\",\n  \"year\": 2001,\n  \"color\": \"#C74375\",\n  \"pantone_value\": \"17-2031\"\n},\n{\n  \"id\": 3,\n  \"name\": \"true red\",\n  \"year\": 2002,\n  \"color\": \"#BF1932\",\n  \"pantone_value\": \"19-1664\"\n},\n{\n  \"id\": 4,\n  \"name\": \"aqua sky\",\n  \"year\": 2003,\n  \"color\": \"#7BC4C4\",\n  \"pantone_value\": \"14-4811\"\n},\n{\n  \"id\": 5,\n  \"name\": \"tigerlily\",\n  \"year\": 2004,\n  \"color\": \"#E2583E\",\n  \"pantone_value\": \"17-1456\"\n},\n{\n  \"id\": 6,\n  \"name\": \"blue turquoise\",\n  \"year\": 2005,\n  \"color\": \"#53B0AE\",\n  \"pantone_value\": \"15-5217\"\n}\n  ],\n  \"support\": {\n\"url\": \"https:\/\/reqres.in\/#support-heading\",\n\"text\": \"To keep ReqRes free, contributions towards server costs are appreciated!\"\n  }\n}","index":5,"text":"match response =="}}],"line":10,"description":"","durationMillis":84.966,"failed":false,"tags":["Regression","Smoke"],"executorName":"pool-1-thread-1","name":"To get all the data from the application in JSON format using match equals variable","startTime":1711625465508,"refId":"[1:10]","endTime":1711625465596,"exampleIndex":-1},{"sectionIndex":1,"stepResults":[{"result":{"nanos":337600,"startTime":1711625465583,"endTime":1711625465583,"millis":0.3376,"status":"passed"},"step":{"background":true,"line":6,"prefix":"Given","index":0,"text":"url 'https:\/\/reqres.in'"}},{"result":{"nanos":285900,"startTime":1711625465583,"endTime":1711625465583,"millis":0.2859,"status":"passed"},"step":{"line":75,"prefix":"Given","index":0,"text":"path '\/api\/users?page=2'"}},{"result":{"nanos":346800,"startTime":1711625465583,"endTime":1711625465583,"millis":0.3468,"status":"passed"},"step":{"line":76,"prefix":"And","index":1,"text":"header Accept = 'application\/json'"}},{"result":{"nanos":154606600,"startTime":1711625465584,"endTime":1711625465739,"millis":154.6066,"status":"passed"},"step":{"line":77,"prefix":"When","index":2,"text":"method get"}},{"result":{"nanos":8600,"startTime":1711625465739,"endTime":1711625465739,"millis":0.0086,"status":"passed"},"step":{"line":78,"prefix":"Then","index":3,"text":"status 200"}},{"result":{"nanos":637200,"startTime":1711625465739,"endTime":1711625465740,"millis":0.6372,"status":"passed"},"step":{"line":79,"prefix":"And","index":4,"text":"print response"}},{"result":{"nanos":1195600,"startTime":1711625465740,"endTime":1711625465741,"millis":1.1956,"status":"passed"},"step":{"endLine":135,"line":80,"prefix":"And","docString":"{ \"page\": 11,\n  \"per_page\": 6,\n  \"total\": 12,\n  \"total_pages\": 2,\n  \"data\": [\n{\n  \"id\": 1,\n  \"name\": \"cerulean\",\n  \"year\": 2000,\n  \"color\": \"#98B2D1\",\n  \"pantone_value\": \"15-4020\"\n},\n{\n  \"id\": 2,\n  \"name\": \"fuchsia rose\",\n  \"year\": 2001,\n  \"color\": \"#C74375\",\n  \"pantone_value\": \"17-2031\"\n},\n{\n  \"id\": 3,\n  \"name\": \"true red\",\n  \"year\": 2002,\n  \"color\": \"#BF1932\",\n  \"pantone_value\": \"19-1664\"\n},\n{\n  \"id\": 4,\n  \"name\": \"aqua sky\",\n  \"year\": 2003,\n  \"color\": \"#7BC4C4\",\n  \"pantone_value\": \"14-4811\"\n},\n{\n  \"id\": 5,\n  \"name\": \"tigerlily\",\n  \"year\": 2004,\n  \"color\": \"#E2583E\",\n  \"pantone_value\": \"17-1456\"\n},\n{\n  \"id\": 6,\n  \"name\": \"blue turquoise\",\n  \"year\": 2005,\n  \"color\": \"#53B0AE\",\n  \"pantone_value\": \"15-5217\"\n}\n  ],\n  \"support\": {\n\"url\": \"https:\/\/reqres.in\/#support-heading\",\n\"text\": \"To keep ReqRes free, contributions towards server costs are appreciated!\"\n  }\n}","index":5,"text":"match response !="}}],"line":74,"description":"","durationMillis":157.4183,"failed":false,"tags":["Regression","Smoke"],"executorName":"pool-1-thread-5","name":"To get all the data from the application in JSON format using negate operator","startTime":1711625465580,"refId":"[2:74]","endTime":1711625465741,"exampleIndex":-1},{"sectionIndex":2,"stepResults":[{"result":{"nanos":426100,"startTime":1711625465601,"endTime":1711625465601,"millis":0.4261,"status":"passed"},"step":{"background":true,"line":6,"prefix":"Given","index":0,"text":"url 'https:\/\/reqres.in'"}},{"result":{"nanos":172500,"startTime":1711625465601,"endTime":1711625465601,"millis":0.1725,"status":"passed"},"step":{"line":140,"prefix":"Given","index":0,"text":"path '\/api\/users?page=2'"}},{"result":{"nanos":186500,"startTime":1711625465601,"endTime":1711625465601,"millis":0.1865,"status":"passed"},"step":{"line":141,"prefix":"And","index":1,"text":"header Accept = 'application\/json'"}},{"result":{"nanos":63023400,"startTime":1711625465602,"endTime":1711625465665,"millis":63.0234,"status":"passed"},"step":{"line":142,"prefix":"When","index":2,"text":"method get"}},{"result":{"nanos":5500,"startTime":1711625465665,"endTime":1711625465665,"millis":0.0055,"status":"passed"},"step":{"line":143,"prefix":"Then","index":3,"text":"status 200"}},{"result":{"nanos":302400,"startTime":1711625465665,"endTime":1711625465665,"millis":0.3024,"status":"passed"},"step":{"line":144,"prefix":"And","index":4,"text":"print response"}},{"result":{"nanos":1151900,"startTime":1711625465666,"endTime":1711625465667,"millis":1.1519,"status":"passed"},"step":{"line":145,"prefix":"And","index":5,"text":"match response contains deep {\"data\":[ {\"name\": \"blue turquoise\"}]}"}},{"result":{"nanos":839400,"errorMessage":"match failed: CONTAINS_DEEP\n  $ | actual does not contain expected | actual does not contain key - 'text' (MAP:MAP)\n  {\"page\":1,\"per_page\":6,\"total\":12,\"total_pages\":2,\"data\":[{\"id\":1,\"name\":\"cerulean\",\"year\":2000,\"color\":\"#98B2D1\",\"pantone_value\":\"15-4020\"},{\"id\":2,\"name\":\"fuchsia rose\",\"year\":2001,\"color\":\"#C74375\",\"pantone_value\":\"17-2031\"},{\"id\":3,\"name\":\"true red\",\"year\":2002,\"color\":\"#BF1932\",\"pantone_value\":\"19-1664\"},{\"id\":4,\"name\":\"aqua sky\",\"year\":2003,\"color\":\"#7BC4C4\",\"pantone_value\":\"14-4811\"},{\"id\":5,\"name\":\"tigerlily\",\"year\":2004,\"color\":\"#E2583E\",\"pantone_value\":\"17-1456\"},{\"id\":6,\"name\":\"blue turquoise\",\"year\":2005,\"color\":\"#53B0AE\",\"pantone_value\":\"15-5217\"}],\"support\":{\"url\":\"https:\/\/reqres.in\/#support-heading\",\"text\":\"To keep ReqRes free, contributions towards server costs are appreciated!\"}}\n  {\"text\":\"To keep ReqRes free, contributions towards server costs are appreciated!\"}\n\n\nclasspath:com\/api\/automation\/getrequest\/responseMatcher.feature:146","startTime":1711625465667,"endTime":1711625465668,"millis":0.8394,"status":"failed"},"step":{"line":146,"prefix":"And","index":6,"text":"match response contains deep {\"text\": \"To keep ReqRes free, contributions towards server costs are appreciated!\" }"}},{"result":{"nanos":0,"startTime":1711625465668,"endTime":1711625465668,"millis":0.0,"status":"skipped"},"step":{"line":147,"prefix":"And","index":7,"text":"match header Content-Type == 'application\/json'"}},{"result":{"nanos":0,"startTime":1711625465668,"endTime":1711625465668,"millis":0.0,"status":"skipped"},"step":{"line":148,"prefix":"And","index":8,"text":"match header Connection == 'keep-alive'"}}],"line":139,"description":"","durationMillis":66.1077,"failed":true,"error":"match failed: CONTAINS_DEEP\n  $ | actual does not contain expected | actual does not contain key - 'text' (MAP:MAP)\n  {\"page\":1,\"per_page\":6,\"total\":12,\"total_pages\":2,\"data\":[{\"id\":1,\"name\":\"cerulean\",\"year\":2000,\"color\":\"#98B2D1\",\"pantone_value\":\"15-4020\"},{\"id\":2,\"name\":\"fuchsia rose\",\"year\":2001,\"color\":\"#C74375\",\"pantone_value\":\"17-2031\"},{\"id\":3,\"name\":\"true red\",\"year\":2002,\"color\":\"#BF1932\",\"pantone_value\":\"19-1664\"},{\"id\":4,\"name\":\"aqua sky\",\"year\":2003,\"color\":\"#7BC4C4\",\"pantone_value\":\"14-4811\"},{\"id\":5,\"name\":\"tigerlily\",\"year\":2004,\"color\":\"#E2583E\",\"pantone_value\":\"17-1456\"},{\"id\":6,\"name\":\"blue turquoise\",\"year\":2005,\"color\":\"#53B0AE\",\"pantone_value\":\"15-5217\"}],\"support\":{\"url\":\"https:\/\/reqres.in\/#support-heading\",\"text\":\"To keep ReqRes free, contributions towards server costs are appreciated!\"}}\n  {\"text\":\"To keep ReqRes free, contributions towards server costs are appreciated!\"}\n\n\nclasspath:com\/api\/automation\/getrequest\/responseMatcher.feature:146","tags":["Regression","Smoke"],"executorName":"pool-1-thread-1","name":"To get all the data from the application in JSON format for specific property","startTime":1711625465598,"refId":"[3:139]","endTime":1711625465668,"exampleIndex":-1}],"callDepth":0,"name":"To validate the Get endpoint","description":"To validate the Get endpoint response","resultDate":"2024-03-28 05:01:06 pm","durationMillis":308.492,"passedCount":2}