{"failedCount":0,"prefixedPath":"classpath:com\/api\/automation\/getrequest\/getRequest.feature","packageQualifiedName":"com.api.automation.getrequest.getRequest","loopIndex":-1,"relativePath":"com\/api\/automation\/getrequest\/getRequest.feature","scenarioResults":[{"sectionIndex":0,"stepResults":[{"result":{"nanos":2070500,"startTime":1710156730355,"endTime":1710156730357,"millis":2.0705,"status":"passed"},"step":{"background":true,"line":4,"prefix":"Given","index":0,"text":"url 'https:\/\/reqres.in'"},"stepLog":"17:02:10.292 karate.env system property was: null \n"},{"result":{"nanos":14072500,"startTime":1710156730365,"endTime":1710156730379,"millis":14.0725,"status":"passed"},"step":{"background":true,"line":5,"prefix":"And","index":1,"text":"print '========This is the Background keyword ====================='"},"stepLog":"17:02:10.378 [print] ========This is the Background keyword ===================== \n"},{"result":{"nanos":758400,"startTime":1710156730379,"endTime":1710156730380,"millis":0.7584,"status":"passed"},"step":{"line":23,"prefix":"Given","index":0,"text":"path '\/api\/users?page=2'"}},{"result":{"nanos":2386998400,"startTime":1710156730380,"endTime":1710156732767,"millis":2386.9984,"status":"passed"},"step":{"line":24,"prefix":"When","index":1,"text":"method get #send the get request"},"stepLog":"17:02:10.805 request:\n1 > GET https:\/\/reqres.in\/api\/users%3Fpage=2\n1 > Host: reqres.in\n1 > Connection: Keep-Alive\n1 > User-Agent: Apache-HttpClient\/4.5.14 (Java\/17.0.2)\n1 > Accept-Encoding: gzip,deflate\n\n\n17:02:12.761 response time in milliseconds: 1953\n1 < 200\n1 < Date: Mon, 11 Mar 2024 11:32:13 GMT\n1 < Content-Type: application\/json; charset=utf-8\n1 < Transfer-Encoding: chunked\n1 < Connection: keep-alive\n1 < Report-To: {\"group\":\"heroku-nel\",\"max_age\":3600,\"endpoints\":[{\"url\":\"https:\/\/nel.heroku.com\/reports?ts=1710156733&sid=c4c9725f-1ab0-44d8-820f-430df2718e11&s=OvUxbc%2BTTtpQRINZj%2FXgpAGfgiyEPDgkDbZeesvgcLM%3D\"}]}\n1 < Reporting-Endpoints: heroku-nel=https:\/\/nel.heroku.com\/reports?ts=1710156733&sid=c4c9725f-1ab0-44d8-820f-430df2718e11&s=OvUxbc%2BTTtpQRINZj%2FXgpAGfgiyEPDgkDbZeesvgcLM%3D\n1 < Nel: {\"report_to\":\"heroku-nel\",\"max_age\":3600,\"success_fraction\":0.005,\"failure_fraction\":0.05,\"response_headers\":[\"Via\"]}\n1 < X-Powered-By: Express\n1 < Access-Control-Allow-Origin: *\n1 < Etag: W\/\"2c1-N6Rqerxquq2kgQhL51EiSg4x0R8\"\n1 < Via: 1.1 vegur\n1 < Cache-Control: max-age=14400\n1 < CF-Cache-Status: MISS\n1 < Vary: Accept-Encoding\n1 < Server: cloudflare\n1 < CF-RAY: 862b38febf971135-ORD\n{\"page\":1,\"per_page\":6,\"total\":12,\"total_pages\":2,\"data\":[{\"id\":1,\"name\":\"cerulean\",\"year\":2000,\"color\":\"#98B2D1\",\"pantone_value\":\"15-4020\"},{\"id\":2,\"name\":\"fuchsia rose\",\"year\":2001,\"color\":\"#C74375\",\"pantone_value\":\"17-2031\"},{\"id\":3,\"name\":\"true red\",\"year\":2002,\"color\":\"#BF1932\",\"pantone_value\":\"19-1664\"},{\"id\":4,\"name\":\"aqua sky\",\"year\":2003,\"color\":\"#7BC4C4\",\"pantone_value\":\"14-4811\"},{\"id\":5,\"name\":\"tigerlily\",\"year\":2004,\"color\":\"#E2583E\",\"pantone_value\":\"17-1456\"},{\"id\":6,\"name\":\"blue turquoise\",\"year\":2005,\"color\":\"#53B0AE\",\"pantone_value\":\"15-5217\"}],\"support\":{\"url\":\"https:\/\/reqres.in\/#support-heading\",\"text\":\"To keep ReqRes free, contributions towards server costs are appreciated!\"}}\n\n"},{"result":{"nanos":7400,"startTime":1710156732768,"endTime":1710156732768,"millis":0.0074,"status":"passed"},"step":{"line":25,"prefix":"Then","index":2,"text":"status 200 #the status code response should be 200"}}],"executorName":"pool-1-thread-2","line":22,"name":"To get all the data from the application in JSON format","description":"","durationMillis":2403.9072,"startTime":1710156730024,"failed":false,"refId":"[1:22]","endTime":1710156732768,"exampleIndex":-1},{"sectionIndex":1,"stepResults":[{"result":{"nanos":2104300,"startTime":1710156730355,"endTime":1710156730357,"millis":2.1043,"status":"passed"},"step":{"background":true,"line":4,"prefix":"Given","index":0,"text":"url 'https:\/\/reqres.in'"},"stepLog":"17:02:10.292 karate.env system property was: null \n"},{"result":{"nanos":14146400,"startTime":1710156730365,"endTime":1710156730379,"millis":14.1464,"status":"passed"},"step":{"background":true,"line":5,"prefix":"And","index":1,"text":"print '========This is the Background keyword ====================='"},"stepLog":"17:02:10.378 [print] ========This is the Background keyword ===================== \n"},{"result":{"nanos":631100,"startTime":1710156730379,"endTime":1710156730380,"millis":0.6311,"status":"passed"},"step":{"line":29,"prefix":"Given","index":0,"text":"path '\/api\/users?page=2'"}},{"result":{"nanos":754300,"startTime":1710156730380,"endTime":1710156730381,"millis":0.7543,"status":"passed"},"step":{"line":30,"prefix":"And","index":1,"text":"header Accept = 'application\/json'"}},{"result":{"nanos":2385698000,"startTime":1710156730381,"endTime":1710156732767,"millis":2385.698,"status":"passed"},"step":{"line":31,"prefix":"When","index":2,"text":"method get #send the get request"},"stepLog":"17:02:10.805 request:\n1 > GET https:\/\/reqres.in\/api\/users%3Fpage=2\n1 > Accept: application\/json\n1 > Host: reqres.in\n1 > Connection: Keep-Alive\n1 > User-Agent: Apache-HttpClient\/4.5.14 (Java\/17.0.2)\n1 > Accept-Encoding: gzip,deflate\n\n\n17:02:12.761 response time in milliseconds: 1953\n1 < 200\n1 < Date: Mon, 11 Mar 2024 11:32:13 GMT\n1 < Content-Type: application\/json; charset=utf-8\n1 < Transfer-Encoding: chunked\n1 < Connection: keep-alive\n1 < Report-To: {\"group\":\"heroku-nel\",\"max_age\":3600,\"endpoints\":[{\"url\":\"https:\/\/nel.heroku.com\/reports?ts=1710156733&sid=c4c9725f-1ab0-44d8-820f-430df2718e11&s=OvUxbc%2BTTtpQRINZj%2FXgpAGfgiyEPDgkDbZeesvgcLM%3D\"}]}\n1 < Reporting-Endpoints: heroku-nel=https:\/\/nel.heroku.com\/reports?ts=1710156733&sid=c4c9725f-1ab0-44d8-820f-430df2718e11&s=OvUxbc%2BTTtpQRINZj%2FXgpAGfgiyEPDgkDbZeesvgcLM%3D\n1 < Nel: {\"report_to\":\"heroku-nel\",\"max_age\":3600,\"success_fraction\":0.005,\"failure_fraction\":0.05,\"response_headers\":[\"Via\"]}\n1 < X-Powered-By: Express\n1 < Access-Control-Allow-Origin: *\n1 < Etag: W\/\"2c1-N6Rqerxquq2kgQhL51EiSg4x0R8\"\n1 < Via: 1.1 vegur\n1 < Cache-Control: max-age=14400\n1 < CF-Cache-Status: MISS\n1 < Vary: Accept-Encoding\n1 < Server: cloudflare\n1 < CF-RAY: 862b38feb8cd2310-ORD\n{\"page\":1,\"per_page\":6,\"total\":12,\"total_pages\":2,\"data\":[{\"id\":1,\"name\":\"cerulean\",\"year\":2000,\"color\":\"#98B2D1\",\"pantone_value\":\"15-4020\"},{\"id\":2,\"name\":\"fuchsia rose\",\"year\":2001,\"color\":\"#C74375\",\"pantone_value\":\"17-2031\"},{\"id\":3,\"name\":\"true red\",\"year\":2002,\"color\":\"#BF1932\",\"pantone_value\":\"19-1664\"},{\"id\":4,\"name\":\"aqua sky\",\"year\":2003,\"color\":\"#7BC4C4\",\"pantone_value\":\"14-4811\"},{\"id\":5,\"name\":\"tigerlily\",\"year\":2004,\"color\":\"#E2583E\",\"pantone_value\":\"17-1456\"},{\"id\":6,\"name\":\"blue turquoise\",\"year\":2005,\"color\":\"#53B0AE\",\"pantone_value\":\"15-5217\"}],\"support\":{\"url\":\"https:\/\/reqres.in\/#support-heading\",\"text\":\"To keep ReqRes free, contributions towards server costs are appreciated!\"}}\n\n"},{"result":{"nanos":9200,"startTime":1710156732767,"endTime":1710156732767,"millis":0.0092,"status":"passed"},"step":{"line":32,"prefix":"Then","index":3,"text":"status 200 #the status code response should be 200"}}],"executorName":"pool-1-thread-3","line":28,"name":"To get all the data from the application in JSON format using path variable","description":"","durationMillis":2403.3433,"startTime":1710156730024,"failed":false,"refId":"[2:28]","endTime":1710156732767,"exampleIndex":-1},{"sectionIndex":2,"stepResults":[{"result":{"nanos":2102900,"startTime":1710156730355,"endTime":1710156730357,"millis":2.1029,"status":"passed"},"step":{"background":true,"line":4,"prefix":"Given","index":0,"text":"url 'https:\/\/reqres.in'"},"stepLog":"17:02:10.292 karate.env system property was: null \n"},{"result":{"nanos":14009500,"startTime":1710156730365,"endTime":1710156730379,"millis":14.0095,"status":"passed"},"step":{"background":true,"line":5,"prefix":"And","index":1,"text":"print '========This is the Background keyword ====================='"},"stepLog":"17:02:10.378 [print] ========This is the Background keyword ===================== \n"},{"result":{"nanos":652000,"startTime":1710156730379,"endTime":1710156730380,"millis":0.652,"status":"passed"},"step":{"comments":["#Given url 'https:\/\/reqres.in'"],"line":37,"prefix":"Given","index":0,"text":"path '\/api\/users?page=2'"}},{"result":{"nanos":719800,"startTime":1710156730380,"endTime":1710156730381,"millis":0.7198,"status":"passed"},"step":{"line":38,"prefix":"And","index":1,"text":"header Accept = 'application\/xml*'"}},{"result":{"nanos":2398072500,"startTime":1710156730381,"endTime":1710156732779,"millis":2398.0725,"status":"passed"},"step":{"line":39,"prefix":"When","index":2,"text":"method get #send the get request"},"stepLog":"17:02:10.805 request:\n1 > GET https:\/\/reqres.in\/api\/users%3Fpage=2\n1 > Accept: application\/xml*\n1 > Host: reqres.in\n1 > Connection: Keep-Alive\n1 > User-Agent: Apache-HttpClient\/4.5.14 (Java\/17.0.2)\n1 > Accept-Encoding: gzip,deflate\n\n\n17:02:12.777 response time in milliseconds: 1970\n1 < 200\n1 < Date: Mon, 11 Mar 2024 11:32:13 GMT\n1 < Content-Type: application\/json; charset=utf-8\n1 < Transfer-Encoding: chunked\n1 < Connection: keep-alive\n1 < Report-To: {\"group\":\"heroku-nel\",\"max_age\":3600,\"endpoints\":[{\"url\":\"https:\/\/nel.heroku.com\/reports?ts=1710156733&sid=c4c9725f-1ab0-44d8-820f-430df2718e11&s=OvUxbc%2BTTtpQRINZj%2FXgpAGfgiyEPDgkDbZeesvgcLM%3D\"}]}\n1 < Reporting-Endpoints: heroku-nel=https:\/\/nel.heroku.com\/reports?ts=1710156733&sid=c4c9725f-1ab0-44d8-820f-430df2718e11&s=OvUxbc%2BTTtpQRINZj%2FXgpAGfgiyEPDgkDbZeesvgcLM%3D\n1 < Nel: {\"report_to\":\"heroku-nel\",\"max_age\":3600,\"success_fraction\":0.005,\"failure_fraction\":0.05,\"response_headers\":[\"Via\"]}\n1 < X-Powered-By: Express\n1 < Access-Control-Allow-Origin: *\n1 < Etag: W\/\"2c1-N6Rqerxquq2kgQhL51EiSg4x0R8\"\n1 < Via: 1.1 vegur\n1 < Cache-Control: max-age=14400\n1 < CF-Cache-Status: MISS\n1 < Vary: Accept-Encoding\n1 < Server: cloudflare\n1 < CF-RAY: 862b38fea92a633f-ORD\n{\"page\":1,\"per_page\":6,\"total\":12,\"total_pages\":2,\"data\":[{\"id\":1,\"name\":\"cerulean\",\"year\":2000,\"color\":\"#98B2D1\",\"pantone_value\":\"15-4020\"},{\"id\":2,\"name\":\"fuchsia rose\",\"year\":2001,\"color\":\"#C74375\",\"pantone_value\":\"17-2031\"},{\"id\":3,\"name\":\"true red\",\"year\":2002,\"color\":\"#BF1932\",\"pantone_value\":\"19-1664\"},{\"id\":4,\"name\":\"aqua sky\",\"year\":2003,\"color\":\"#7BC4C4\",\"pantone_value\":\"14-4811\"},{\"id\":5,\"name\":\"tigerlily\",\"year\":2004,\"color\":\"#E2583E\",\"pantone_value\":\"17-1456\"},{\"id\":6,\"name\":\"blue turquoise\",\"year\":2005,\"color\":\"#53B0AE\",\"pantone_value\":\"15-5217\"}],\"support\":{\"url\":\"https:\/\/reqres.in\/#support-heading\",\"text\":\"To keep ReqRes free, contributions towards server costs are appreciated!\"}}\n\n"},{"result":{"nanos":9400,"startTime":1710156732780,"endTime":1710156732780,"millis":0.0094,"status":"passed"},"step":{"line":40,"prefix":"Then","index":3,"text":"status 200 #the status code response should be 200"}}],"executorName":"pool-1-thread-4","line":35,"name":"To get all the data from the application in xml format using path variable","description":"","durationMillis":2415.5661,"startTime":1710156730024,"failed":false,"refId":"[3:35]","endTime":1710156732780,"exampleIndex":-1}],"callDepth":0,"name":"To test the endpoint of the application","description":"","resultDate":"2024-03-11 05:02:13 pm","durationMillis":7222.8166,"passedCount":3}