{"failedCount":2,"prefixedPath":"classpath:com\/api\/automation\/getrequest\/ValidationUsingFile.feature","packageQualifiedName":"com.api.automation.getrequest.ValidationUsingFile","loopIndex":-1,"relativePath":"com\/api\/automation\/getrequest\/ValidationUsingFile.feature","scenarioResults":[{"sectionIndex":0,"stepResults":[{"result":{"nanos":501500,"startTime":1710156732793,"endTime":1710156732794,"millis":0.5015,"status":"passed"},"step":{"background":true,"line":5,"prefix":"Given","index":0,"text":"url 'https:\/\/reqres.in'"},"stepLog":"17:02:12.791 karate.env system property was: null \n"},{"result":{"nanos":812200,"startTime":1710156732802,"endTime":1710156732803,"millis":0.8122,"status":"passed"},"step":{"line":9,"prefix":"Given","index":0,"text":"path '\/api\/users?page=2'"}},{"result":{"nanos":2614300,"startTime":1710156732803,"endTime":1710156732806,"millis":2.6143,"status":"passed"},"step":{"line":10,"prefix":"And","index":1,"text":"header Accept = 'application\/json'"}},{"result":{"nanos":864273000,"startTime":1710156732806,"endTime":1710156733670,"millis":864.273,"status":"passed"},"step":{"line":11,"prefix":"When","index":2,"text":"method get"},"stepLog":"17:02:12.810 request:\n1 > GET https:\/\/reqres.in\/api\/users%3Fpage=2\n1 > Accept: application\/json\n1 > Host: reqres.in\n1 > Connection: Keep-Alive\n1 > User-Agent: Apache-HttpClient\/4.5.14 (Java\/17.0.2)\n1 > Accept-Encoding: gzip,deflate\n\n\n17:02:13.668 response time in milliseconds: 856\n1 < 200\n1 < Date: Mon, 11 Mar 2024 11:32:14 GMT\n1 < Content-Type: application\/json; charset=utf-8\n1 < Transfer-Encoding: chunked\n1 < Connection: keep-alive\n1 < Report-To: {\"group\":\"heroku-nel\",\"max_age\":3600,\"endpoints\":[{\"url\":\"https:\/\/nel.heroku.com\/reports?ts=1710156733&sid=c4c9725f-1ab0-44d8-820f-430df2718e11&s=OvUxbc%2BTTtpQRINZj%2FXgpAGfgiyEPDgkDbZeesvgcLM%3D\"}]}\n1 < Reporting-Endpoints: heroku-nel=https:\/\/nel.heroku.com\/reports?ts=1710156733&sid=c4c9725f-1ab0-44d8-820f-430df2718e11&s=OvUxbc%2BTTtpQRINZj%2FXgpAGfgiyEPDgkDbZeesvgcLM%3D\n1 < Nel: {\"report_to\":\"heroku-nel\",\"max_age\":3600,\"success_fraction\":0.005,\"failure_fraction\":0.05,\"response_headers\":[\"Via\"]}\n1 < X-Powered-By: Express\n1 < Access-Control-Allow-Origin: *\n1 < Etag: W\/\"2c1-N6Rqerxquq2kgQhL51EiSg4x0R8\"\n1 < Via: 1.1 vegur\n1 < Cache-Control: max-age=14400\n1 < CF-Cache-Status: HIT\n1 < Age: 1\n1 < Vary: Accept-Encoding\n1 < Server: cloudflare\n1 < CF-RAY: 862b3905dcdc02a2-ORD\n{\"page\":1,\"per_page\":6,\"total\":12,\"total_pages\":2,\"data\":[{\"id\":1,\"name\":\"cerulean\",\"year\":2000,\"color\":\"#98B2D1\",\"pantone_value\":\"15-4020\"},{\"id\":2,\"name\":\"fuchsia rose\",\"year\":2001,\"color\":\"#C74375\",\"pantone_value\":\"17-2031\"},{\"id\":3,\"name\":\"true red\",\"year\":2002,\"color\":\"#BF1932\",\"pantone_value\":\"19-1664\"},{\"id\":4,\"name\":\"aqua sky\",\"year\":2003,\"color\":\"#7BC4C4\",\"pantone_value\":\"14-4811\"},{\"id\":5,\"name\":\"tigerlily\",\"year\":2004,\"color\":\"#E2583E\",\"pantone_value\":\"17-1456\"},{\"id\":6,\"name\":\"blue turquoise\",\"year\":2005,\"color\":\"#53B0AE\",\"pantone_value\":\"15-5217\"}],\"support\":{\"url\":\"https:\/\/reqres.in\/#support-heading\",\"text\":\"To keep ReqRes free, contributions towards server costs are appreciated!\"}}\n\n"},{"result":{"nanos":11900,"startTime":1710156733671,"endTime":1710156733671,"millis":0.0119,"status":"passed"},"step":{"line":12,"prefix":"Then","index":3,"text":"status 200"}},{"result":{"nanos":9641100,"startTime":1710156733671,"endTime":1710156733681,"millis":9.6411,"status":"passed"},"step":{"comments":["#create a veriable to store the data from external json file"],"line":14,"prefix":"*","index":4,"text":"def actualResponse = read(\"..\/JsonResponse.json\")"}},{"result":{"nanos":24672600,"errorMessage":"js failed:\n>>>>\n01: karate.log('[print]','File-->\" , actualResponse)\n<<<<\norg.graalvm.polyglot.PolyglotException: SyntaxError: Unnamed:1:48 Missing close quote\r\nkarate.log('[print]','File-->\" , actualResponse)\r\n                                                ^\n\n- org.graalvm.polyglot.Context.eval(Context.java:425)\n- com.intuit.karate.graal.JsEngine.evalForValue(JsEngine.java:169)\n- com.intuit.karate.graal.JsEngine.eval(JsEngine.java:165)\n- com.intuit.karate.core.ScenarioEngine.evalJs(ScenarioEngine.java:1286)\n- com.intuit.karate.core.ScenarioEngine.print(ScenarioEngine.java:250)\n- com.intuit.karate.ScenarioActions.print(ScenarioActions.java:297)\n- java.base\/jdk.internal.reflect.NativeMethodAccessorImpl.invoke0(Native Method)\n\nclasspath:com\/api\/automation\/getrequest\/ValidationUsingFile.feature:15","startTime":1710156733681,"endTime":1710156733706,"millis":24.6726,"status":"failed"},"step":{"line":15,"prefix":"And","index":5,"text":"print 'File-->\" , actualResponse"},"stepLog":"17:02:13.706 classpath:com\/api\/automation\/getrequest\/ValidationUsingFile.feature:15\nAnd print 'File-->\" , actualResponse\njs failed:\n>>>>\n01: karate.log('[print]','File-->\" , actualResponse)\n<<<<\norg.graalvm.polyglot.PolyglotException: SyntaxError: Unnamed:1:48 Missing close quote\r\nkarate.log('[print]','File-->\" , actualResponse)\r\n                                                ^\n\n- org.graalvm.polyglot.Context.eval(Context.java:425)\n- com.intuit.karate.graal.JsEngine.evalForValue(JsEngine.java:169)\n- com.intuit.karate.graal.JsEngine.eval(JsEngine.java:165)\n- com.intuit.karate.core.ScenarioEngine.evalJs(ScenarioEngine.java:1286)\n- com.intuit.karate.core.ScenarioEngine.print(ScenarioEngine.java:250)\n- com.intuit.karate.ScenarioActions.print(ScenarioActions.java:297)\n- java.base\/jdk.internal.reflect.NativeMethodAccessorImpl.invoke0(Native Method)\n\nclasspath:com\/api\/automation\/getrequest\/ValidationUsingFile.feature:15\n"},{"result":{"nanos":0,"startTime":1710156733706,"endTime":1710156733706,"millis":0.0,"status":"skipped"},"step":{"line":16,"prefix":"And","index":6,"text":"match response == actualResponse"}}],"line":8,"description":"","durationMillis":902.5266,"failed":true,"error":"js failed:\n>>>>\n01: karate.log('[print]','File-->\" , actualResponse)\n<<<<\norg.graalvm.polyglot.PolyglotException: SyntaxError: Unnamed:1:48 Missing close quote\r\nkarate.log('[print]','File-->\" , actualResponse)\r\n                                                ^\n\n- org.graalvm.polyglot.Context.eval(Context.java:425)\n- com.intuit.karate.graal.JsEngine.evalForValue(JsEngine.java:169)\n- com.intuit.karate.graal.JsEngine.eval(JsEngine.java:165)\n- com.intuit.karate.core.ScenarioEngine.evalJs(ScenarioEngine.java:1286)\n- com.intuit.karate.core.ScenarioEngine.print(ScenarioEngine.java:250)\n- com.intuit.karate.ScenarioActions.print(ScenarioActions.java:297)\n- java.base\/jdk.internal.reflect.NativeMethodAccessorImpl.invoke0(Native Method)\n\nclasspath:com\/api\/automation\/getrequest\/ValidationUsingFile.feature:15","executorName":"pool-1-thread-4","name":"To get all the data from the application in JSON format and validate from file","startTime":1710156732790,"refId":"[1:8]","endTime":1710156733706,"exampleIndex":-1},{"sectionIndex":1,"stepResults":[{"result":{"nanos":622200,"startTime":1710156733196,"endTime":1710156733197,"millis":0.6222,"status":"passed"},"step":{"background":true,"line":5,"prefix":"Given","index":0,"text":"url 'https:\/\/reqres.in'"},"stepLog":"17:02:13.194 karate.env system property was: null \n"},{"result":{"nanos":414400,"startTime":1710156733197,"endTime":1710156733197,"millis":0.4144,"status":"passed"},"step":{"line":20,"prefix":"Given","index":0,"text":"path '\/api\/users?page=2'"}},{"result":{"nanos":361500,"startTime":1710156733197,"endTime":1710156733197,"millis":0.3615,"status":"passed"},"step":{"line":21,"prefix":"And","index":1,"text":"header Accept = 'application\/xml'"}},{"result":{"nanos":838999100,"startTime":1710156733198,"endTime":1710156734037,"millis":838.9991,"status":"passed"},"step":{"line":22,"prefix":"When","index":2,"text":"method get"},"stepLog":"17:02:13.199 request:\n1 > GET https:\/\/reqres.in\/api\/users%3Fpage=2\n1 > Accept: application\/xml\n1 > Host: reqres.in\n1 > Connection: Keep-Alive\n1 > User-Agent: Apache-HttpClient\/4.5.14 (Java\/17.0.2)\n1 > Accept-Encoding: gzip,deflate\n\n\n17:02:14.036 response time in milliseconds: 835\n1 < 200\n1 < Date: Mon, 11 Mar 2024 11:32:14 GMT\n1 < Content-Type: application\/json; charset=utf-8\n1 < Transfer-Encoding: chunked\n1 < Connection: keep-alive\n1 < Report-To: {\"group\":\"heroku-nel\",\"max_age\":3600,\"endpoints\":[{\"url\":\"https:\/\/nel.heroku.com\/reports?ts=1710156734&sid=c4c9725f-1ab0-44d8-820f-430df2718e11&s=VORh4sHeFTLNkn%2BOKef6A6Iy8yrutow%2BS0j82NbsCxk%3D\"}]}\n1 < Reporting-Endpoints: heroku-nel=https:\/\/nel.heroku.com\/reports?ts=1710156734&sid=c4c9725f-1ab0-44d8-820f-430df2718e11&s=VORh4sHeFTLNkn%2BOKef6A6Iy8yrutow%2BS0j82NbsCxk%3D\n1 < Nel: {\"report_to\":\"heroku-nel\",\"max_age\":3600,\"success_fraction\":0.005,\"failure_fraction\":0.05,\"response_headers\":[\"Via\"]}\n1 < X-Powered-By: Express\n1 < Access-Control-Allow-Origin: *\n1 < Etag: W\/\"2c1-N6Rqerxquq2kgQhL51EiSg4x0R8\"\n1 < Via: 1.1 vegur\n1 < Cache-Control: max-age=14400\n1 < CF-Cache-Status: HIT\n1 < Age: 0\n1 < Vary: Accept-Encoding\n1 < Server: cloudflare\n1 < CF-RAY: 862b39083c0129fa-ORD\n{\"page\":1,\"per_page\":6,\"total\":12,\"total_pages\":2,\"data\":[{\"id\":1,\"name\":\"cerulean\",\"year\":2000,\"color\":\"#98B2D1\",\"pantone_value\":\"15-4020\"},{\"id\":2,\"name\":\"fuchsia rose\",\"year\":2001,\"color\":\"#C74375\",\"pantone_value\":\"17-2031\"},{\"id\":3,\"name\":\"true red\",\"year\":2002,\"color\":\"#BF1932\",\"pantone_value\":\"19-1664\"},{\"id\":4,\"name\":\"aqua sky\",\"year\":2003,\"color\":\"#7BC4C4\",\"pantone_value\":\"14-4811\"},{\"id\":5,\"name\":\"tigerlily\",\"year\":2004,\"color\":\"#E2583E\",\"pantone_value\":\"17-1456\"},{\"id\":6,\"name\":\"blue turquoise\",\"year\":2005,\"color\":\"#53B0AE\",\"pantone_value\":\"15-5217\"}],\"support\":{\"url\":\"https:\/\/reqres.in\/#support-heading\",\"text\":\"To keep ReqRes free, contributions towards server costs are appreciated!\"}}\n\n"},{"result":{"nanos":9200,"startTime":1710156734038,"endTime":1710156734038,"millis":0.0092,"status":"passed"},"step":{"line":23,"prefix":"Then","index":3,"text":"status 200"}},{"result":{"nanos":9920800,"errorMessage":"js failed:\n>>>>\n01: read(\"..\/XMLResponse.json\")\n<<<<\norg.graalvm.polyglot.PolyglotException: java.io.FileNotFoundException: C:\\Users\\hemlata.sahu\\eclipse-workspace\\karateframework\\target\\test-classes\\com\\api\\automation\\getrequest\\..\\XMLResponse.json (The system cannot find the file specified)\n- com.intuit.karate.resource.FileResource.getStream(FileResource.java:98)\n- com.intuit.karate.core.ScenarioFileReader.readFileAsStream(ScenarioFileReader.java:99)\n- com.intuit.karate.core.ScenarioFileReader.readFileAsString(ScenarioFileReader.java:95)\n- com.intuit.karate.core.ScenarioFileReader.readFile(ScenarioFileReader.java:54)\n- com.intuit.karate.core.ScenarioEngine.lambda$new$0(ScenarioEngine.java:124)\n- <js>.:program(Unnamed:1)\n\nclasspath:com\/api\/automation\/getrequest\/ValidationUsingFile.feature:25","startTime":1710156734038,"endTime":1710156734048,"millis":9.9208,"status":"failed"},"step":{"comments":["#create a veriable to store the data from external xml file"],"line":25,"prefix":"*","index":4,"text":"def actualResponse = read(\"..\/XMLResponse.json\")"},"stepLog":"17:02:14.048 classpath:com\/api\/automation\/getrequest\/ValidationUsingFile.feature:25\n* def actualResponse = read(\"..\/XMLResponse.json\")\njs failed:\n>>>>\n01: read(\"..\/XMLResponse.json\")\n<<<<\norg.graalvm.polyglot.PolyglotException: java.io.FileNotFoundException: C:\\Users\\hemlata.sahu\\eclipse-workspace\\karateframework\\target\\test-classes\\com\\api\\automation\\getrequest\\..\\XMLResponse.json (The system cannot find the file specified)\n- com.intuit.karate.resource.FileResource.getStream(FileResource.java:98)\n- com.intuit.karate.core.ScenarioFileReader.readFileAsStream(ScenarioFileReader.java:99)\n- com.intuit.karate.core.ScenarioFileReader.readFileAsString(ScenarioFileReader.java:95)\n- com.intuit.karate.core.ScenarioFileReader.readFile(ScenarioFileReader.java:54)\n- com.intuit.karate.core.ScenarioEngine.lambda$new$0(ScenarioEngine.java:124)\n- <js>.:program(Unnamed:1)\n\nclasspath:com\/api\/automation\/getrequest\/ValidationUsingFile.feature:25\n"},{"result":{"nanos":0,"startTime":1710156734048,"endTime":1710156734048,"millis":0.0,"status":"skipped"},"step":{"line":26,"prefix":"And","index":5,"text":"print 'File-->\" , actualResponse"}},{"result":{"nanos":0,"startTime":1710156734048,"endTime":1710156734048,"millis":0.0,"status":"skipped"},"step":{"line":27,"prefix":"And","index":6,"text":"match response == actualResponse"}}],"line":19,"description":"","durationMillis":850.3272,"failed":true,"error":"js failed:\n>>>>\n01: read(\"..\/XMLResponse.json\")\n<<<<\norg.graalvm.polyglot.PolyglotException: java.io.FileNotFoundException: C:\\Users\\hemlata.sahu\\eclipse-workspace\\karateframework\\target\\test-classes\\com\\api\\automation\\getrequest\\..\\XMLResponse.json (The system cannot find the file specified)\n- com.intuit.karate.resource.FileResource.getStream(FileResource.java:98)\n- com.intuit.karate.core.ScenarioFileReader.readFileAsStream(ScenarioFileReader.java:99)\n- com.intuit.karate.core.ScenarioFileReader.readFileAsString(ScenarioFileReader.java:95)\n- com.intuit.karate.core.ScenarioFileReader.readFile(ScenarioFileReader.java:54)\n- com.intuit.karate.core.ScenarioEngine.lambda$new$0(ScenarioEngine.java:124)\n- <js>.:program(Unnamed:1)\n\nclasspath:com\/api\/automation\/getrequest\/ValidationUsingFile.feature:25","executorName":"pool-1-thread-5","name":"To get all the data from the application in JSON format and validate from file","startTime":1710156733191,"refId":"[2:19]","endTime":1710156734048,"exampleIndex":-1}],"callDepth":0,"name":"To validate the Get endpoint","description":"To validate the Get endpoint response","resultDate":"2024-03-11 05:02:14 pm","durationMillis":1752.8538,"passedCount":0}