{"failedCount":0,"prefixedPath":"classpath:com\/api\/automation\/getrequest\/getRequest.feature","packageQualifiedName":"com.api.automation.getrequest.getRequest","loopIndex":-1,"relativePath":"com\/api\/automation\/getrequest\/getRequest.feature","scenarioResults":[{"sectionIndex":0,"stepResults":[{"result":{"nanos":2021300,"startTime":1710156798940,"endTime":1710156798942,"millis":2.0213,"status":"passed"},"step":{"background":true,"line":4,"prefix":"Given","index":0,"text":"url 'https:\/\/reqres.in'"},"stepLog":"17:03:18.874 karate.env system property was: null \n"},{"result":{"nanos":2757800,"startTime":1710156798949,"endTime":1710156798952,"millis":2.7578,"status":"passed"},"step":{"background":true,"line":5,"prefix":"And","index":1,"text":"print '========This is the Background keyword ====================='"},"stepLog":"17:03:18.951 [print] ========This is the Background keyword ===================== \n"},{"result":{"nanos":674400,"startTime":1710156798952,"endTime":1710156798953,"millis":0.6744,"status":"passed"},"step":{"line":23,"prefix":"Given","index":0,"text":"path '\/api\/users?page=2'"}},{"result":{"nanos":2460458900,"startTime":1710156798954,"endTime":1710156801414,"millis":2460.4589,"status":"passed"},"step":{"line":24,"prefix":"When","index":1,"text":"method get #send the get request"},"stepLog":"17:03:19.353 request:\n1 > GET https:\/\/reqres.in\/api\/users%3Fpage=2\n1 > Host: reqres.in\n1 > Connection: Keep-Alive\n1 > User-Agent: Apache-HttpClient\/4.5.14 (Java\/17.0.2)\n1 > Accept-Encoding: gzip,deflate\n\n\n17:03:21.409 response time in milliseconds: 2054\n1 < 200\n1 < Date: Mon, 11 Mar 2024 11:33:22 GMT\n1 < Content-Type: application\/json; charset=utf-8\n1 < Transfer-Encoding: chunked\n1 < Connection: keep-alive\n1 < Report-To: {\"group\":\"heroku-nel\",\"max_age\":3600,\"endpoints\":[{\"url\":\"https:\/\/nel.heroku.com\/reports?ts=1710156801&sid=c4c9725f-1ab0-44d8-820f-430df2718e11&s=9HzxPWBHwJsmj6UKTtKPwBj11qq1Gq2erHmhgluemTw%3D\"}]}\n1 < Reporting-Endpoints: heroku-nel=https:\/\/nel.heroku.com\/reports?ts=1710156801&sid=c4c9725f-1ab0-44d8-820f-430df2718e11&s=9HzxPWBHwJsmj6UKTtKPwBj11qq1Gq2erHmhgluemTw%3D\n1 < Nel: {\"report_to\":\"heroku-nel\",\"max_age\":3600,\"success_fraction\":0.005,\"failure_fraction\":0.05,\"response_headers\":[\"Via\"]}\n1 < X-Powered-By: Express\n1 < Access-Control-Allow-Origin: *\n1 < Etag: W\/\"2c1-N6Rqerxquq2kgQhL51EiSg4x0R8\"\n1 < Via: 1.1 vegur\n1 < Cache-Control: max-age=14400\n1 < CF-Cache-Status: HIT\n1 < Age: 1\n1 < Vary: Accept-Encoding\n1 < Server: cloudflare\n1 < CF-RAY: 862b3aa9de756088-ORD\n{\"page\":1,\"per_page\":6,\"total\":12,\"total_pages\":2,\"data\":[{\"id\":1,\"name\":\"cerulean\",\"year\":2000,\"color\":\"#98B2D1\",\"pantone_value\":\"15-4020\"},{\"id\":2,\"name\":\"fuchsia rose\",\"year\":2001,\"color\":\"#C74375\",\"pantone_value\":\"17-2031\"},{\"id\":3,\"name\":\"true red\",\"year\":2002,\"color\":\"#BF1932\",\"pantone_value\":\"19-1664\"},{\"id\":4,\"name\":\"aqua sky\",\"year\":2003,\"color\":\"#7BC4C4\",\"pantone_value\":\"14-4811\"},{\"id\":5,\"name\":\"tigerlily\",\"year\":2004,\"color\":\"#E2583E\",\"pantone_value\":\"17-1456\"},{\"id\":6,\"name\":\"blue turquoise\",\"year\":2005,\"color\":\"#53B0AE\",\"pantone_value\":\"15-5217\"}],\"support\":{\"url\":\"https:\/\/reqres.in\/#support-heading\",\"text\":\"To keep ReqRes free, contributions towards server costs are appreciated!\"}}\n\n"},{"result":{"nanos":17200,"startTime":1710156801414,"endTime":1710156801414,"millis":0.0172,"status":"passed"},"step":{"line":25,"prefix":"Then","index":2,"text":"status 200 #the status code response should be 200"}}],"executorName":"pool-1-thread-2","line":22,"name":"To get all the data from the application in JSON format","description":"","durationMillis":2465.9296,"startTime":1710156798621,"failed":false,"refId":"[1:22]","endTime":1710156801414,"exampleIndex":-1},{"sectionIndex":1,"stepResults":[{"result":{"nanos":2031900,"startTime":1710156798940,"endTime":1710156798942,"millis":2.0319,"status":"passed"},"step":{"background":true,"line":4,"prefix":"Given","index":0,"text":"url 'https:\/\/reqres.in'"},"stepLog":"17:03:18.873 karate.env system property was: null \n"},{"result":{"nanos":2762000,"startTime":1710156798949,"endTime":1710156798952,"millis":2.762,"status":"passed"},"step":{"background":true,"line":5,"prefix":"And","index":1,"text":"print '========This is the Background keyword ====================='"},"stepLog":"17:03:18.951 [print] ========This is the Background keyword ===================== \n"},{"result":{"nanos":643300,"startTime":1710156798952,"endTime":1710156798953,"millis":0.6433,"status":"passed"},"step":{"line":29,"prefix":"Given","index":0,"text":"path '\/api\/users?page=2'"}},{"result":{"nanos":681500,"startTime":1710156798954,"endTime":1710156798955,"millis":0.6815,"status":"passed"},"step":{"line":30,"prefix":"And","index":1,"text":"header Accept = 'application\/json'"}},{"result":{"nanos":2201830300,"startTime":1710156798959,"endTime":1710156801161,"millis":2201.8303,"status":"passed"},"step":{"line":31,"prefix":"When","index":2,"text":"method get #send the get request"},"stepLog":"17:03:19.354 request:\n1 > GET https:\/\/reqres.in\/api\/users%3Fpage=2\n1 > Accept: application\/json\n1 > Host: reqres.in\n1 > Connection: Keep-Alive\n1 > User-Agent: Apache-HttpClient\/4.5.14 (Java\/17.0.2)\n1 > Accept-Encoding: gzip,deflate\n\n\n17:03:21.156 response time in milliseconds: 1800\n1 < 200\n1 < Date: Mon, 11 Mar 2024 11:33:21 GMT\n1 < Content-Type: application\/json; charset=utf-8\n1 < Transfer-Encoding: chunked\n1 < Connection: keep-alive\n1 < Report-To: {\"group\":\"heroku-nel\",\"max_age\":3600,\"endpoints\":[{\"url\":\"https:\/\/nel.heroku.com\/reports?ts=1710156801&sid=c4c9725f-1ab0-44d8-820f-430df2718e11&s=9HzxPWBHwJsmj6UKTtKPwBj11qq1Gq2erHmhgluemTw%3D\"}]}\n1 < Reporting-Endpoints: heroku-nel=https:\/\/nel.heroku.com\/reports?ts=1710156801&sid=c4c9725f-1ab0-44d8-820f-430df2718e11&s=9HzxPWBHwJsmj6UKTtKPwBj11qq1Gq2erHmhgluemTw%3D\n1 < Nel: {\"report_to\":\"heroku-nel\",\"max_age\":3600,\"success_fraction\":0.005,\"failure_fraction\":0.05,\"response_headers\":[\"Via\"]}\n1 < X-Powered-By: Express\n1 < Access-Control-Allow-Origin: *\n1 < Etag: W\/\"2c1-N6Rqerxquq2kgQhL51EiSg4x0R8\"\n1 < Via: 1.1 vegur\n1 < Cache-Control: max-age=14400\n1 < CF-Cache-Status: MISS\n1 < Vary: Accept-Encoding\n1 < Server: cloudflare\n1 < CF-RAY: 862b3aa9d9e56187-ORD\n{\"page\":1,\"per_page\":6,\"total\":12,\"total_pages\":2,\"data\":[{\"id\":1,\"name\":\"cerulean\",\"year\":2000,\"color\":\"#98B2D1\",\"pantone_value\":\"15-4020\"},{\"id\":2,\"name\":\"fuchsia rose\",\"year\":2001,\"color\":\"#C74375\",\"pantone_value\":\"17-2031\"},{\"id\":3,\"name\":\"true red\",\"year\":2002,\"color\":\"#BF1932\",\"pantone_value\":\"19-1664\"},{\"id\":4,\"name\":\"aqua sky\",\"year\":2003,\"color\":\"#7BC4C4\",\"pantone_value\":\"14-4811\"},{\"id\":5,\"name\":\"tigerlily\",\"year\":2004,\"color\":\"#E2583E\",\"pantone_value\":\"17-1456\"},{\"id\":6,\"name\":\"blue turquoise\",\"year\":2005,\"color\":\"#53B0AE\",\"pantone_value\":\"15-5217\"}],\"support\":{\"url\":\"https:\/\/reqres.in\/#support-heading\",\"text\":\"To keep ReqRes free, contributions towards server costs are appreciated!\"}}\n\n"},{"result":{"nanos":9100,"startTime":1710156801161,"endTime":1710156801161,"millis":0.0091,"status":"passed"},"step":{"line":32,"prefix":"Then","index":3,"text":"status 200 #the status code response should be 200"}}],"executorName":"pool-1-thread-3","line":28,"name":"To get all the data from the application in JSON format using path variable","description":"","durationMillis":2207.9581,"startTime":1710156798621,"failed":false,"refId":"[2:28]","endTime":1710156801161,"exampleIndex":-1},{"sectionIndex":2,"stepResults":[{"result":{"nanos":2031900,"startTime":1710156798940,"endTime":1710156798942,"millis":2.0319,"status":"passed"},"step":{"background":true,"line":4,"prefix":"Given","index":0,"text":"url 'https:\/\/reqres.in'"},"stepLog":"17:03:18.874 karate.env system property was: null \n"},{"result":{"nanos":2855900,"startTime":1710156798949,"endTime":1710156798952,"millis":2.8559,"status":"passed"},"step":{"background":true,"line":5,"prefix":"And","index":1,"text":"print '========This is the Background keyword ====================='"},"stepLog":"17:03:18.951 [print] ========This is the Background keyword ===================== \n"},{"result":{"nanos":641000,"startTime":1710156798952,"endTime":1710156798953,"millis":0.641,"status":"passed"},"step":{"comments":["#Given url 'https:\/\/reqres.in'"],"line":37,"prefix":"Given","index":0,"text":"path '\/api\/users?page=2'"}},{"result":{"nanos":699700,"startTime":1710156798954,"endTime":1710156798955,"millis":0.6997,"status":"passed"},"step":{"line":38,"prefix":"And","index":1,"text":"header Accept = 'application\/xml*'"}},{"result":{"nanos":1915132900,"startTime":1710156798959,"endTime":1710156800874,"millis":1915.1329,"status":"passed"},"step":{"line":39,"prefix":"When","index":2,"text":"method get #send the get request"},"stepLog":"17:03:19.353 request:\n1 > GET https:\/\/reqres.in\/api\/users%3Fpage=2\n1 > Accept: application\/xml*\n1 > Host: reqres.in\n1 > Connection: Keep-Alive\n1 > User-Agent: Apache-HttpClient\/4.5.14 (Java\/17.0.2)\n1 > Accept-Encoding: gzip,deflate\n\n\n17:03:20.872 response time in milliseconds: 1515\n1 < 200\n1 < Date: Mon, 11 Mar 2024 11:33:21 GMT\n1 < Content-Type: application\/json; charset=utf-8\n1 < Transfer-Encoding: chunked\n1 < Connection: keep-alive\n1 < Report-To: {\"group\":\"heroku-nel\",\"max_age\":3600,\"endpoints\":[{\"url\":\"https:\/\/nel.heroku.com\/reports?ts=1710156734&sid=c4c9725f-1ab0-44d8-820f-430df2718e11&s=VORh4sHeFTLNkn%2BOKef6A6Iy8yrutow%2BS0j82NbsCxk%3D\"}]}\n1 < Reporting-Endpoints: heroku-nel=https:\/\/nel.heroku.com\/reports?ts=1710156734&sid=c4c9725f-1ab0-44d8-820f-430df2718e11&s=VORh4sHeFTLNkn%2BOKef6A6Iy8yrutow%2BS0j82NbsCxk%3D\n1 < Nel: {\"report_to\":\"heroku-nel\",\"max_age\":3600,\"success_fraction\":0.005,\"failure_fraction\":0.05,\"response_headers\":[\"Via\"]}\n1 < X-Powered-By: Express\n1 < Access-Control-Allow-Origin: *\n1 < Etag: W\/\"2c1-N6Rqerxquq2kgQhL51EiSg4x0R8\"\n1 < Via: 1.1 vegur\n1 < Cache-Control: max-age=14400\n1 < CF-Cache-Status: HIT\n1 < Age: 67\n1 < Vary: Accept-Encoding\n1 < Server: cloudflare\n1 < CF-RAY: 862b3aa9d85fe239-ORD\n{\"page\":1,\"per_page\":6,\"total\":12,\"total_pages\":2,\"data\":[{\"id\":1,\"name\":\"cerulean\",\"year\":2000,\"color\":\"#98B2D1\",\"pantone_value\":\"15-4020\"},{\"id\":2,\"name\":\"fuchsia rose\",\"year\":2001,\"color\":\"#C74375\",\"pantone_value\":\"17-2031\"},{\"id\":3,\"name\":\"true red\",\"year\":2002,\"color\":\"#BF1932\",\"pantone_value\":\"19-1664\"},{\"id\":4,\"name\":\"aqua sky\",\"year\":2003,\"color\":\"#7BC4C4\",\"pantone_value\":\"14-4811\"},{\"id\":5,\"name\":\"tigerlily\",\"year\":2004,\"color\":\"#E2583E\",\"pantone_value\":\"17-1456\"},{\"id\":6,\"name\":\"blue turquoise\",\"year\":2005,\"color\":\"#53B0AE\",\"pantone_value\":\"15-5217\"}],\"support\":{\"url\":\"https:\/\/reqres.in\/#support-heading\",\"text\":\"To keep ReqRes free, contributions towards server costs are appreciated!\"}}\n\n"},{"result":{"nanos":21200,"startTime":1710156800874,"endTime":1710156800874,"millis":0.0212,"status":"passed"},"step":{"line":40,"prefix":"Then","index":3,"text":"status 200 #the status code response should be 200"}}],"executorName":"pool-1-thread-4","line":35,"name":"To get all the data from the application in xml format using path variable","description":"","durationMillis":1921.3826,"startTime":1710156798621,"failed":false,"refId":"[3:35]","endTime":1710156800874,"exampleIndex":-1}],"callDepth":0,"name":"To test the endpoint of the application","description":"","resultDate":"2024-03-11 05:03:22 pm","durationMillis":6595.2703,"passedCount":3}