{"failedCount":0,"prefixedPath":"classpath:com\/api\/automation\/getrequest\/queryparameters\/queryparameters.feature","packageQualifiedName":"com.api.automation.getrequest.queryparameters.queryparameters","loopIndex":-1,"relativePath":"com\/api\/automation\/getrequest\/queryparameters\/queryparameters.feature","scenarioResults":[{"sectionIndex":0,"stepResults":[{"result":{"nanos":797200,"startTime":1711613144372,"endTime":1711613144373,"millis":0.7972,"status":"passed"},"step":{"background":true,"line":5,"prefix":"Given","index":0,"text":"url 'https:\/\/reqres.in'"},"stepLog":"13:35:44.350 karate.env system property was: null \n"},{"result":{"nanos":355900,"startTime":1711613144374,"endTime":1711613144374,"millis":0.3559,"status":"passed"},"step":{"comments":["# Send the Get request with query param"],"line":9,"prefix":"Given","index":0,"text":"path '\/api\/users'"}},{"result":{"nanos":1391100,"startTime":1711613144374,"endTime":1711613144375,"millis":1.3911,"status":"passed"},"step":{"line":10,"prefix":"And","index":1,"text":"params page = '2'"},"stepLog":"13:35:44.376 did not evaluate to map page = '2': [type: STRING, value: 2]\n"},{"result":{"nanos":25479700,"startTime":1711613144376,"endTime":1711613144401,"millis":25.4797,"status":"passed"},"step":{"line":11,"prefix":"And","index":2,"text":"headers {Accept:'application\/json'}"}},{"result":{"nanos":921226200,"startTime":1711613144402,"endTime":1711613145323,"millis":921.2262,"status":"passed"},"step":{"line":12,"prefix":"When","index":3,"text":"method get"},"stepLog":"13:35:44.630 request:\n1 > GET https:\/\/reqres.in\/api\/users\n1 > Accept: application\/json\n1 > Host: reqres.in\n1 > Connection: Keep-Alive\n1 > User-Agent: Apache-HttpClient\/4.5.14 (Java\/17.0.2)\n1 > Accept-Encoding: gzip,deflate\n\n\n13:35:45.318 response time in milliseconds: 685\n1 < 200\n1 < Date: Thu, 28 Mar 2024 08:05:46 GMT\n1 < Content-Type: application\/json; charset=utf-8\n1 < Transfer-Encoding: chunked\n1 < Connection: keep-alive\n1 < Report-To: {\"group\":\"heroku-nel\",\"max_age\":3600,\"endpoints\":[{\"url\":\"https:\/\/nel.heroku.com\/reports?ts=1710951996&sid=c4c9725f-1ab0-44d8-820f-430df2718e11&s=XI1%2FNkfc5mqicXCSvIU2a0naZIFhJb8gC8sPWGDLGiY%3D\"}]}\n1 < Reporting-Endpoints: heroku-nel=https:\/\/nel.heroku.com\/reports?ts=1710951996&sid=c4c9725f-1ab0-44d8-820f-430df2718e11&s=XI1%2FNkfc5mqicXCSvIU2a0naZIFhJb8gC8sPWGDLGiY%3D\n1 < Nel: {\"report_to\":\"heroku-nel\",\"max_age\":3600,\"success_fraction\":0.005,\"failure_fraction\":0.05,\"response_headers\":[\"Via\"]}\n1 < X-Powered-By: Express\n1 < Access-Control-Allow-Origin: *\n1 < Etag: W\/\"3e4-2RLXvr5wTg9YQ6aH95CkYoFNuO8\"\n1 < Via: 1.1 vegur\n1 < Cache-Control: max-age=14400\n1 < CF-Cache-Status: HIT\n1 < Age: 1428\n1 < Vary: Accept-Encoding\n1 < Server: cloudflare\n1 < CF-RAY: 86b61df2dd865475-DEL\n{\"page\":1,\"per_page\":6,\"total\":12,\"total_pages\":2,\"data\":[{\"id\":1,\"email\":\"george.bluth@reqres.in\",\"first_name\":\"George\",\"last_name\":\"Bluth\",\"avatar\":\"https:\/\/reqres.in\/img\/faces\/1-image.jpg\"},{\"id\":2,\"email\":\"janet.weaver@reqres.in\",\"first_name\":\"Janet\",\"last_name\":\"Weaver\",\"avatar\":\"https:\/\/reqres.in\/img\/faces\/2-image.jpg\"},{\"id\":3,\"email\":\"emma.wong@reqres.in\",\"first_name\":\"Emma\",\"last_name\":\"Wong\",\"avatar\":\"https:\/\/reqres.in\/img\/faces\/3-image.jpg\"},{\"id\":4,\"email\":\"eve.holt@reqres.in\",\"first_name\":\"Eve\",\"last_name\":\"Holt\",\"avatar\":\"https:\/\/reqres.in\/img\/faces\/4-image.jpg\"},{\"id\":5,\"email\":\"charles.morris@reqres.in\",\"first_name\":\"Charles\",\"last_name\":\"Morris\",\"avatar\":\"https:\/\/reqres.in\/img\/faces\/5-image.jpg\"},{\"id\":6,\"email\":\"tracey.ramos@reqres.in\",\"first_name\":\"Tracey\",\"last_name\":\"Ramos\",\"avatar\":\"https:\/\/reqres.in\/img\/faces\/6-image.jpg\"}],\"support\":{\"url\":\"https:\/\/reqres.in\/#support-heading\",\"text\":\"To keep ReqRes free, contributions towards server costs are appreciated!\"}}\n\n"},{"result":{"nanos":21700,"startTime":1711613145324,"endTime":1711613145324,"millis":0.0217,"status":"passed"},"step":{"line":13,"prefix":"Then","index":4,"text":"status 200"}},{"result":{"nanos":9677200,"startTime":1711613145324,"endTime":1711613145334,"millis":9.6772,"status":"passed"},"step":{"line":14,"prefix":"And","index":5,"text":"match header Connection == 'keep-alive'"}}],"executorName":"main","line":7,"name":"To get the data using Query Parameter","description":"","durationMillis":958.949,"startTime":1711613144250,"failed":false,"refId":"[1:7]","endTime":1711613145334,"exampleIndex":-1},{"sectionIndex":1,"stepResults":[{"result":{"nanos":707300,"startTime":1711613145348,"endTime":1711613145349,"millis":0.7073,"status":"passed"},"step":{"background":true,"line":5,"prefix":"Given","index":0,"text":"url 'https:\/\/reqres.in'"},"stepLog":"13:35:45.347 karate.env system property was: null \n"},{"result":{"nanos":538131700,"startTime":1711613145348,"endTime":1711613145886,"millis":538.1317,"status":"passed"},"step":{"comments":["# Create the Job Entry","# Get the newly created Job Entry using Query Param"],"line":19,"prefix":"*","index":0,"text":"def createJob = call read(\"..\/..\/CreateUser.feature\") { _url:'https:\/\/reqres.in', _path:'\/api\/users',_request:'{\"name\": \"mark\", \"job\": \"leader\" }' }"},"callResults":[{"prefixedPath":"classpath:com\/api\/automation\/getrequest\/queryparameters\/..\/..\/CreateUser.feature","loopIndex":-1,"callDepth":1,"description":"Test the end point PUT \/normal\/webapi\/update","resultDate":"2024-03-28 01:35:46 pm","durationMillis":521.5139,"callArg":{"_url":"https:\/\/reqres.in","_path":"\/api\/users","_request":"{\"name\": \"mark\", \"job\": \"leader\" }"},"failedCount":0,"packageQualifiedName":"com.api.automation.getrequest.queryparameters.CreateUser","relativePath":"com\/api\/automation\/getrequest\/queryparameters\/..\/..\/CreateUser.feature","scenarioResults":[{"sectionIndex":0,"stepResults":[{"result":{"nanos":238800,"startTime":1711613145364,"endTime":1711613145364,"millis":0.2388,"status":"passed"},"step":{"background":true,"line":5,"prefix":"Given","index":0,"text":"url 'https:\/\/reqres.in'"}},{"result":{"nanos":481800,"startTime":1711613145364,"endTime":1711613145364,"millis":0.4818,"status":"passed"},"step":{"comments":["# Create a new Job Entry"],"line":10,"prefix":"Given","index":0,"text":"path '\/api\/users'"}},{"result":{"nanos":127800,"startTime":1711613145365,"endTime":1711613145365,"millis":0.1278,"status":"passed"},"step":{"line":11,"prefix":"And","index":1,"text":"request {\"name\": \"mark\", \"job\": \"leader\" }"}},{"result":{"nanos":75800,"startTime":1711613145365,"endTime":1711613145365,"millis":0.0758,"status":"passed"},"step":{"line":12,"prefix":"And","index":2,"text":"headers {Accept : 'application\/json', Content-Type: 'application\/json'}"}},{"result":{"nanos":520583400,"startTime":1711613145366,"endTime":1711613145887,"millis":520.5834,"status":"passed"},"step":{"line":13,"prefix":"When","index":3,"text":"method post"},"stepLog":"13:35:45.426 request:\n1 > POST https:\/\/reqres.in\/api\/users\n1 > Accept: application\/json\n1 > Content-Type: application\/json; charset=UTF-8\n1 > Content-Length: 30\n1 > Host: reqres.in\n1 > Connection: Keep-Alive\n1 > User-Agent: Apache-HttpClient\/4.5.14 (Java\/17.0.2)\n1 > Accept-Encoding: gzip,deflate\n{\"name\":\"mark\",\"job\":\"leader\"}\n\n13:35:45.884 response time in milliseconds: 456\n1 < 201\n1 < Date: Thu, 28 Mar 2024 08:05:46 GMT\n1 < Content-Type: application\/json; charset=utf-8\n1 < Content-Length: 80\n1 < Connection: keep-alive\n1 < Report-To: {\"group\":\"heroku-nel\",\"max_age\":3600,\"endpoints\":[{\"url\":\"https:\/\/nel.heroku.com\/reports?ts=1711613146&sid=c4c9725f-1ab0-44d8-820f-430df2718e11&s=58o2cu3C3uUhdkU6knDFOl%2Bfx%2FvIL%2BsQfVAuUQlsTnA%3D\"}]}\n1 < Reporting-Endpoints: heroku-nel=https:\/\/nel.heroku.com\/reports?ts=1711613146&sid=c4c9725f-1ab0-44d8-820f-430df2718e11&s=58o2cu3C3uUhdkU6knDFOl%2Bfx%2FvIL%2BsQfVAuUQlsTnA%3D\n1 < Nel: {\"report_to\":\"heroku-nel\",\"max_age\":3600,\"success_fraction\":0.005,\"failure_fraction\":0.05,\"response_headers\":[\"Via\"]}\n1 < X-Powered-By: Express\n1 < Access-Control-Allow-Origin: *\n1 < Etag: W\/\"50-ryGBzl+nXNykloEriQFPW1Hgg8g\"\n1 < Via: 1.1 vegur\n1 < CF-Cache-Status: DYNAMIC\n1 < Server: cloudflare\n1 < CF-RAY: 86b61df46cce5525-DEL\n{\"name\":\"mark\",\"job\":\"leader\",\"id\":\"459\",\"createdAt\":\"2024-03-28T08:05:46.557Z\"}\n\n"},{"result":{"nanos":6300,"startTime":1711613145885,"endTime":1711613145885,"millis":0.0063,"status":"passed"},"step":{"line":14,"prefix":"And","index":4,"text":"status 201"}}],"executorName":"main","line":7,"name":"To update the User Entry for exiting users in JSON format","description":"","durationMillis":521.5139,"startTime":1711613145364,"failed":false,"refId":"[1:7]","endTime":1711613145885,"exampleIndex":-1}],"name":"To test the updation of Job entry in the test application","passedCount":1}]},{"result":{"nanos":181500,"startTime":1711613145887,"endTime":1711613145887,"millis":0.1815,"status":"passed"},"step":{"comments":["# Send the Get request with query param"],"line":21,"prefix":"Given","index":1,"text":"path '\/api\/users'"}},{"result":{"nanos":862800,"startTime":1711613145887,"endTime":1711613145888,"millis":0.8628,"status":"passed"},"step":{"line":22,"prefix":"And","index":2,"text":"params page = '1'"},"stepLog":"13:35:45.888 did not evaluate to map page = '1': [type: STRING, value: 1]\n"},{"result":{"nanos":114600,"startTime":1711613145888,"endTime":1711613145888,"millis":0.1146,"status":"passed"},"step":{"line":23,"prefix":"And","index":3,"text":"headers {Accept:'application\/json'}"}},{"result":{"nanos":131069100,"startTime":1711613145888,"endTime":1711613146019,"millis":131.0691,"status":"passed"},"step":{"line":24,"prefix":"When","index":4,"text":"method get"},"stepLog":"13:35:45.889 request:\n1 > GET https:\/\/reqres.in\/api\/users\n1 > Accept: application\/json\n1 > Host: reqres.in\n1 > Connection: Keep-Alive\n1 > User-Agent: Apache-HttpClient\/4.5.14 (Java\/17.0.2)\n1 > Accept-Encoding: gzip,deflate\n\n\n13:35:46.019 response time in milliseconds: 129\n1 < 200\n1 < Date: Thu, 28 Mar 2024 08:05:46 GMT\n1 < Content-Type: application\/json; charset=utf-8\n1 < Transfer-Encoding: chunked\n1 < Connection: keep-alive\n1 < Report-To: {\"group\":\"heroku-nel\",\"max_age\":3600,\"endpoints\":[{\"url\":\"https:\/\/nel.heroku.com\/reports?ts=1710951996&sid=c4c9725f-1ab0-44d8-820f-430df2718e11&s=XI1%2FNkfc5mqicXCSvIU2a0naZIFhJb8gC8sPWGDLGiY%3D\"}]}\n1 < Reporting-Endpoints: heroku-nel=https:\/\/nel.heroku.com\/reports?ts=1710951996&sid=c4c9725f-1ab0-44d8-820f-430df2718e11&s=XI1%2FNkfc5mqicXCSvIU2a0naZIFhJb8gC8sPWGDLGiY%3D\n1 < Nel: {\"report_to\":\"heroku-nel\",\"max_age\":3600,\"success_fraction\":0.005,\"failure_fraction\":0.05,\"response_headers\":[\"Via\"]}\n1 < X-Powered-By: Express\n1 < Access-Control-Allow-Origin: *\n1 < Etag: W\/\"3e4-2RLXvr5wTg9YQ6aH95CkYoFNuO8\"\n1 < Via: 1.1 vegur\n1 < Cache-Control: max-age=14400\n1 < CF-Cache-Status: HIT\n1 < Age: 1428\n1 < Vary: Accept-Encoding\n1 < Server: cloudflare\n1 < CF-RAY: 86b61df74a805483-DEL\n{\"page\":1,\"per_page\":6,\"total\":12,\"total_pages\":2,\"data\":[{\"id\":1,\"email\":\"george.bluth@reqres.in\",\"first_name\":\"George\",\"last_name\":\"Bluth\",\"avatar\":\"https:\/\/reqres.in\/img\/faces\/1-image.jpg\"},{\"id\":2,\"email\":\"janet.weaver@reqres.in\",\"first_name\":\"Janet\",\"last_name\":\"Weaver\",\"avatar\":\"https:\/\/reqres.in\/img\/faces\/2-image.jpg\"},{\"id\":3,\"email\":\"emma.wong@reqres.in\",\"first_name\":\"Emma\",\"last_name\":\"Wong\",\"avatar\":\"https:\/\/reqres.in\/img\/faces\/3-image.jpg\"},{\"id\":4,\"email\":\"eve.holt@reqres.in\",\"first_name\":\"Eve\",\"last_name\":\"Holt\",\"avatar\":\"https:\/\/reqres.in\/img\/faces\/4-image.jpg\"},{\"id\":5,\"email\":\"charles.morris@reqres.in\",\"first_name\":\"Charles\",\"last_name\":\"Morris\",\"avatar\":\"https:\/\/reqres.in\/img\/faces\/5-image.jpg\"},{\"id\":6,\"email\":\"tracey.ramos@reqres.in\",\"first_name\":\"Tracey\",\"last_name\":\"Ramos\",\"avatar\":\"https:\/\/reqres.in\/img\/faces\/6-image.jpg\"}],\"support\":{\"url\":\"https:\/\/reqres.in\/#support-heading\",\"text\":\"To keep ReqRes free, contributions towards server costs are appreciated!\"}}\n\n"},{"result":{"nanos":7000,"startTime":1711613146020,"endTime":1711613146020,"millis":0.007,"status":"passed"},"step":{"line":25,"prefix":"Then","index":5,"text":"status 200"}},{"result":{"nanos":233100,"startTime":1711613146020,"endTime":1711613146020,"millis":0.2331,"status":"passed"},"step":{"line":26,"prefix":"And","index":6,"text":"match header Connection == 'keep-alive'"}},{"result":{"nanos":5980600,"startTime":1711613146021,"endTime":1711613146027,"millis":5.9806,"status":"passed"},"step":{"line":27,"prefix":"And","index":7,"text":"print createJob"},"stepLog":"13:35:46.026 [print] {\n  \"responseHeaders\": {\n    \"Date\": [\n      \"Thu, 28 Mar 2024 08:05:46 GMT\"\n    ],\n    \"Content-Type\": [\n      \"application\/json; charset=utf-8\"\n    ],\n    \"Content-Length\": [\n      \"80\"\n    ],\n    \"Connection\": [\n      \"keep-alive\"\n    ],\n    \"Report-To\": [\n      \"{\\\"group\\\":\\\"heroku-nel\\\",\\\"max_age\\\":3600,\\\"endpoints\\\":[{\\\"url\\\":\\\"https:\/\/nel.heroku.com\/reports?ts=1711613146&sid=c4c9725f-1ab0-44d8-820f-430df2718e11&s=58o2cu3C3uUhdkU6knDFOl%2Bfx%2FvIL%2BsQfVAuUQlsTnA%3D\\\"}]}\"\n    ],\n    \"Reporting-Endpoints\": [\n      \"heroku-nel=https:\/\/nel.heroku.com\/reports?ts=1711613146&sid=c4c9725f-1ab0-44d8-820f-430df2718e11&s=58o2cu3C3uUhdkU6knDFOl%2Bfx%2FvIL%2BsQfVAuUQlsTnA%3D\"\n    ],\n    \"Nel\": [\n      \"{\\\"report_to\\\":\\\"heroku-nel\\\",\\\"max_age\\\":3600,\\\"success_fraction\\\":0.005,\\\"failure_fraction\\\":0.05,\\\"response_headers\\\":[\\\"Via\\\"]}\"\n    ],\n    \"X-Powered-By\": [\n      \"Express\"\n    ],\n    \"Access-Control-Allow-Origin\": [\n      \"*\"\n    ],\n    \"Etag\": [\n      \"W\/\\\"50-ryGBzl+nXNykloEriQFPW1Hgg8g\\\"\"\n    ],\n    \"Via\": [\n      \"1.1 vegur\"\n    ],\n    \"CF-Cache-Status\": [\n      \"DYNAMIC\"\n    ],\n    \"Server\": [\n      \"cloudflare\"\n    ],\n    \"CF-RAY\": [\n      \"86b61df46cce5525-DEL\"\n    ],\n    \"Set-Cookie\": [\n    ]\n  },\n  \"responseTime\": 456,\n  \"response\": {\n    \"name\": \"mark\",\n    \"job\": \"leader\",\n    \"id\": \"459\",\n    \"createdAt\": \"2024-03-28T08:05:46.557Z\"\n  },\n  \"_path\": \"\/api\/users\",\n  \"_url\": \"https:\/\/reqres.in\",\n  \"responseStatus\": 201,\n  \"_request\": \"{\\\"name\\\": \\\"mark\\\", \\\"job\\\": \\\"leader\\\" }\"\n}\n \n"}],"executorName":"main","line":16,"name":"To get the data using Query Parameter with JobId not in the application","description":"","durationMillis":677.2877,"startTime":1711613145344,"failed":false,"refId":"[2:16]","endTime":1711613146026,"exampleIndex":-1}],"callDepth":0,"name":"To test the Get end point with Query Parameter","description":"GET https:\/\/reqres.in\/api\/users?page=2","resultDate":"2024-03-28 01:35:46 pm","durationMillis":1636.2367,"passedCount":2}