{"failedCount":0,"prefixedPath":"classpath:com\/api\/automation\/postrequest\/schemaValidation.feature","packageQualifiedName":"com.api.automation.postrequest.schemaValidation","loopIndex":-1,"relativePath":"com\/api\/automation\/postrequest\/schemaValidation.feature","scenarioResults":[{"sectionIndex":0,"stepResults":[{"result":{"nanos":451500,"startTime":1710156802897,"endTime":1710156802897,"millis":0.4515,"status":"passed"},"step":{"background":true,"line":5,"prefix":"Given","index":0,"text":"url 'https:\/\/reqres.in'"},"stepLog":"17:03:22.897 karate.env system property was: null \n"},{"result":{"nanos":1083600,"startTime":1710156802898,"endTime":1710156802899,"millis":1.0836,"status":"passed"},"step":{"line":8,"prefix":"Given","index":0,"text":"path '\/api\/users'"}},{"result":{"nanos":1685800,"startTime":1710156802899,"endTime":1710156802901,"millis":1.6858,"status":"passed"},"step":{"line":9,"prefix":"*","index":1,"text":"def body = read(\"data\/createUser.json\")"}},{"result":{"nanos":503900,"startTime":1710156802901,"endTime":1710156802902,"millis":0.5039,"status":"passed"},"step":{"line":10,"prefix":"And","index":2,"text":"request body"}},{"result":{"nanos":328600,"startTime":1710156802901,"endTime":1710156802901,"millis":0.3286,"status":"passed"},"step":{"line":11,"prefix":"And","index":3,"text":"header Accept = 'application\/json'"}},{"result":{"nanos":1037289600,"startTime":1710156802902,"endTime":1710156803939,"millis":1037.2896,"status":"passed"},"step":{"line":12,"prefix":"When","index":4,"text":"method post"},"stepLog":"17:03:22.905 request:\n1 > POST https:\/\/reqres.in\/api\/users\n1 > Accept: application\/json\n1 > Content-Type: application\/json; charset=UTF-8\n1 > Content-Length: 34\n1 > Host: reqres.in\n1 > Connection: Keep-Alive\n1 > User-Agent: Apache-HttpClient\/4.5.14 (Java\/17.0.2)\n1 > Accept-Encoding: gzip,deflate\n{\"name\":\"morpheus\",\"job\":\"leader\"}\n\n17:03:23.938 response time in milliseconds: 1032\n1 < 201\n1 < Date: Mon, 11 Mar 2024 11:33:24 GMT\n1 < Content-Type: application\/json; charset=utf-8\n1 < Content-Length: 84\n1 < Connection: keep-alive\n1 < Report-To: {\"group\":\"heroku-nel\",\"max_age\":3600,\"endpoints\":[{\"url\":\"https:\/\/nel.heroku.com\/reports?ts=1710156804&sid=c4c9725f-1ab0-44d8-820f-430df2718e11&s=fdxstUvK3I2CLelqTfRXw80zpz7s9JvVF3iwGjqxbL8%3D\"}]}\n1 < Reporting-Endpoints: heroku-nel=https:\/\/nel.heroku.com\/reports?ts=1710156804&sid=c4c9725f-1ab0-44d8-820f-430df2718e11&s=fdxstUvK3I2CLelqTfRXw80zpz7s9JvVF3iwGjqxbL8%3D\n1 < Nel: {\"report_to\":\"heroku-nel\",\"max_age\":3600,\"success_fraction\":0.005,\"failure_fraction\":0.05,\"response_headers\":[\"Via\"]}\n1 < X-Powered-By: Express\n1 < Access-Control-Allow-Origin: *\n1 < Etag: W\/\"54-JP1WbORTlea2Q0qLQTxwoIE0gow\"\n1 < Via: 1.1 vegur\n1 < CF-Cache-Status: DYNAMIC\n1 < Server: cloudflare\n1 < CF-RAY: 862b3abbdd638f47-ORD\n{\"name\":\"morpheus\",\"job\":\"leader\",\"id\":\"162\",\"createdAt\":\"2024-03-11T11:33:24.616Z\"}\n\n"},{"result":{"nanos":2517700,"startTime":1710156803939,"endTime":1710156803942,"millis":2.5177,"status":"passed"},"step":{"line":13,"prefix":"Then","index":5,"text":"status 201"}},{"result":{"nanos":1239400,"startTime":1710156803942,"endTime":1710156803943,"millis":1.2394,"status":"passed"},"step":{"line":14,"prefix":"And","index":6,"text":"print response"},"stepLog":"17:03:23.943 [print] {\n  \"name\": \"morpheus\",\n  \"job\": \"leader\",\n  \"id\": \"162\",\n  \"createdAt\": \"2024-03-11T11:33:24.616Z\"\n}\n \n"},{"result":{"nanos":737300,"startTime":1710156803943,"endTime":1710156803944,"millis":0.7373,"status":"passed"},"step":{"endLine":24,"line":15,"prefix":"And","docString":"{\n\"name\": '#string',\n\"job\": '#string',\n\"id\": '#string',\n\"createdAt\": '#string'\n}","index":7,"text":"match response =="}}],"executorName":"pool-1-thread-4","line":7,"name":"To create users in JSON format","description":"","durationMillis":1045.8374,"startTime":1710156802896,"failed":false,"refId":"[1:7]","endTime":1710156803944,"exampleIndex":-1},{"sectionIndex":1,"stepResults":[{"result":{"nanos":1507400,"startTime":1710156803134,"endTime":1710156803136,"millis":1.5074,"status":"passed"},"step":{"background":true,"line":5,"prefix":"Given","index":0,"text":"url 'https:\/\/reqres.in'"},"stepLog":"17:03:23.132 karate.env system property was: null \n"},{"result":{"nanos":859200,"startTime":1710156803136,"endTime":1710156803137,"millis":0.8592,"status":"passed"},"step":{"line":27,"prefix":"Given","index":0,"text":"path '\/api\/users?page=2'"}},{"result":{"nanos":594600,"startTime":1710156803137,"endTime":1710156803138,"millis":0.5946,"status":"passed"},"step":{"line":28,"prefix":"And","index":1,"text":"header Accept = 'application\/json'"}},{"result":{"nanos":840509000,"startTime":1710156803138,"endTime":1710156803979,"millis":840.509,"status":"passed"},"step":{"line":29,"prefix":"When","index":2,"text":"method get #send the get request"},"stepLog":"17:03:23.141 request:\n1 > GET https:\/\/reqres.in\/api\/users%3Fpage=2\n1 > Accept: application\/json\n1 > Host: reqres.in\n1 > Connection: Keep-Alive\n1 > User-Agent: Apache-HttpClient\/4.5.14 (Java\/17.0.2)\n1 > Accept-Encoding: gzip,deflate\n\n\n17:03:23.978 response time in milliseconds: 836\n1 < 200\n1 < Date: Mon, 11 Mar 2024 11:33:24 GMT\n1 < Content-Type: application\/json; charset=utf-8\n1 < Transfer-Encoding: chunked\n1 < Connection: keep-alive\n1 < Report-To: {\"group\":\"heroku-nel\",\"max_age\":3600,\"endpoints\":[{\"url\":\"https:\/\/nel.heroku.com\/reports?ts=1710156801&sid=c4c9725f-1ab0-44d8-820f-430df2718e11&s=9HzxPWBHwJsmj6UKTtKPwBj11qq1Gq2erHmhgluemTw%3D\"}]}\n1 < Reporting-Endpoints: heroku-nel=https:\/\/nel.heroku.com\/reports?ts=1710156801&sid=c4c9725f-1ab0-44d8-820f-430df2718e11&s=9HzxPWBHwJsmj6UKTtKPwBj11qq1Gq2erHmhgluemTw%3D\n1 < Nel: {\"report_to\":\"heroku-nel\",\"max_age\":3600,\"success_fraction\":0.005,\"failure_fraction\":0.05,\"response_headers\":[\"Via\"]}\n1 < X-Powered-By: Express\n1 < Access-Control-Allow-Origin: *\n1 < Etag: W\/\"2c1-N6Rqerxquq2kgQhL51EiSg4x0R8\"\n1 < Via: 1.1 vegur\n1 < Cache-Control: max-age=14400\n1 < CF-Cache-Status: HIT\n1 < Age: 3\n1 < Vary: Accept-Encoding\n1 < Server: cloudflare\n1 < CF-RAY: 862b3abd5e4861b1-ORD\n{\"page\":1,\"per_page\":6,\"total\":12,\"total_pages\":2,\"data\":[{\"id\":1,\"name\":\"cerulean\",\"year\":2000,\"color\":\"#98B2D1\",\"pantone_value\":\"15-4020\"},{\"id\":2,\"name\":\"fuchsia rose\",\"year\":2001,\"color\":\"#C74375\",\"pantone_value\":\"17-2031\"},{\"id\":3,\"name\":\"true red\",\"year\":2002,\"color\":\"#BF1932\",\"pantone_value\":\"19-1664\"},{\"id\":4,\"name\":\"aqua sky\",\"year\":2003,\"color\":\"#7BC4C4\",\"pantone_value\":\"14-4811\"},{\"id\":5,\"name\":\"tigerlily\",\"year\":2004,\"color\":\"#E2583E\",\"pantone_value\":\"17-1456\"},{\"id\":6,\"name\":\"blue turquoise\",\"year\":2005,\"color\":\"#53B0AE\",\"pantone_value\":\"15-5217\"}],\"support\":{\"url\":\"https:\/\/reqres.in\/#support-heading\",\"text\":\"To keep ReqRes free, contributions towards server costs are appreciated!\"}}\n\n"},{"result":{"nanos":15600,"startTime":1710156803978,"endTime":1710156803978,"millis":0.0156,"status":"passed"},"step":{"line":30,"prefix":"Then","index":3,"text":"status 200 #the status code response should be 200"}},{"result":{"nanos":99500,"startTime":1710156803978,"endTime":1710156803978,"millis":0.0995,"status":"passed"},"step":{"line":31,"prefix":"*","index":4,"text":"def dataSchema = { \"id\": '#number' , \"name\": '#string', \"year\": '#number',\"color\": '#string', \"pantone_value\": '#string'}"}},{"result":{"nanos":119700,"startTime":1710156803979,"endTime":1710156803979,"millis":0.1197,"status":"passed"},"step":{"line":32,"prefix":"*","index":5,"text":"def supportSchema = { \"url\": '#string', \"text\": '#string'}"}},{"result":{"nanos":671300,"startTime":1710156803979,"endTime":1710156803980,"millis":0.6713,"status":"passed"},"step":{"line":33,"prefix":"*","index":6,"text":"def mainSchema = { \"page\": '#number', \"per_page\": '#number', \"total\": '#number', \"total_pages\": '#number', \"data\": '#[] ##(dataSchema)', \"support\": '##(supportSchema)' }"}},{"result":{"nanos":9611300,"startTime":1710156803979,"endTime":1710156803989,"millis":9.6113,"status":"passed"},"step":{"endLine":37,"line":34,"prefix":"And","docString":"'##(mainSchema)'","index":7,"text":"match response =="}}],"executorName":"pool-1-thread-1","line":26,"name":"Schema validation for Get Endpoint","description":"","durationMillis":853.9876,"startTime":1710156803127,"failed":false,"refId":"[2:26]","endTime":1710156803988,"exampleIndex":-1}],"callDepth":0,"name":"validate the JSON Schema","description":"To validate the JSON Schema for the POST API","resultDate":"2024-03-11 05:03:23 pm","durationMillis":1899.825,"passedCount":2}