{"failedCount":1,"prefixedPath":"classpath:com\/api\/automation\/getrequest\/responseMatcher.feature","packageQualifiedName":"com.api.automation.getrequest.responseMatcher","loopIndex":-1,"relativePath":"com\/api\/automation\/getrequest\/responseMatcher.feature","scenarioResults":[{"sectionIndex":0,"stepResults":[{"result":{"nanos":934300,"startTime":1711618123478,"endTime":1711618123479,"millis":0.9343,"status":"passed"},"step":{"background":true,"line":6,"prefix":"Given","index":0,"text":"url 'https:\/\/reqres.in'"},"stepLog":"14:58:43.476 karate.env system property was: null \n"},{"result":{"nanos":213400,"startTime":1711618123478,"endTime":1711618123478,"millis":0.2134,"status":"passed"},"step":{"line":11,"prefix":"Given","index":0,"text":"path '\/api\/users?page=2'"}},{"result":{"nanos":219600,"startTime":1711618123479,"endTime":1711618123479,"millis":0.2196,"status":"passed"},"step":{"line":12,"prefix":"And","index":1,"text":"header Accept = 'application\/json'"}},{"result":{"nanos":123569800,"startTime":1711618123479,"endTime":1711618123603,"millis":123.5698,"status":"passed"},"step":{"line":13,"prefix":"When","index":2,"text":"method get"},"stepLog":"14:58:43.480 request:\n1 > GET https:\/\/reqres.in\/api\/users%3Fpage=2\n1 > Accept: application\/json\n1 > Host: reqres.in\n1 > Connection: Keep-Alive\n1 > User-Agent: Apache-HttpClient\/4.5.14 (Java\/17.0.2)\n1 > Accept-Encoding: gzip,deflate\n\n\n14:58:43.602 response time in milliseconds: 121\n1 < 200\n1 < Date: Thu, 28 Mar 2024 09:28:44 GMT\n1 < Content-Type: application\/json; charset=utf-8\n1 < Transfer-Encoding: chunked\n1 < Connection: keep-alive\n1 < Report-To: {\"group\":\"heroku-nel\",\"max_age\":3600,\"endpoints\":[{\"url\":\"https:\/\/nel.heroku.com\/reports?ts=1711003883&sid=c4c9725f-1ab0-44d8-820f-430df2718e11&s=h2mgxR8gt8mxFqapBpqiWcX%2FVAsrY46G33P1iRl2wzs%3D\"}]}\n1 < Reporting-Endpoints: heroku-nel=https:\/\/nel.heroku.com\/reports?ts=1711003883&sid=c4c9725f-1ab0-44d8-820f-430df2718e11&s=h2mgxR8gt8mxFqapBpqiWcX%2FVAsrY46G33P1iRl2wzs%3D\n1 < Nel: {\"report_to\":\"heroku-nel\",\"max_age\":3600,\"success_fraction\":0.005,\"failure_fraction\":0.05,\"response_headers\":[\"Via\"]}\n1 < X-Powered-By: Express\n1 < Access-Control-Allow-Origin: *\n1 < Etag: W\/\"2c1-N6Rqerxquq2kgQhL51EiSg4x0R8\"\n1 < Via: 1.1 vegur\n1 < Cache-Control: max-age=14400\n1 < CF-Cache-Status: HIT\n1 < Age: 6373\n1 < Vary: Accept-Encoding\n1 < Server: cloudflare\n1 < CF-RAY: 86b6977d5ba154c2-DEL\n{\"page\":1,\"per_page\":6,\"total\":12,\"total_pages\":2,\"data\":[{\"id\":1,\"name\":\"cerulean\",\"year\":2000,\"color\":\"#98B2D1\",\"pantone_value\":\"15-4020\"},{\"id\":2,\"name\":\"fuchsia rose\",\"year\":2001,\"color\":\"#C74375\",\"pantone_value\":\"17-2031\"},{\"id\":3,\"name\":\"true red\",\"year\":2002,\"color\":\"#BF1932\",\"pantone_value\":\"19-1664\"},{\"id\":4,\"name\":\"aqua sky\",\"year\":2003,\"color\":\"#7BC4C4\",\"pantone_value\":\"14-4811\"},{\"id\":5,\"name\":\"tigerlily\",\"year\":2004,\"color\":\"#E2583E\",\"pantone_value\":\"17-1456\"},{\"id\":6,\"name\":\"blue turquoise\",\"year\":2005,\"color\":\"#53B0AE\",\"pantone_value\":\"15-5217\"}],\"support\":{\"url\":\"https:\/\/reqres.in\/#support-heading\",\"text\":\"To keep ReqRes free, contributions towards server costs are appreciated!\"}}\n\n"},{"result":{"nanos":8100,"startTime":1711618123603,"endTime":1711618123603,"millis":0.0081,"status":"passed"},"step":{"line":14,"prefix":"Then","index":3,"text":"status 200"}},{"result":{"nanos":5533700,"startTime":1711618123604,"endTime":1711618123610,"millis":5.5337,"status":"passed"},"step":{"line":15,"prefix":"And","index":4,"text":"print response"},"stepLog":"14:58:43.609 [print] {\n  \"page\": 1,\n  \"per_page\": 6,\n  \"total\": 12,\n  \"total_pages\": 2,\n  \"data\": [\n    {\n      \"id\": 1,\n      \"name\": \"cerulean\",\n      \"year\": 2000,\n      \"color\": \"#98B2D1\",\n      \"pantone_value\": \"15-4020\"\n    },\n    {\n      \"id\": 2,\n      \"name\": \"fuchsia rose\",\n      \"year\": 2001,\n      \"color\": \"#C74375\",\n      \"pantone_value\": \"17-2031\"\n    },\n    {\n      \"id\": 3,\n      \"name\": \"true red\",\n      \"year\": 2002,\n      \"color\": \"#BF1932\",\n      \"pantone_value\": \"19-1664\"\n    },\n    {\n      \"id\": 4,\n      \"name\": \"aqua sky\",\n      \"year\": 2003,\n      \"color\": \"#7BC4C4\",\n      \"pantone_value\": \"14-4811\"\n    },\n    {\n      \"id\": 5,\n      \"name\": \"tigerlily\",\n      \"year\": 2004,\n      \"color\": \"#E2583E\",\n      \"pantone_value\": \"17-1456\"\n    },\n    {\n      \"id\": 6,\n      \"name\": \"blue turquoise\",\n      \"year\": 2005,\n      \"color\": \"#53B0AE\",\n      \"pantone_value\": \"15-5217\"\n    }\n  ],\n  \"support\": {\n    \"url\": \"https:\/\/reqres.in\/#support-heading\",\n    \"text\": \"To keep ReqRes free, contributions towards server costs are appreciated!\"\n  }\n}\n \n"},{"result":{"nanos":12299500,"startTime":1711618123609,"endTime":1711618123621,"millis":12.2995,"status":"passed"},"step":{"endLine":71,"line":16,"prefix":"And","docString":"{ \"page\": 1,\n  \"per_page\": 6,\n  \"total\": 12,\n  \"total_pages\": 2,\n  \"data\": [\n{\n  \"id\": 1,\n  \"name\": \"cerulean\",\n  \"year\": 2000,\n  \"color\": \"#98B2D1\",\n  \"pantone_value\": \"15-4020\"\n},\n{\n  \"id\": 2,\n  \"name\": \"fuchsia rose\",\n  \"year\": 2001,\n  \"color\": \"#C74375\",\n  \"pantone_value\": \"17-2031\"\n},\n{\n  \"id\": 3,\n  \"name\": \"true red\",\n  \"year\": 2002,\n  \"color\": \"#BF1932\",\n  \"pantone_value\": \"19-1664\"\n},\n{\n  \"id\": 4,\n  \"name\": \"aqua sky\",\n  \"year\": 2003,\n  \"color\": \"#7BC4C4\",\n  \"pantone_value\": \"14-4811\"\n},\n{\n  \"id\": 5,\n  \"name\": \"tigerlily\",\n  \"year\": 2004,\n  \"color\": \"#E2583E\",\n  \"pantone_value\": \"17-1456\"\n},\n{\n  \"id\": 6,\n  \"name\": \"blue turquoise\",\n  \"year\": 2005,\n  \"color\": \"#53B0AE\",\n  \"pantone_value\": \"15-5217\"\n}\n  ],\n  \"support\": {\n\"url\": \"https:\/\/reqres.in\/#support-heading\",\n\"text\": \"To keep ReqRes free, contributions towards server costs are appreciated!\"\n  }\n}","index":5,"text":"match response =="}}],"line":10,"description":"","durationMillis":142.7784,"failed":false,"tags":["Regression","Smoke"],"executorName":"pool-1-thread-4","name":"To get all the data from the application in JSON format using match equals variable","startTime":1711618123474,"refId":"[1:10]","endTime":1711618123621,"exampleIndex":-1},{"sectionIndex":1,"stepResults":[{"result":{"nanos":959600,"startTime":1711618123478,"endTime":1711618123479,"millis":0.9596,"status":"passed"},"step":{"background":true,"line":6,"prefix":"Given","index":0,"text":"url 'https:\/\/reqres.in'"},"stepLog":"14:58:43.476 karate.env system property was: null \n"},{"result":{"nanos":170100,"startTime":1711618123478,"endTime":1711618123478,"millis":0.1701,"status":"passed"},"step":{"line":75,"prefix":"Given","index":0,"text":"path '\/api\/users?page=2'"}},{"result":{"nanos":188500,"startTime":1711618123479,"endTime":1711618123479,"millis":0.1885,"status":"passed"},"step":{"line":76,"prefix":"And","index":1,"text":"header Accept = 'application\/json'"}},{"result":{"nanos":128361400,"startTime":1711618123479,"endTime":1711618123607,"millis":128.3614,"status":"passed"},"step":{"line":77,"prefix":"When","index":2,"text":"method get"},"stepLog":"14:58:43.480 request:\n1 > GET https:\/\/reqres.in\/api\/users%3Fpage=2\n1 > Accept: application\/json\n1 > Host: reqres.in\n1 > Connection: Keep-Alive\n1 > User-Agent: Apache-HttpClient\/4.5.14 (Java\/17.0.2)\n1 > Accept-Encoding: gzip,deflate\n\n\n14:58:43.607 response time in milliseconds: 127\n1 < 200\n1 < Date: Thu, 28 Mar 2024 09:28:44 GMT\n1 < Content-Type: application\/json; charset=utf-8\n1 < Transfer-Encoding: chunked\n1 < Connection: keep-alive\n1 < Report-To: {\"group\":\"heroku-nel\",\"max_age\":3600,\"endpoints\":[{\"url\":\"https:\/\/nel.heroku.com\/reports?ts=1711003883&sid=c4c9725f-1ab0-44d8-820f-430df2718e11&s=h2mgxR8gt8mxFqapBpqiWcX%2FVAsrY46G33P1iRl2wzs%3D\"}]}\n1 < Reporting-Endpoints: heroku-nel=https:\/\/nel.heroku.com\/reports?ts=1711003883&sid=c4c9725f-1ab0-44d8-820f-430df2718e11&s=h2mgxR8gt8mxFqapBpqiWcX%2FVAsrY46G33P1iRl2wzs%3D\n1 < Nel: {\"report_to\":\"heroku-nel\",\"max_age\":3600,\"success_fraction\":0.005,\"failure_fraction\":0.05,\"response_headers\":[\"Via\"]}\n1 < X-Powered-By: Express\n1 < Access-Control-Allow-Origin: *\n1 < Etag: W\/\"2c1-N6Rqerxquq2kgQhL51EiSg4x0R8\"\n1 < Via: 1.1 vegur\n1 < Cache-Control: max-age=14400\n1 < CF-Cache-Status: HIT\n1 < Age: 6373\n1 < Vary: Accept-Encoding\n1 < Server: cloudflare\n1 < CF-RAY: 86b6977d691e5502-DEL\n{\"page\":1,\"per_page\":6,\"total\":12,\"total_pages\":2,\"data\":[{\"id\":1,\"name\":\"cerulean\",\"year\":2000,\"color\":\"#98B2D1\",\"pantone_value\":\"15-4020\"},{\"id\":2,\"name\":\"fuchsia rose\",\"year\":2001,\"color\":\"#C74375\",\"pantone_value\":\"17-2031\"},{\"id\":3,\"name\":\"true red\",\"year\":2002,\"color\":\"#BF1932\",\"pantone_value\":\"19-1664\"},{\"id\":4,\"name\":\"aqua sky\",\"year\":2003,\"color\":\"#7BC4C4\",\"pantone_value\":\"14-4811\"},{\"id\":5,\"name\":\"tigerlily\",\"year\":2004,\"color\":\"#E2583E\",\"pantone_value\":\"17-1456\"},{\"id\":6,\"name\":\"blue turquoise\",\"year\":2005,\"color\":\"#53B0AE\",\"pantone_value\":\"15-5217\"}],\"support\":{\"url\":\"https:\/\/reqres.in\/#support-heading\",\"text\":\"To keep ReqRes free, contributions towards server costs are appreciated!\"}}\n\n"},{"result":{"nanos":6000,"startTime":1711618123608,"endTime":1711618123608,"millis":0.006,"status":"passed"},"step":{"line":78,"prefix":"Then","index":3,"text":"status 200"}},{"result":{"nanos":2300600,"startTime":1711618123608,"endTime":1711618123610,"millis":2.3006,"status":"passed"},"step":{"line":79,"prefix":"And","index":4,"text":"print response"},"stepLog":"14:58:43.610 [print] {\n  \"page\": 1,\n  \"per_page\": 6,\n  \"total\": 12,\n  \"total_pages\": 2,\n  \"data\": [\n    {\n      \"id\": 1,\n      \"name\": \"cerulean\",\n      \"year\": 2000,\n      \"color\": \"#98B2D1\",\n      \"pantone_value\": \"15-4020\"\n    },\n    {\n      \"id\": 2,\n      \"name\": \"fuchsia rose\",\n      \"year\": 2001,\n      \"color\": \"#C74375\",\n      \"pantone_value\": \"17-2031\"\n    },\n    {\n      \"id\": 3,\n      \"name\": \"true red\",\n      \"year\": 2002,\n      \"color\": \"#BF1932\",\n      \"pantone_value\": \"19-1664\"\n    },\n    {\n      \"id\": 4,\n      \"name\": \"aqua sky\",\n      \"year\": 2003,\n      \"color\": \"#7BC4C4\",\n      \"pantone_value\": \"14-4811\"\n    },\n    {\n      \"id\": 5,\n      \"name\": \"tigerlily\",\n      \"year\": 2004,\n      \"color\": \"#E2583E\",\n      \"pantone_value\": \"17-1456\"\n    },\n    {\n      \"id\": 6,\n      \"name\": \"blue turquoise\",\n      \"year\": 2005,\n      \"color\": \"#53B0AE\",\n      \"pantone_value\": \"15-5217\"\n    }\n  ],\n  \"support\": {\n    \"url\": \"https:\/\/reqres.in\/#support-heading\",\n    \"text\": \"To keep ReqRes free, contributions towards server costs are appreciated!\"\n  }\n}\n \n"},{"result":{"nanos":11040400,"startTime":1711618123611,"endTime":1711618123622,"millis":11.0404,"status":"passed"},"step":{"endLine":135,"line":80,"prefix":"And","docString":"{ \"page\": 11,\n  \"per_page\": 6,\n  \"total\": 12,\n  \"total_pages\": 2,\n  \"data\": [\n{\n  \"id\": 1,\n  \"name\": \"cerulean\",\n  \"year\": 2000,\n  \"color\": \"#98B2D1\",\n  \"pantone_value\": \"15-4020\"\n},\n{\n  \"id\": 2,\n  \"name\": \"fuchsia rose\",\n  \"year\": 2001,\n  \"color\": \"#C74375\",\n  \"pantone_value\": \"17-2031\"\n},\n{\n  \"id\": 3,\n  \"name\": \"true red\",\n  \"year\": 2002,\n  \"color\": \"#BF1932\",\n  \"pantone_value\": \"19-1664\"\n},\n{\n  \"id\": 4,\n  \"name\": \"aqua sky\",\n  \"year\": 2003,\n  \"color\": \"#7BC4C4\",\n  \"pantone_value\": \"14-4811\"\n},\n{\n  \"id\": 5,\n  \"name\": \"tigerlily\",\n  \"year\": 2004,\n  \"color\": \"#E2583E\",\n  \"pantone_value\": \"17-1456\"\n},\n{\n  \"id\": 6,\n  \"name\": \"blue turquoise\",\n  \"year\": 2005,\n  \"color\": \"#53B0AE\",\n  \"pantone_value\": \"15-5217\"\n}\n  ],\n  \"support\": {\n\"url\": \"https:\/\/reqres.in\/#support-heading\",\n\"text\": \"To keep ReqRes free, contributions towards server costs are appreciated!\"\n  }\n}","index":5,"text":"match response !="}}],"line":74,"description":"","durationMillis":143.0266,"failed":false,"tags":["Regression","Smoke"],"executorName":"pool-1-thread-5","name":"To get all the data from the application in JSON format using negate operator","startTime":1711618123474,"refId":"[2:74]","endTime":1711618123621,"exampleIndex":-1},{"sectionIndex":2,"stepResults":[{"result":{"nanos":147000,"startTime":1711618123624,"endTime":1711618123624,"millis":0.147,"status":"passed"},"step":{"background":true,"line":6,"prefix":"Given","index":0,"text":"url 'https:\/\/reqres.in'"},"stepLog":"14:58:43.624 karate.env system property was: null \n"},{"result":{"nanos":95100,"startTime":1711618123625,"endTime":1711618123625,"millis":0.0951,"status":"passed"},"step":{"line":140,"prefix":"Given","index":0,"text":"path '\/api\/users?page=2'"}},{"result":{"nanos":114800,"startTime":1711618123625,"endTime":1711618123625,"millis":0.1148,"status":"passed"},"step":{"line":141,"prefix":"And","index":1,"text":"header Accept = 'application\/json'"}},{"result":{"nanos":71046900,"startTime":1711618123625,"endTime":1711618123696,"millis":71.0469,"status":"passed"},"step":{"line":142,"prefix":"When","index":2,"text":"method get"},"stepLog":"14:58:43.626 request:\n1 > GET https:\/\/reqres.in\/api\/users%3Fpage=2\n1 > Accept: application\/json\n1 > Host: reqres.in\n1 > Connection: Keep-Alive\n1 > User-Agent: Apache-HttpClient\/4.5.14 (Java\/17.0.2)\n1 > Accept-Encoding: gzip,deflate\n\n\n14:58:43.695 response time in milliseconds: 69\n1 < 200\n1 < Date: Thu, 28 Mar 2024 09:28:44 GMT\n1 < Content-Type: application\/json; charset=utf-8\n1 < Transfer-Encoding: chunked\n1 < Connection: keep-alive\n1 < Report-To: {\"group\":\"heroku-nel\",\"max_age\":3600,\"endpoints\":[{\"url\":\"https:\/\/nel.heroku.com\/reports?ts=1711617885&sid=c4c9725f-1ab0-44d8-820f-430df2718e11&s=0X16%2BcC6XnwxTHrwW2rNuAN%2BTZvqY10fejNkUFdqjdU%3D\"}]}\n1 < Reporting-Endpoints: heroku-nel=https:\/\/nel.heroku.com\/reports?ts=1711617885&sid=c4c9725f-1ab0-44d8-820f-430df2718e11&s=0X16%2BcC6XnwxTHrwW2rNuAN%2BTZvqY10fejNkUFdqjdU%3D\n1 < Nel: {\"report_to\":\"heroku-nel\",\"max_age\":3600,\"success_fraction\":0.005,\"failure_fraction\":0.05,\"response_headers\":[\"Via\"]}\n1 < X-Powered-By: Express\n1 < Access-Control-Allow-Origin: *\n1 < Etag: W\/\"2c1-N6Rqerxquq2kgQhL51EiSg4x0R8\"\n1 < Via: 1.1 vegur\n1 < Cache-Control: max-age=14400\n1 < CF-Cache-Status: HIT\n1 < Age: 239\n1 < Vary: Accept-Encoding\n1 < Server: cloudflare\n1 < CF-RAY: 86b6977e0fc646ae-BOM\n{\"page\":1,\"per_page\":6,\"total\":12,\"total_pages\":2,\"data\":[{\"id\":1,\"name\":\"cerulean\",\"year\":2000,\"color\":\"#98B2D1\",\"pantone_value\":\"15-4020\"},{\"id\":2,\"name\":\"fuchsia rose\",\"year\":2001,\"color\":\"#C74375\",\"pantone_value\":\"17-2031\"},{\"id\":3,\"name\":\"true red\",\"year\":2002,\"color\":\"#BF1932\",\"pantone_value\":\"19-1664\"},{\"id\":4,\"name\":\"aqua sky\",\"year\":2003,\"color\":\"#7BC4C4\",\"pantone_value\":\"14-4811\"},{\"id\":5,\"name\":\"tigerlily\",\"year\":2004,\"color\":\"#E2583E\",\"pantone_value\":\"17-1456\"},{\"id\":6,\"name\":\"blue turquoise\",\"year\":2005,\"color\":\"#53B0AE\",\"pantone_value\":\"15-5217\"}],\"support\":{\"url\":\"https:\/\/reqres.in\/#support-heading\",\"text\":\"To keep ReqRes free, contributions towards server costs are appreciated!\"}}\n\n"},{"result":{"nanos":7100,"startTime":1711618123696,"endTime":1711618123696,"millis":0.0071,"status":"passed"},"step":{"line":143,"prefix":"Then","index":3,"text":"status 200"}},{"result":{"nanos":761100,"startTime":1711618123696,"endTime":1711618123697,"millis":0.7611,"status":"passed"},"step":{"line":144,"prefix":"And","index":4,"text":"print response"},"stepLog":"14:58:43.697 [print] {\n  \"page\": 1,\n  \"per_page\": 6,\n  \"total\": 12,\n  \"total_pages\": 2,\n  \"data\": [\n    {\n      \"id\": 1,\n      \"name\": \"cerulean\",\n      \"year\": 2000,\n      \"color\": \"#98B2D1\",\n      \"pantone_value\": \"15-4020\"\n    },\n    {\n      \"id\": 2,\n      \"name\": \"fuchsia rose\",\n      \"year\": 2001,\n      \"color\": \"#C74375\",\n      \"pantone_value\": \"17-2031\"\n    },\n    {\n      \"id\": 3,\n      \"name\": \"true red\",\n      \"year\": 2002,\n      \"color\": \"#BF1932\",\n      \"pantone_value\": \"19-1664\"\n    },\n    {\n      \"id\": 4,\n      \"name\": \"aqua sky\",\n      \"year\": 2003,\n      \"color\": \"#7BC4C4\",\n      \"pantone_value\": \"14-4811\"\n    },\n    {\n      \"id\": 5,\n      \"name\": \"tigerlily\",\n      \"year\": 2004,\n      \"color\": \"#E2583E\",\n      \"pantone_value\": \"17-1456\"\n    },\n    {\n      \"id\": 6,\n      \"name\": \"blue turquoise\",\n      \"year\": 2005,\n      \"color\": \"#53B0AE\",\n      \"pantone_value\": \"15-5217\"\n    }\n  ],\n  \"support\": {\n    \"url\": \"https:\/\/reqres.in\/#support-heading\",\n    \"text\": \"To keep ReqRes free, contributions towards server costs are appreciated!\"\n  }\n}\n \n"},{"result":{"nanos":1936700,"startTime":1711618123697,"endTime":1711618123699,"millis":1.9367,"status":"passed"},"step":{"line":145,"prefix":"And","index":5,"text":"match response contains deep {\"data\":[ {\"name\": \"blue turquoise\"}]}"}},{"result":{"nanos":1648200,"errorMessage":"match failed: CONTAINS_DEEP\n  $ | actual does not contain expected | actual does not contain key - 'text' (MAP:MAP)\n  {\"page\":1,\"per_page\":6,\"total\":12,\"total_pages\":2,\"data\":[{\"id\":1,\"name\":\"cerulean\",\"year\":2000,\"color\":\"#98B2D1\",\"pantone_value\":\"15-4020\"},{\"id\":2,\"name\":\"fuchsia rose\",\"year\":2001,\"color\":\"#C74375\",\"pantone_value\":\"17-2031\"},{\"id\":3,\"name\":\"true red\",\"year\":2002,\"color\":\"#BF1932\",\"pantone_value\":\"19-1664\"},{\"id\":4,\"name\":\"aqua sky\",\"year\":2003,\"color\":\"#7BC4C4\",\"pantone_value\":\"14-4811\"},{\"id\":5,\"name\":\"tigerlily\",\"year\":2004,\"color\":\"#E2583E\",\"pantone_value\":\"17-1456\"},{\"id\":6,\"name\":\"blue turquoise\",\"year\":2005,\"color\":\"#53B0AE\",\"pantone_value\":\"15-5217\"}],\"support\":{\"url\":\"https:\/\/reqres.in\/#support-heading\",\"text\":\"To keep ReqRes free, contributions towards server costs are appreciated!\"}}\n  {\"text\":\"To keep ReqRes free, contributions towards server costs are appreciated!\"}\n\n\nclasspath:com\/api\/automation\/getrequest\/responseMatcher.feature:146","startTime":1711618123699,"endTime":1711618123701,"millis":1.6482,"status":"failed"},"step":{"line":146,"prefix":"And","index":6,"text":"match response contains deep {\"text\": \"To keep ReqRes free, contributions towards server costs are appreciated!\" }"},"stepLog":"14:58:43.701 classpath:com\/api\/automation\/getrequest\/responseMatcher.feature:146\nAnd match response contains deep {\"text\": \"To keep ReqRes free, contributions towards server costs are appreciated!\" }\nmatch failed: CONTAINS_DEEP\n  $ | actual does not contain expected | actual does not contain key - 'text' (MAP:MAP)\n  {\"page\":1,\"per_page\":6,\"total\":12,\"total_pages\":2,\"data\":[{\"id\":1,\"name\":\"cerulean\",\"year\":2000,\"color\":\"#98B2D1\",\"pantone_value\":\"15-4020\"},{\"id\":2,\"name\":\"fuchsia rose\",\"year\":2001,\"color\":\"#C74375\",\"pantone_value\":\"17-2031\"},{\"id\":3,\"name\":\"true red\",\"year\":2002,\"color\":\"#BF1932\",\"pantone_value\":\"19-1664\"},{\"id\":4,\"name\":\"aqua sky\",\"year\":2003,\"color\":\"#7BC4C4\",\"pantone_value\":\"14-4811\"},{\"id\":5,\"name\":\"tigerlily\",\"year\":2004,\"color\":\"#E2583E\",\"pantone_value\":\"17-1456\"},{\"id\":6,\"name\":\"blue turquoise\",\"year\":2005,\"color\":\"#53B0AE\",\"pantone_value\":\"15-5217\"}],\"support\":{\"url\":\"https:\/\/reqres.in\/#support-heading\",\"text\":\"To keep ReqRes free, contributions towards server costs are appreciated!\"}}\n  {\"text\":\"To keep ReqRes free, contributions towards server costs are appreciated!\"}\n\n\nclasspath:com\/api\/automation\/getrequest\/responseMatcher.feature:146\n"},{"result":{"nanos":0,"startTime":1711618123701,"endTime":1711618123701,"millis":0.0,"status":"skipped"},"step":{"line":147,"prefix":"And","index":7,"text":"match header Content-Type == 'application\/json'"}},{"result":{"nanos":0,"startTime":1711618123701,"endTime":1711618123701,"millis":0.0,"status":"skipped"},"step":{"line":148,"prefix":"And","index":8,"text":"match header Connection == 'keep-alive'"}}],"line":139,"description":"","durationMillis":75.7569,"failed":true,"error":"match failed: CONTAINS_DEEP\n  $ | actual does not contain expected | actual does not contain key - 'text' (MAP:MAP)\n  {\"page\":1,\"per_page\":6,\"total\":12,\"total_pages\":2,\"data\":[{\"id\":1,\"name\":\"cerulean\",\"year\":2000,\"color\":\"#98B2D1\",\"pantone_value\":\"15-4020\"},{\"id\":2,\"name\":\"fuchsia rose\",\"year\":2001,\"color\":\"#C74375\",\"pantone_value\":\"17-2031\"},{\"id\":3,\"name\":\"true red\",\"year\":2002,\"color\":\"#BF1932\",\"pantone_value\":\"19-1664\"},{\"id\":4,\"name\":\"aqua sky\",\"year\":2003,\"color\":\"#7BC4C4\",\"pantone_value\":\"14-4811\"},{\"id\":5,\"name\":\"tigerlily\",\"year\":2004,\"color\":\"#E2583E\",\"pantone_value\":\"17-1456\"},{\"id\":6,\"name\":\"blue turquoise\",\"year\":2005,\"color\":\"#53B0AE\",\"pantone_value\":\"15-5217\"}],\"support\":{\"url\":\"https:\/\/reqres.in\/#support-heading\",\"text\":\"To keep ReqRes free, contributions towards server costs are appreciated!\"}}\n  {\"text\":\"To keep ReqRes free, contributions towards server costs are appreciated!\"}\n\n\nclasspath:com\/api\/automation\/getrequest\/responseMatcher.feature:146","tags":["Regression","Smoke"],"executorName":"pool-1-thread-4","name":"To get all the data from the application in JSON format for specific property","startTime":1711618123623,"refId":"[3:139]","endTime":1711618123701,"exampleIndex":-1}],"callDepth":0,"name":"To validate the Get endpoint","description":"To validate the Get endpoint response","resultDate":"2024-03-28 02:58:45 pm","durationMillis":361.5619,"passedCount":2}