{"failedCount":2,"prefixedPath":"classpath:com\/api\/automation\/getrequest\/ValidationUsingFile.feature","packageQualifiedName":"com.api.automation.getrequest.ValidationUsingFile","loopIndex":-1,"relativePath":"com\/api\/automation\/getrequest\/ValidationUsingFile.feature","scenarioResults":[{"sectionIndex":0,"stepResults":[{"result":{"nanos":67300,"startTime":1711620336548,"endTime":1711620336548,"millis":0.0673,"status":"passed"},"step":{"background":true,"line":5,"prefix":"Given","index":0,"text":"url 'https:\/\/reqres.in'"},"stepLog":"15:35:36.547 karate.env system property was: null \n"},{"result":{"nanos":15500,"startTime":1711620336548,"endTime":1711620336548,"millis":0.0155,"status":"passed"},"step":{"line":9,"prefix":"Given","index":0,"text":"path '\/api\/users?page=2'"}},{"result":{"nanos":39300,"startTime":1711620336548,"endTime":1711620336548,"millis":0.0393,"status":"passed"},"step":{"line":10,"prefix":"And","index":1,"text":"header Accept = 'application\/json'"}},{"result":{"nanos":121758400,"startTime":1711620336549,"endTime":1711620336671,"millis":121.7584,"status":"passed"},"step":{"line":11,"prefix":"When","index":2,"text":"method get"},"stepLog":"15:35:36.549 request:\n1 > GET https:\/\/reqres.in\/api\/users%3Fpage=2\n1 > Accept: application\/json\n1 > Host: reqres.in\n1 > Connection: Keep-Alive\n1 > User-Agent: Apache-HttpClient\/4.5.14 (Java\/17.0.2)\n1 > Accept-Encoding: gzip,deflate\n\n\n15:35:36.669 response time in milliseconds: 119\n1 < 200\n1 < Date: Thu, 28 Mar 2024 10:05:37 GMT\n1 < Content-Type: application\/json; charset=utf-8\n1 < Transfer-Encoding: chunked\n1 < Connection: keep-alive\n1 < Report-To: {\"group\":\"heroku-nel\",\"max_age\":3600,\"endpoints\":[{\"url\":\"https:\/\/nel.heroku.com\/reports?ts=1709546419&sid=c4c9725f-1ab0-44d8-820f-430df2718e11&s=D82YLegJPXXT0B%2FaJN7iM%2BsnLEqrcTuRt2kPxqXVYe4%3D\"}]}\n1 < Reporting-Endpoints: heroku-nel=https:\/\/nel.heroku.com\/reports?ts=1709546419&sid=c4c9725f-1ab0-44d8-820f-430df2718e11&s=D82YLegJPXXT0B%2FaJN7iM%2BsnLEqrcTuRt2kPxqXVYe4%3D\n1 < Nel: {\"report_to\":\"heroku-nel\",\"max_age\":3600,\"success_fraction\":0.005,\"failure_fraction\":0.05,\"response_headers\":[\"Via\"]}\n1 < X-Powered-By: Express\n1 < Access-Control-Allow-Origin: *\n1 < Etag: W\/\"2c1-N6Rqerxquq2kgQhL51EiSg4x0R8\"\n1 < Via: 1.1 vegur\n1 < Cache-Control: max-age=14400\n1 < CF-Cache-Status: HIT\n1 < Age: 3577\n1 < Vary: Accept-Encoding\n1 < Server: cloudflare\n1 < CF-RAY: 86b6cd852d224148-BOM\n{\"page\":1,\"per_page\":6,\"total\":12,\"total_pages\":2,\"data\":[{\"id\":1,\"name\":\"cerulean\",\"year\":2000,\"color\":\"#98B2D1\",\"pantone_value\":\"15-4020\"},{\"id\":2,\"name\":\"fuchsia rose\",\"year\":2001,\"color\":\"#C74375\",\"pantone_value\":\"17-2031\"},{\"id\":3,\"name\":\"true red\",\"year\":2002,\"color\":\"#BF1932\",\"pantone_value\":\"19-1664\"},{\"id\":4,\"name\":\"aqua sky\",\"year\":2003,\"color\":\"#7BC4C4\",\"pantone_value\":\"14-4811\"},{\"id\":5,\"name\":\"tigerlily\",\"year\":2004,\"color\":\"#E2583E\",\"pantone_value\":\"17-1456\"},{\"id\":6,\"name\":\"blue turquoise\",\"year\":2005,\"color\":\"#53B0AE\",\"pantone_value\":\"15-5217\"}],\"support\":{\"url\":\"https:\/\/reqres.in\/#support-heading\",\"text\":\"To keep ReqRes free, contributions towards server costs are appreciated!\"}}\n\n"},{"result":{"nanos":7600,"startTime":1711620336670,"endTime":1711620336670,"millis":0.0076,"status":"passed"},"step":{"line":12,"prefix":"Then","index":3,"text":"status 200"}},{"result":{"nanos":2400600,"startTime":1711620336670,"endTime":1711620336672,"millis":2.4006,"status":"passed"},"step":{"comments":["#create a veriable to store the data from external json file"],"line":14,"prefix":"*","index":4,"text":"def actualResponse = read(\"..\/JsonResponse.json\")"}},{"result":{"nanos":17270200,"errorMessage":"js failed:\n>>>>\n01: karate.log('[print]','File-->\" , actualResponse)\n<<<<\norg.graalvm.polyglot.PolyglotException: SyntaxError: Unnamed:1:48 Missing close quote\r\nkarate.log('[print]','File-->\" , actualResponse)\r\n                                                ^\n\n- org.graalvm.polyglot.Context.eval(Context.java:425)\n- com.intuit.karate.graal.JsEngine.evalForValue(JsEngine.java:169)\n- com.intuit.karate.graal.JsEngine.eval(JsEngine.java:165)\n- com.intuit.karate.core.ScenarioEngine.evalJs(ScenarioEngine.java:1286)\n- com.intuit.karate.core.ScenarioEngine.print(ScenarioEngine.java:250)\n- com.intuit.karate.ScenarioActions.print(ScenarioActions.java:297)\n- java.base\/jdk.internal.reflect.NativeMethodAccessorImpl.invoke0(Native Method)\n\nclasspath:com\/api\/automation\/getrequest\/ValidationUsingFile.feature:15","startTime":1711620336673,"endTime":1711620336690,"millis":17.2702,"status":"failed"},"step":{"line":15,"prefix":"And","index":5,"text":"print 'File-->\" , actualResponse"},"stepLog":"15:35:36.691 classpath:com\/api\/automation\/getrequest\/ValidationUsingFile.feature:15\nAnd print 'File-->\" , actualResponse\njs failed:\n>>>>\n01: karate.log('[print]','File-->\" , actualResponse)\n<<<<\norg.graalvm.polyglot.PolyglotException: SyntaxError: Unnamed:1:48 Missing close quote\r\nkarate.log('[print]','File-->\" , actualResponse)\r\n                                                ^\n\n- org.graalvm.polyglot.Context.eval(Context.java:425)\n- com.intuit.karate.graal.JsEngine.evalForValue(JsEngine.java:169)\n- com.intuit.karate.graal.JsEngine.eval(JsEngine.java:165)\n- com.intuit.karate.core.ScenarioEngine.evalJs(ScenarioEngine.java:1286)\n- com.intuit.karate.core.ScenarioEngine.print(ScenarioEngine.java:250)\n- com.intuit.karate.ScenarioActions.print(ScenarioActions.java:297)\n- java.base\/jdk.internal.reflect.NativeMethodAccessorImpl.invoke0(Native Method)\n\nclasspath:com\/api\/automation\/getrequest\/ValidationUsingFile.feature:15\n"},{"result":{"nanos":0,"startTime":1711620336691,"endTime":1711620336691,"millis":0.0,"status":"skipped"},"step":{"line":16,"prefix":"And","index":6,"text":"match response == actualResponse"}}],"line":8,"description":"","durationMillis":141.5589,"failed":true,"error":"js failed:\n>>>>\n01: karate.log('[print]','File-->\" , actualResponse)\n<<<<\norg.graalvm.polyglot.PolyglotException: SyntaxError: Unnamed:1:48 Missing close quote\r\nkarate.log('[print]','File-->\" , actualResponse)\r\n                                                ^\n\n- org.graalvm.polyglot.Context.eval(Context.java:425)\n- com.intuit.karate.graal.JsEngine.evalForValue(JsEngine.java:169)\n- com.intuit.karate.graal.JsEngine.eval(JsEngine.java:165)\n- com.intuit.karate.core.ScenarioEngine.evalJs(ScenarioEngine.java:1286)\n- com.intuit.karate.core.ScenarioEngine.print(ScenarioEngine.java:250)\n- com.intuit.karate.ScenarioActions.print(ScenarioActions.java:297)\n- java.base\/jdk.internal.reflect.NativeMethodAccessorImpl.invoke0(Native Method)\n\nclasspath:com\/api\/automation\/getrequest\/ValidationUsingFile.feature:15","executorName":"main","name":"To get all the data from the application in JSON format and validate from file","startTime":1711620336547,"refId":"[1:8]","endTime":1711620336691,"exampleIndex":-1},{"sectionIndex":1,"stepResults":[{"result":{"nanos":236600,"startTime":1711620336701,"endTime":1711620336701,"millis":0.2366,"status":"passed"},"step":{"background":true,"line":5,"prefix":"Given","index":0,"text":"url 'https:\/\/reqres.in'"},"stepLog":"15:35:36.701 karate.env system property was: null \n"},{"result":{"nanos":121100,"startTime":1711620336701,"endTime":1711620336701,"millis":0.1211,"status":"passed"},"step":{"line":20,"prefix":"Given","index":0,"text":"path '\/api\/users?page=2'"}},{"result":{"nanos":120800,"startTime":1711620336702,"endTime":1711620336702,"millis":0.1208,"status":"passed"},"step":{"line":21,"prefix":"And","index":1,"text":"header Accept = 'application\/xml'"}},{"result":{"nanos":67005300,"startTime":1711620336702,"endTime":1711620336769,"millis":67.0053,"status":"passed"},"step":{"line":22,"prefix":"When","index":2,"text":"method get"},"stepLog":"15:35:36.703 request:\n1 > GET https:\/\/reqres.in\/api\/users%3Fpage=2\n1 > Accept: application\/xml\n1 > Host: reqres.in\n1 > Connection: Keep-Alive\n1 > User-Agent: Apache-HttpClient\/4.5.14 (Java\/17.0.2)\n1 > Accept-Encoding: gzip,deflate\n\n\n15:35:36.769 response time in milliseconds: 65\n1 < 200\n1 < Date: Thu, 28 Mar 2024 10:05:37 GMT\n1 < Content-Type: application\/json; charset=utf-8\n1 < Transfer-Encoding: chunked\n1 < Connection: keep-alive\n1 < Report-To: {\"group\":\"heroku-nel\",\"max_age\":3600,\"endpoints\":[{\"url\":\"https:\/\/nel.heroku.com\/reports?ts=1709546419&sid=c4c9725f-1ab0-44d8-820f-430df2718e11&s=D82YLegJPXXT0B%2FaJN7iM%2BsnLEqrcTuRt2kPxqXVYe4%3D\"}]}\n1 < Reporting-Endpoints: heroku-nel=https:\/\/nel.heroku.com\/reports?ts=1709546419&sid=c4c9725f-1ab0-44d8-820f-430df2718e11&s=D82YLegJPXXT0B%2FaJN7iM%2BsnLEqrcTuRt2kPxqXVYe4%3D\n1 < Nel: {\"report_to\":\"heroku-nel\",\"max_age\":3600,\"success_fraction\":0.005,\"failure_fraction\":0.05,\"response_headers\":[\"Via\"]}\n1 < X-Powered-By: Express\n1 < Access-Control-Allow-Origin: *\n1 < Etag: W\/\"2c1-N6Rqerxquq2kgQhL51EiSg4x0R8\"\n1 < Via: 1.1 vegur\n1 < Cache-Control: max-age=14400\n1 < CF-Cache-Status: HIT\n1 < Age: 3577\n1 < Vary: Accept-Encoding\n1 < Server: cloudflare\n1 < CF-RAY: 86b6cd85cf0e4075-BOM\n{\"page\":1,\"per_page\":6,\"total\":12,\"total_pages\":2,\"data\":[{\"id\":1,\"name\":\"cerulean\",\"year\":2000,\"color\":\"#98B2D1\",\"pantone_value\":\"15-4020\"},{\"id\":2,\"name\":\"fuchsia rose\",\"year\":2001,\"color\":\"#C74375\",\"pantone_value\":\"17-2031\"},{\"id\":3,\"name\":\"true red\",\"year\":2002,\"color\":\"#BF1932\",\"pantone_value\":\"19-1664\"},{\"id\":4,\"name\":\"aqua sky\",\"year\":2003,\"color\":\"#7BC4C4\",\"pantone_value\":\"14-4811\"},{\"id\":5,\"name\":\"tigerlily\",\"year\":2004,\"color\":\"#E2583E\",\"pantone_value\":\"17-1456\"},{\"id\":6,\"name\":\"blue turquoise\",\"year\":2005,\"color\":\"#53B0AE\",\"pantone_value\":\"15-5217\"}],\"support\":{\"url\":\"https:\/\/reqres.in\/#support-heading\",\"text\":\"To keep ReqRes free, contributions towards server costs are appreciated!\"}}\n\n"},{"result":{"nanos":9400,"startTime":1711620336769,"endTime":1711620336769,"millis":0.0094,"status":"passed"},"step":{"line":23,"prefix":"Then","index":3,"text":"status 200"}},{"result":{"nanos":1966800,"errorMessage":"js failed:\n>>>>\n01: read(\"..\/XMLResponse.json\")\n<<<<\norg.graalvm.polyglot.PolyglotException: java.io.FileNotFoundException: C:\\Users\\hemlata.sahu\\eclipse-workspace\\karateframework\\target\\test-classes\\com\\api\\automation\\getrequest\\..\\XMLResponse.json (The system cannot find the file specified)\n- com.intuit.karate.resource.FileResource.getStream(FileResource.java:98)\n- com.intuit.karate.core.ScenarioFileReader.readFileAsStream(ScenarioFileReader.java:99)\n- com.intuit.karate.core.ScenarioFileReader.readFileAsString(ScenarioFileReader.java:95)\n- com.intuit.karate.core.ScenarioFileReader.readFile(ScenarioFileReader.java:54)\n- com.intuit.karate.core.ScenarioEngine.lambda$new$0(ScenarioEngine.java:124)\n- <js>.:program(Unnamed:1)\n\nclasspath:com\/api\/automation\/getrequest\/ValidationUsingFile.feature:25","startTime":1711620336769,"endTime":1711620336771,"millis":1.9668,"status":"failed"},"step":{"comments":["#create a veriable to store the data from external xml file"],"line":25,"prefix":"*","index":4,"text":"def actualResponse = read(\"..\/XMLResponse.json\")"},"stepLog":"15:35:36.771 classpath:com\/api\/automation\/getrequest\/ValidationUsingFile.feature:25\n* def actualResponse = read(\"..\/XMLResponse.json\")\njs failed:\n>>>>\n01: read(\"..\/XMLResponse.json\")\n<<<<\norg.graalvm.polyglot.PolyglotException: java.io.FileNotFoundException: C:\\Users\\hemlata.sahu\\eclipse-workspace\\karateframework\\target\\test-classes\\com\\api\\automation\\getrequest\\..\\XMLResponse.json (The system cannot find the file specified)\n- com.intuit.karate.resource.FileResource.getStream(FileResource.java:98)\n- com.intuit.karate.core.ScenarioFileReader.readFileAsStream(ScenarioFileReader.java:99)\n- com.intuit.karate.core.ScenarioFileReader.readFileAsString(ScenarioFileReader.java:95)\n- com.intuit.karate.core.ScenarioFileReader.readFile(ScenarioFileReader.java:54)\n- com.intuit.karate.core.ScenarioEngine.lambda$new$0(ScenarioEngine.java:124)\n- <js>.:program(Unnamed:1)\n\nclasspath:com\/api\/automation\/getrequest\/ValidationUsingFile.feature:25\n"},{"result":{"nanos":0,"startTime":1711620336771,"endTime":1711620336771,"millis":0.0,"status":"skipped"},"step":{"line":26,"prefix":"And","index":5,"text":"print 'File-->\" , actualResponse"}},{"result":{"nanos":0,"startTime":1711620336771,"endTime":1711620336771,"millis":0.0,"status":"skipped"},"step":{"line":27,"prefix":"And","index":6,"text":"match response == actualResponse"}}],"line":19,"description":"","durationMillis":69.46,"failed":true,"error":"js failed:\n>>>>\n01: read(\"..\/XMLResponse.json\")\n<<<<\norg.graalvm.polyglot.PolyglotException: java.io.FileNotFoundException: C:\\Users\\hemlata.sahu\\eclipse-workspace\\karateframework\\target\\test-classes\\com\\api\\automation\\getrequest\\..\\XMLResponse.json (The system cannot find the file specified)\n- com.intuit.karate.resource.FileResource.getStream(FileResource.java:98)\n- com.intuit.karate.core.ScenarioFileReader.readFileAsStream(ScenarioFileReader.java:99)\n- com.intuit.karate.core.ScenarioFileReader.readFileAsString(ScenarioFileReader.java:95)\n- com.intuit.karate.core.ScenarioFileReader.readFile(ScenarioFileReader.java:54)\n- com.intuit.karate.core.ScenarioEngine.lambda$new$0(ScenarioEngine.java:124)\n- <js>.:program(Unnamed:1)\n\nclasspath:com\/api\/automation\/getrequest\/ValidationUsingFile.feature:25","executorName":"main","name":"To get all the data from the application in JSON format and validate from file","startTime":1711620336699,"refId":"[2:19]","endTime":1711620336771,"exampleIndex":-1}],"callDepth":0,"name":"To validate the Get endpoint","description":"To validate the Get endpoint response","resultDate":"2024-03-28 03:35:36 pm","durationMillis":211.0189,"passedCount":0}