{"failedCount":0,"prefixedPath":"classpath:com\/api\/automation\/getrequest\/getRequest.feature","packageQualifiedName":"com.api.automation.getrequest.getRequest","loopIndex":-1,"relativePath":"com\/api\/automation\/getrequest\/getRequest.feature","scenarioResults":[{"sectionIndex":0,"stepResults":[{"result":{"nanos":52000,"startTime":1711620335309,"endTime":1711620335309,"millis":0.052,"status":"passed"},"step":{"background":true,"line":4,"prefix":"Given","index":0,"text":"url 'https:\/\/reqres.in'"},"stepLog":"15:35:35.308 karate.env system property was: null \n"},{"result":{"nanos":710300,"startTime":1711620335309,"endTime":1711620335310,"millis":0.7103,"status":"passed"},"step":{"background":true,"line":5,"prefix":"And","index":1,"text":"print '========This is the Background keyword ====================='"},"stepLog":"15:35:35.309 [print] ========This is the Background keyword ===================== \n"},{"result":{"nanos":393100,"startTime":1711620335310,"endTime":1711620335310,"millis":0.3931,"status":"passed"},"step":{"line":25,"prefix":"Given","index":0,"text":"path '\/api\/users?page=2'"}},{"result":{"nanos":70957000,"startTime":1711620335310,"endTime":1711620335381,"millis":70.957,"status":"passed"},"step":{"line":26,"prefix":"When","index":1,"text":"method get #send the get request"},"stepLog":"15:35:35.311 request:\n1 > GET https:\/\/reqres.in\/api\/users%3Fpage=2\n1 > Host: reqres.in\n1 > Connection: Keep-Alive\n1 > User-Agent: Apache-HttpClient\/4.5.14 (Java\/17.0.2)\n1 > Accept-Encoding: gzip,deflate\n\n\n15:35:35.380 response time in milliseconds: 67\n1 < 200\n1 < Date: Thu, 28 Mar 2024 10:05:36 GMT\n1 < Content-Type: application\/json; charset=utf-8\n1 < Transfer-Encoding: chunked\n1 < Connection: keep-alive\n1 < Report-To: {\"group\":\"heroku-nel\",\"max_age\":3600,\"endpoints\":[{\"url\":\"https:\/\/nel.heroku.com\/reports?ts=1709546419&sid=c4c9725f-1ab0-44d8-820f-430df2718e11&s=D82YLegJPXXT0B%2FaJN7iM%2BsnLEqrcTuRt2kPxqXVYe4%3D\"}]}\n1 < Reporting-Endpoints: heroku-nel=https:\/\/nel.heroku.com\/reports?ts=1709546419&sid=c4c9725f-1ab0-44d8-820f-430df2718e11&s=D82YLegJPXXT0B%2FaJN7iM%2BsnLEqrcTuRt2kPxqXVYe4%3D\n1 < Nel: {\"report_to\":\"heroku-nel\",\"max_age\":3600,\"success_fraction\":0.005,\"failure_fraction\":0.05,\"response_headers\":[\"Via\"]}\n1 < X-Powered-By: Express\n1 < Access-Control-Allow-Origin: *\n1 < Etag: W\/\"2c1-N6Rqerxquq2kgQhL51EiSg4x0R8\"\n1 < Via: 1.1 vegur\n1 < Cache-Control: max-age=14400\n1 < CF-Cache-Status: HIT\n1 < Age: 3576\n1 < Vary: Accept-Encoding\n1 < Server: cloudflare\n1 < CF-RAY: 86b6cd7d1e3f4015-BOM\n{\"page\":1,\"per_page\":6,\"total\":12,\"total_pages\":2,\"data\":[{\"id\":1,\"name\":\"cerulean\",\"year\":2000,\"color\":\"#98B2D1\",\"pantone_value\":\"15-4020\"},{\"id\":2,\"name\":\"fuchsia rose\",\"year\":2001,\"color\":\"#C74375\",\"pantone_value\":\"17-2031\"},{\"id\":3,\"name\":\"true red\",\"year\":2002,\"color\":\"#BF1932\",\"pantone_value\":\"19-1664\"},{\"id\":4,\"name\":\"aqua sky\",\"year\":2003,\"color\":\"#7BC4C4\",\"pantone_value\":\"14-4811\"},{\"id\":5,\"name\":\"tigerlily\",\"year\":2004,\"color\":\"#E2583E\",\"pantone_value\":\"17-1456\"},{\"id\":6,\"name\":\"blue turquoise\",\"year\":2005,\"color\":\"#53B0AE\",\"pantone_value\":\"15-5217\"}],\"support\":{\"url\":\"https:\/\/reqres.in\/#support-heading\",\"text\":\"To keep ReqRes free, contributions towards server costs are appreciated!\"}}\n\n"},{"result":{"nanos":7600,"startTime":1711620335380,"endTime":1711620335380,"millis":0.0076,"status":"passed"},"step":{"line":27,"prefix":"Then","index":2,"text":"status 200 #the status code response should be 200"}}],"line":24,"description":"","durationMillis":72.12,"failed":false,"tags":["Smoke"],"executorName":"main","name":"To get all the data from the application in JSON format","startTime":1711620335308,"refId":"[1:24]","endTime":1711620335380,"exampleIndex":-1},{"sectionIndex":1,"stepResults":[{"result":{"nanos":47400,"startTime":1711620335385,"endTime":1711620335385,"millis":0.0474,"status":"passed"},"step":{"background":true,"line":4,"prefix":"Given","index":0,"text":"url 'https:\/\/reqres.in'"},"stepLog":"15:35:35.384 karate.env system property was: null \n"},{"result":{"nanos":228800,"startTime":1711620335385,"endTime":1711620335385,"millis":0.2288,"status":"passed"},"step":{"background":true,"line":5,"prefix":"And","index":1,"text":"print '========This is the Background keyword ====================='"},"stepLog":"15:35:35.385 [print] ========This is the Background keyword ===================== \n"},{"result":{"nanos":18800,"startTime":1711620335385,"endTime":1711620335385,"millis":0.0188,"status":"passed"},"step":{"line":33,"prefix":"Given","index":0,"text":"path '\/api\/users?page=2'"}},{"result":{"nanos":80900,"startTime":1711620335386,"endTime":1711620335386,"millis":0.0809,"status":"passed"},"step":{"line":34,"prefix":"And","index":1,"text":"header Accept = 'application\/json'"}},{"result":{"nanos":202849200,"startTime":1711620335386,"endTime":1711620335589,"millis":202.8492,"status":"passed"},"step":{"line":35,"prefix":"When","index":2,"text":"method get #send the get request"},"stepLog":"15:35:35.386 request:\n1 > GET https:\/\/reqres.in\/api\/users%3Fpage=2\n1 > Accept: application\/json\n1 > Host: reqres.in\n1 > Connection: Keep-Alive\n1 > User-Agent: Apache-HttpClient\/4.5.14 (Java\/17.0.2)\n1 > Accept-Encoding: gzip,deflate\n\n\n15:35:35.588 response time in milliseconds: 200\n1 < 200\n1 < Date: Thu, 28 Mar 2024 10:05:36 GMT\n1 < Content-Type: application\/json; charset=utf-8\n1 < Transfer-Encoding: chunked\n1 < Connection: keep-alive\n1 < Report-To: {\"group\":\"heroku-nel\",\"max_age\":3600,\"endpoints\":[{\"url\":\"https:\/\/nel.heroku.com\/reports?ts=1711003883&sid=c4c9725f-1ab0-44d8-820f-430df2718e11&s=h2mgxR8gt8mxFqapBpqiWcX%2FVAsrY46G33P1iRl2wzs%3D\"}]}\n1 < Reporting-Endpoints: heroku-nel=https:\/\/nel.heroku.com\/reports?ts=1711003883&sid=c4c9725f-1ab0-44d8-820f-430df2718e11&s=h2mgxR8gt8mxFqapBpqiWcX%2FVAsrY46G33P1iRl2wzs%3D\n1 < Nel: {\"report_to\":\"heroku-nel\",\"max_age\":3600,\"success_fraction\":0.005,\"failure_fraction\":0.05,\"response_headers\":[\"Via\"]}\n1 < X-Powered-By: Express\n1 < Access-Control-Allow-Origin: *\n1 < Etag: W\/\"2c1-N6Rqerxquq2kgQhL51EiSg4x0R8\"\n1 < Via: 1.1 vegur\n1 < Cache-Control: max-age=14400\n1 < CF-Cache-Status: HIT\n1 < Age: 426\n1 < Vary: Accept-Encoding\n1 < Server: cloudflare\n1 < CF-RAY: 86b6cd7dfc6d89a3-DEL\n{\"page\":1,\"per_page\":6,\"total\":12,\"total_pages\":2,\"data\":[{\"id\":1,\"name\":\"cerulean\",\"year\":2000,\"color\":\"#98B2D1\",\"pantone_value\":\"15-4020\"},{\"id\":2,\"name\":\"fuchsia rose\",\"year\":2001,\"color\":\"#C74375\",\"pantone_value\":\"17-2031\"},{\"id\":3,\"name\":\"true red\",\"year\":2002,\"color\":\"#BF1932\",\"pantone_value\":\"19-1664\"},{\"id\":4,\"name\":\"aqua sky\",\"year\":2003,\"color\":\"#7BC4C4\",\"pantone_value\":\"14-4811\"},{\"id\":5,\"name\":\"tigerlily\",\"year\":2004,\"color\":\"#E2583E\",\"pantone_value\":\"17-1456\"},{\"id\":6,\"name\":\"blue turquoise\",\"year\":2005,\"color\":\"#53B0AE\",\"pantone_value\":\"15-5217\"}],\"support\":{\"url\":\"https:\/\/reqres.in\/#support-heading\",\"text\":\"To keep ReqRes free, contributions towards server costs are appreciated!\"}}\n\n"},{"result":{"nanos":16700,"startTime":1711620335589,"endTime":1711620335589,"millis":0.0167,"status":"passed"},"step":{"line":36,"prefix":"Then","index":3,"text":"status 200 #the status code response should be 200"}}],"line":32,"description":"","durationMillis":203.2418,"failed":false,"tags":["Regression","Smoke"],"executorName":"main","name":"To get all the data from the application in JSON format using path variable","startTime":1711620335384,"refId":"[2:32]","endTime":1711620335589,"exampleIndex":-1},{"sectionIndex":2,"stepResults":[{"result":{"nanos":92400,"startTime":1711620335597,"endTime":1711620335597,"millis":0.0924,"status":"passed"},"step":{"background":true,"line":4,"prefix":"Given","index":0,"text":"url 'https:\/\/reqres.in'"},"stepLog":"15:35:35.596 karate.env system property was: null \n"},{"result":{"nanos":475400,"startTime":1711620335597,"endTime":1711620335597,"millis":0.4754,"status":"passed"},"step":{"background":true,"line":5,"prefix":"And","index":1,"text":"print '========This is the Background keyword ====================='"},"stepLog":"15:35:35.597 [print] ========This is the Background keyword ===================== \n"},{"result":{"nanos":51000,"startTime":1711620335597,"endTime":1711620335597,"millis":0.051,"status":"passed"},"step":{"comments":["#Given url 'https:\/\/reqres.in'"],"line":42,"prefix":"Given","index":0,"text":"path '\/api\/users?page=2'"}},{"result":{"nanos":438000,"startTime":1711620335598,"endTime":1711620335598,"millis":0.438,"status":"passed"},"step":{"line":43,"prefix":"And","index":1,"text":"header Accept = 'application\/xml*'"}},{"result":{"nanos":193315800,"startTime":1711620335598,"endTime":1711620335791,"millis":193.3158,"status":"passed"},"step":{"line":44,"prefix":"When","index":2,"text":"method get #send the get request"},"stepLog":"15:35:35.599 request:\n1 > GET https:\/\/reqres.in\/api\/users%3Fpage=2\n1 > Accept: application\/xml*\n1 > Host: reqres.in\n1 > Connection: Keep-Alive\n1 > User-Agent: Apache-HttpClient\/4.5.14 (Java\/17.0.2)\n1 > Accept-Encoding: gzip,deflate\n\n\n15:35:35.790 response time in milliseconds: 189\n1 < 200\n1 < Date: Thu, 28 Mar 2024 10:05:36 GMT\n1 < Content-Type: application\/json; charset=utf-8\n1 < Transfer-Encoding: chunked\n1 < Connection: keep-alive\n1 < Report-To: {\"group\":\"heroku-nel\",\"max_age\":3600,\"endpoints\":[{\"url\":\"https:\/\/nel.heroku.com\/reports?ts=1711003883&sid=c4c9725f-1ab0-44d8-820f-430df2718e11&s=h2mgxR8gt8mxFqapBpqiWcX%2FVAsrY46G33P1iRl2wzs%3D\"}]}\n1 < Reporting-Endpoints: heroku-nel=https:\/\/nel.heroku.com\/reports?ts=1711003883&sid=c4c9725f-1ab0-44d8-820f-430df2718e11&s=h2mgxR8gt8mxFqapBpqiWcX%2FVAsrY46G33P1iRl2wzs%3D\n1 < Nel: {\"report_to\":\"heroku-nel\",\"max_age\":3600,\"success_fraction\":0.005,\"failure_fraction\":0.05,\"response_headers\":[\"Via\"]}\n1 < X-Powered-By: Express\n1 < Access-Control-Allow-Origin: *\n1 < Etag: W\/\"2c1-N6Rqerxquq2kgQhL51EiSg4x0R8\"\n1 < Via: 1.1 vegur\n1 < Cache-Control: max-age=14400\n1 < CF-Cache-Status: HIT\n1 < Age: 426\n1 < Vary: Accept-Encoding\n1 < Server: cloudflare\n1 < CF-RAY: 86b6cd7f8d88546a-DEL\n{\"page\":1,\"per_page\":6,\"total\":12,\"total_pages\":2,\"data\":[{\"id\":1,\"name\":\"cerulean\",\"year\":2000,\"color\":\"#98B2D1\",\"pantone_value\":\"15-4020\"},{\"id\":2,\"name\":\"fuchsia rose\",\"year\":2001,\"color\":\"#C74375\",\"pantone_value\":\"17-2031\"},{\"id\":3,\"name\":\"true red\",\"year\":2002,\"color\":\"#BF1932\",\"pantone_value\":\"19-1664\"},{\"id\":4,\"name\":\"aqua sky\",\"year\":2003,\"color\":\"#7BC4C4\",\"pantone_value\":\"14-4811\"},{\"id\":5,\"name\":\"tigerlily\",\"year\":2004,\"color\":\"#E2583E\",\"pantone_value\":\"17-1456\"},{\"id\":6,\"name\":\"blue turquoise\",\"year\":2005,\"color\":\"#53B0AE\",\"pantone_value\":\"15-5217\"}],\"support\":{\"url\":\"https:\/\/reqres.in\/#support-heading\",\"text\":\"To keep ReqRes free, contributions towards server costs are appreciated!\"}}\n\n"},{"result":{"nanos":17300,"startTime":1711620335791,"endTime":1711620335791,"millis":0.0173,"status":"passed"},"step":{"line":45,"prefix":"Then","index":3,"text":"status 200 #the status code response should be 200"}}],"line":40,"description":"","durationMillis":194.3899,"failed":false,"tags":["Regression"],"executorName":"main","name":"To get all the data from the application in xml format using path variable","startTime":1711620335595,"refId":"[3:40]","endTime":1711620335791,"exampleIndex":-1}],"callDepth":0,"name":"To test the endpoint of the application","description":"","resultDate":"2024-03-28 03:35:35 pm","durationMillis":469.7517,"passedCount":3}