{"failedCount":0,"prefixedPath":"classpath:com\/api\/automation\/postrequest\/schemaValidation.feature","packageQualifiedName":"com.api.automation.postrequest.schemaValidation","loopIndex":-1,"relativePath":"com\/api\/automation\/postrequest\/schemaValidation.feature","scenarioResults":[{"sectionIndex":0,"stepResults":[{"result":{"nanos":47700,"startTime":1711620339512,"endTime":1711620339512,"millis":0.0477,"status":"passed"},"step":{"background":true,"line":5,"prefix":"Given","index":0,"text":"url 'https:\/\/reqres.in'"},"stepLog":"15:35:39.512 karate.env system property was: null \n"},{"result":{"nanos":27900,"startTime":1711620339512,"endTime":1711620339512,"millis":0.0279,"status":"passed"},"step":{"line":8,"prefix":"Given","index":0,"text":"path '\/api\/users'"}},{"result":{"nanos":908800,"startTime":1711620339512,"endTime":1711620339513,"millis":0.9088,"status":"passed"},"step":{"line":9,"prefix":"*","index":1,"text":"def body = read(\"data\/createUser.json\")"}},{"result":{"nanos":153400,"startTime":1711620339513,"endTime":1711620339513,"millis":0.1534,"status":"passed"},"step":{"line":10,"prefix":"And","index":2,"text":"request body"}},{"result":{"nanos":203900,"startTime":1711620339514,"endTime":1711620339514,"millis":0.2039,"status":"passed"},"step":{"line":11,"prefix":"And","index":3,"text":"header Accept = 'application\/json'"}},{"result":{"nanos":450027200,"startTime":1711620339514,"endTime":1711620339964,"millis":450.0272,"status":"passed"},"step":{"line":12,"prefix":"When","index":4,"text":"method post"},"stepLog":"15:35:39.516 request:\n1 > POST https:\/\/reqres.in\/api\/users\n1 > Accept: application\/json\n1 > Content-Type: application\/json; charset=UTF-8\n1 > Content-Length: 34\n1 > Host: reqres.in\n1 > Connection: Keep-Alive\n1 > User-Agent: Apache-HttpClient\/4.5.14 (Java\/17.0.2)\n1 > Accept-Encoding: gzip,deflate\n{\"name\":\"morpheus\",\"job\":\"leader\"}\n\n15:35:39.964 response time in milliseconds: 445\n1 < 201\n1 < Date: Thu, 28 Mar 2024 10:05:40 GMT\n1 < Content-Type: application\/json; charset=utf-8\n1 < Content-Length: 84\n1 < Connection: keep-alive\n1 < Report-To: {\"group\":\"heroku-nel\",\"max_age\":3600,\"endpoints\":[{\"url\":\"https:\/\/nel.heroku.com\/reports?ts=1711620340&sid=c4c9725f-1ab0-44d8-820f-430df2718e11&s=i1g7R237U6GXCY5PtJ7xfOy6e%2BFPnwgZICP137sxCVM%3D\"}]}\n1 < Reporting-Endpoints: heroku-nel=https:\/\/nel.heroku.com\/reports?ts=1711620340&sid=c4c9725f-1ab0-44d8-820f-430df2718e11&s=i1g7R237U6GXCY5PtJ7xfOy6e%2BFPnwgZICP137sxCVM%3D\n1 < Nel: {\"report_to\":\"heroku-nel\",\"max_age\":3600,\"success_fraction\":0.005,\"failure_fraction\":0.05,\"response_headers\":[\"Via\"]}\n1 < X-Powered-By: Express\n1 < Access-Control-Allow-Origin: *\n1 < Etag: W\/\"54-IePqzbjPXqq+6ZBCcT08ijdKmWE\"\n1 < Via: 1.1 vegur\n1 < CF-Cache-Status: DYNAMIC\n1 < Server: cloudflare\n1 < CF-RAY: 86b6cd979e368997-DEL\n{\"name\":\"morpheus\",\"job\":\"leader\",\"id\":\"325\",\"createdAt\":\"2024-03-28T10:05:40.675Z\"}\n\n"},{"result":{"nanos":3800,"startTime":1711620339964,"endTime":1711620339964,"millis":0.0038,"status":"passed"},"step":{"line":13,"prefix":"Then","index":5,"text":"status 201"}},{"result":{"nanos":706600,"startTime":1711620339964,"endTime":1711620339965,"millis":0.7066,"status":"passed"},"step":{"line":14,"prefix":"And","index":6,"text":"print response"},"stepLog":"15:35:39.965 [print] {\n  \"name\": \"morpheus\",\n  \"job\": \"leader\",\n  \"id\": \"325\",\n  \"createdAt\": \"2024-03-28T10:05:40.675Z\"\n}\n \n"},{"result":{"nanos":380700,"startTime":1711620339965,"endTime":1711620339965,"millis":0.3807,"status":"passed"},"step":{"endLine":24,"line":15,"prefix":"And","docString":"{\n\"name\": '#string',\n\"job\": '#string',\n\"id\": '#string',\n\"createdAt\": '#string'\n}","index":7,"text":"match response =="}}],"executorName":"main","line":7,"name":"To create users in JSON format","description":"","durationMillis":452.46,"startTime":1711620339512,"failed":false,"refId":"[1:7]","endTime":1711620339965,"exampleIndex":-1},{"sectionIndex":1,"stepResults":[{"result":{"nanos":37700,"startTime":1711620339969,"endTime":1711620339969,"millis":0.0377,"status":"passed"},"step":{"background":true,"line":5,"prefix":"Given","index":0,"text":"url 'https:\/\/reqres.in'"},"stepLog":"15:35:39.969 karate.env system property was: null \n"},{"result":{"nanos":11100,"startTime":1711620339969,"endTime":1711620339969,"millis":0.0111,"status":"passed"},"step":{"line":27,"prefix":"Given","index":0,"text":"path '\/api\/users?page=2'"}},{"result":{"nanos":21400,"startTime":1711620339969,"endTime":1711620339969,"millis":0.0214,"status":"passed"},"step":{"line":28,"prefix":"And","index":1,"text":"header Accept = 'application\/json'"}},{"result":{"nanos":71266000,"startTime":1711620339969,"endTime":1711620340040,"millis":71.266,"status":"passed"},"step":{"line":29,"prefix":"When","index":2,"text":"method get #send the get request"},"stepLog":"15:35:39.970 request:\n1 > GET https:\/\/reqres.in\/api\/users%3Fpage=2\n1 > Accept: application\/json\n1 > Host: reqres.in\n1 > Connection: Keep-Alive\n1 > User-Agent: Apache-HttpClient\/4.5.14 (Java\/17.0.2)\n1 > Accept-Encoding: gzip,deflate\n\n\n15:35:40.040 response time in milliseconds: 69\n1 < 200\n1 < Date: Thu, 28 Mar 2024 10:05:40 GMT\n1 < Content-Type: application\/json; charset=utf-8\n1 < Transfer-Encoding: chunked\n1 < Connection: keep-alive\n1 < Report-To: {\"group\":\"heroku-nel\",\"max_age\":3600,\"endpoints\":[{\"url\":\"https:\/\/nel.heroku.com\/reports?ts=1711617885&sid=c4c9725f-1ab0-44d8-820f-430df2718e11&s=0X16%2BcC6XnwxTHrwW2rNuAN%2BTZvqY10fejNkUFdqjdU%3D\"}]}\n1 < Reporting-Endpoints: heroku-nel=https:\/\/nel.heroku.com\/reports?ts=1711617885&sid=c4c9725f-1ab0-44d8-820f-430df2718e11&s=0X16%2BcC6XnwxTHrwW2rNuAN%2BTZvqY10fejNkUFdqjdU%3D\n1 < Nel: {\"report_to\":\"heroku-nel\",\"max_age\":3600,\"success_fraction\":0.005,\"failure_fraction\":0.05,\"response_headers\":[\"Via\"]}\n1 < X-Powered-By: Express\n1 < Access-Control-Allow-Origin: *\n1 < Etag: W\/\"2c1-N6Rqerxquq2kgQhL51EiSg4x0R8\"\n1 < Via: 1.1 vegur\n1 < Cache-Control: max-age=14400\n1 < CF-Cache-Status: HIT\n1 < Age: 2455\n1 < Vary: Accept-Encoding\n1 < Server: cloudflare\n1 < CF-RAY: 86b6cd9a3d9a4938-BOM\n{\"page\":1,\"per_page\":6,\"total\":12,\"total_pages\":2,\"data\":[{\"id\":1,\"name\":\"cerulean\",\"year\":2000,\"color\":\"#98B2D1\",\"pantone_value\":\"15-4020\"},{\"id\":2,\"name\":\"fuchsia rose\",\"year\":2001,\"color\":\"#C74375\",\"pantone_value\":\"17-2031\"},{\"id\":3,\"name\":\"true red\",\"year\":2002,\"color\":\"#BF1932\",\"pantone_value\":\"19-1664\"},{\"id\":4,\"name\":\"aqua sky\",\"year\":2003,\"color\":\"#7BC4C4\",\"pantone_value\":\"14-4811\"},{\"id\":5,\"name\":\"tigerlily\",\"year\":2004,\"color\":\"#E2583E\",\"pantone_value\":\"17-1456\"},{\"id\":6,\"name\":\"blue turquoise\",\"year\":2005,\"color\":\"#53B0AE\",\"pantone_value\":\"15-5217\"}],\"support\":{\"url\":\"https:\/\/reqres.in\/#support-heading\",\"text\":\"To keep ReqRes free, contributions towards server costs are appreciated!\"}}\n\n"},{"result":{"nanos":3900,"startTime":1711620340040,"endTime":1711620340040,"millis":0.0039,"status":"passed"},"step":{"line":30,"prefix":"Then","index":3,"text":"status 200 #the status code response should be 200"}},{"result":{"nanos":95000,"startTime":1711620340040,"endTime":1711620340040,"millis":0.095,"status":"passed"},"step":{"line":31,"prefix":"*","index":4,"text":"def dataSchema = { \"id\": '#number' , \"name\": '#string', \"year\": '#number',\"color\": '#string', \"pantone_value\": '#string'}"}},{"result":{"nanos":41300,"startTime":1711620340040,"endTime":1711620340040,"millis":0.0413,"status":"passed"},"step":{"line":32,"prefix":"*","index":5,"text":"def supportSchema = { \"url\": '#string', \"text\": '#string'}"}},{"result":{"nanos":390900,"startTime":1711620340040,"endTime":1711620340040,"millis":0.3909,"status":"passed"},"step":{"line":33,"prefix":"*","index":6,"text":"def mainSchema = { \"page\": '#number', \"per_page\": '#number', \"total\": '#number', \"total_pages\": '#number', \"data\": '#[] ##(dataSchema)', \"support\": '##(supportSchema)' }"}},{"result":{"nanos":3179300,"startTime":1711620340041,"endTime":1711620340044,"millis":3.1793,"status":"passed"},"step":{"endLine":37,"line":34,"prefix":"And","docString":"'##(mainSchema)'","index":7,"text":"match response =="}}],"executorName":"main","line":26,"name":"Schema validation for Get Endpoint","description":"","durationMillis":75.0466,"startTime":1711620339968,"failed":false,"refId":"[2:26]","endTime":1711620340044,"exampleIndex":-1}],"callDepth":0,"name":"validate the JSON Schema","description":"To validate the JSON Schema for the POST API","resultDate":"2024-03-28 03:35:40 pm","durationMillis":527.5066,"passedCount":2}