{"failedCount":0,"prefixedPath":"classpath:com\/api\/automation\/getrequest\/queryparameters\/queryparameters.feature","packageQualifiedName":"com.api.automation.getrequest.queryparameters.queryparameters","loopIndex":-1,"relativePath":"com\/api\/automation\/getrequest\/queryparameters\/queryparameters.feature","scenarioResults":[{"sectionIndex":0,"stepResults":[{"result":{"nanos":71700,"startTime":1711620334286,"endTime":1711620334286,"millis":0.0717,"status":"passed"},"step":{"background":true,"line":6,"prefix":"Given","index":0,"text":"url 'https:\/\/reqres.in'"},"stepLog":"15:35:34.286 karate.env system property was: null \n"},{"result":{"nanos":18800,"startTime":1711620334287,"endTime":1711620334287,"millis":0.0188,"status":"passed"},"step":{"comments":["# Send the Get request with query param"],"line":10,"prefix":"Given","index":0,"text":"path '\/api\/users'"}},{"result":{"nanos":1313500,"startTime":1711620334287,"endTime":1711620334288,"millis":1.3135,"status":"passed"},"step":{"line":11,"prefix":"And","index":1,"text":"params page = '2'"},"stepLog":"15:35:34.288 did not evaluate to map page = '2': [type: STRING, value: 2]\n"},{"result":{"nanos":117500,"startTime":1711620334288,"endTime":1711620334288,"millis":0.1175,"status":"passed"},"step":{"line":12,"prefix":"And","index":2,"text":"headers {Accept:'application\/json'}"}},{"result":{"nanos":69665900,"startTime":1711620334288,"endTime":1711620334358,"millis":69.6659,"status":"passed"},"step":{"line":13,"prefix":"When","index":3,"text":"method get"},"stepLog":"15:35:34.290 request:\n1 > GET https:\/\/reqres.in\/api\/users\n1 > Accept: application\/json\n1 > Host: reqres.in\n1 > Connection: Keep-Alive\n1 > User-Agent: Apache-HttpClient\/4.5.14 (Java\/17.0.2)\n1 > Accept-Encoding: gzip,deflate\n\n\n15:35:34.357 response time in milliseconds: 66\n1 < 200\n1 < Date: Thu, 28 Mar 2024 10:05:35 GMT\n1 < Content-Type: application\/json; charset=utf-8\n1 < Transfer-Encoding: chunked\n1 < Connection: keep-alive\n1 < Report-To: {\"group\":\"heroku-nel\",\"max_age\":3600,\"endpoints\":[{\"url\":\"https:\/\/nel.heroku.com\/reports?ts=1711410514&sid=c4c9725f-1ab0-44d8-820f-430df2718e11&s=Zw0hPFDQ92HzP%2Fh%2BupLEOpHrChmXQM4Ar8IL%2FjSfnWQ%3D\"}]}\n1 < Reporting-Endpoints: heroku-nel=https:\/\/nel.heroku.com\/reports?ts=1711410514&sid=c4c9725f-1ab0-44d8-820f-430df2718e11&s=Zw0hPFDQ92HzP%2Fh%2BupLEOpHrChmXQM4Ar8IL%2FjSfnWQ%3D\n1 < Nel: {\"report_to\":\"heroku-nel\",\"max_age\":3600,\"success_fraction\":0.005,\"failure_fraction\":0.05,\"response_headers\":[\"Via\"]}\n1 < X-Powered-By: Express\n1 < Access-Control-Allow-Origin: *\n1 < Etag: W\/\"3e4-2RLXvr5wTg9YQ6aH95CkYoFNuO8\"\n1 < Via: 1.1 vegur\n1 < Cache-Control: max-age=14400\n1 < CF-Cache-Status: HIT\n1 < Age: 7194\n1 < Vary: Accept-Encoding\n1 < Server: cloudflare\n1 < CF-RAY: 86b6cd76b93d47de-BOM\n{\"page\":1,\"per_page\":6,\"total\":12,\"total_pages\":2,\"data\":[{\"id\":1,\"email\":\"george.bluth@reqres.in\",\"first_name\":\"George\",\"last_name\":\"Bluth\",\"avatar\":\"https:\/\/reqres.in\/img\/faces\/1-image.jpg\"},{\"id\":2,\"email\":\"janet.weaver@reqres.in\",\"first_name\":\"Janet\",\"last_name\":\"Weaver\",\"avatar\":\"https:\/\/reqres.in\/img\/faces\/2-image.jpg\"},{\"id\":3,\"email\":\"emma.wong@reqres.in\",\"first_name\":\"Emma\",\"last_name\":\"Wong\",\"avatar\":\"https:\/\/reqres.in\/img\/faces\/3-image.jpg\"},{\"id\":4,\"email\":\"eve.holt@reqres.in\",\"first_name\":\"Eve\",\"last_name\":\"Holt\",\"avatar\":\"https:\/\/reqres.in\/img\/faces\/4-image.jpg\"},{\"id\":5,\"email\":\"charles.morris@reqres.in\",\"first_name\":\"Charles\",\"last_name\":\"Morris\",\"avatar\":\"https:\/\/reqres.in\/img\/faces\/5-image.jpg\"},{\"id\":6,\"email\":\"tracey.ramos@reqres.in\",\"first_name\":\"Tracey\",\"last_name\":\"Ramos\",\"avatar\":\"https:\/\/reqres.in\/img\/faces\/6-image.jpg\"}],\"support\":{\"url\":\"https:\/\/reqres.in\/#support-heading\",\"text\":\"To keep ReqRes free, contributions towards server costs are appreciated!\"}}\n\n"},{"result":{"nanos":25800,"startTime":1711620334358,"endTime":1711620334358,"millis":0.0258,"status":"passed"},"step":{"line":14,"prefix":"Then","index":4,"text":"status 200"}},{"result":{"nanos":6864700,"startTime":1711620334358,"endTime":1711620334365,"millis":6.8647,"status":"passed"},"step":{"line":15,"prefix":"And","index":5,"text":"match header Connection == 'keep-alive'"}}],"line":8,"description":"","durationMillis":78.0779,"failed":false,"tags":["smoke"],"executorName":"main","name":"To get the data using Query Parameter","startTime":1711620334285,"refId":"[1:8]","endTime":1711620334365,"exampleIndex":-1},{"sectionIndex":1,"stepResults":[{"result":{"nanos":67500,"startTime":1711620334371,"endTime":1711620334371,"millis":0.0675,"status":"passed"},"step":{"background":true,"line":6,"prefix":"Given","index":0,"text":"url 'https:\/\/reqres.in'"},"stepLog":"15:35:34.370 karate.env system property was: null \n"},{"result":{"nanos":574471800,"startTime":1711620334371,"endTime":1711620334945,"millis":574.4718,"status":"passed"},"step":{"comments":["# Create the Job Entry","# Get the newly created Job Entry using Query Param"],"line":21,"prefix":"*","index":0,"text":"def createJob = call read(\"..\/..\/CreateUser.feature\") { _url:'https:\/\/reqres.in', _path:'\/api\/users',_request:'{\"name\": \"mark\", \"job\": \"leader\" }' }"},"callResults":[{"prefixedPath":"classpath:com\/api\/automation\/getrequest\/queryparameters\/..\/..\/CreateUser.feature","loopIndex":-1,"callDepth":1,"description":"Test the end point PUT \/normal\/webapi\/update","resultDate":"2024-03-28 03:35:35 pm","durationMillis":568.9519,"callArg":{"_url":"https:\/\/reqres.in","_path":"\/api\/users","_request":"{\"name\": \"mark\", \"job\": \"leader\" }"},"failedCount":0,"packageQualifiedName":"com.api.automation.getrequest.queryparameters.CreateUser","relativePath":"com\/api\/automation\/getrequest\/queryparameters\/..\/..\/CreateUser.feature","scenarioResults":[{"sectionIndex":0,"stepResults":[{"result":{"nanos":72200,"startTime":1711620334376,"endTime":1711620334376,"millis":0.0722,"status":"passed"},"step":{"background":true,"line":5,"prefix":"Given","index":0,"text":"url 'https:\/\/reqres.in'"}},{"result":{"nanos":20100,"startTime":1711620334376,"endTime":1711620334376,"millis":0.0201,"status":"passed"},"step":{"comments":["# Create a new Job Entry"],"line":10,"prefix":"Given","index":0,"text":"path '\/api\/users'"}},{"result":{"nanos":76400,"startTime":1711620334376,"endTime":1711620334376,"millis":0.0764,"status":"passed"},"step":{"line":11,"prefix":"And","index":1,"text":"request {\"name\": \"mark\", \"job\": \"leader\" }"}},{"result":{"nanos":43100,"startTime":1711620334376,"endTime":1711620334376,"millis":0.0431,"status":"passed"},"step":{"line":12,"prefix":"And","index":2,"text":"headers {Accept : 'application\/json', Content-Type: 'application\/json'}"}},{"result":{"nanos":568724200,"startTime":1711620334376,"endTime":1711620334945,"millis":568.7242,"status":"passed"},"step":{"line":13,"prefix":"When","index":3,"text":"method post"},"stepLog":"15:35:34.378 request:\n1 > POST https:\/\/reqres.in\/api\/users\n1 > Accept: application\/json\n1 > Content-Type: application\/json; charset=UTF-8\n1 > Content-Length: 30\n1 > Host: reqres.in\n1 > Connection: Keep-Alive\n1 > User-Agent: Apache-HttpClient\/4.5.14 (Java\/17.0.2)\n1 > Accept-Encoding: gzip,deflate\n{\"name\":\"mark\",\"job\":\"leader\"}\n\n15:35:34.944 response time in milliseconds: 565\n1 < 201\n1 < Date: Thu, 28 Mar 2024 10:05:35 GMT\n1 < Content-Type: application\/json; charset=utf-8\n1 < Content-Length: 80\n1 < Connection: keep-alive\n1 < Report-To: {\"group\":\"heroku-nel\",\"max_age\":3600,\"endpoints\":[{\"url\":\"https:\/\/nel.heroku.com\/reports?ts=1711620335&sid=c4c9725f-1ab0-44d8-820f-430df2718e11&s=1wosdRQoRWV38%2Bw9j4ri5MkgG9YinuNkDUVNrEyWlSY%3D\"}]}\n1 < Reporting-Endpoints: heroku-nel=https:\/\/nel.heroku.com\/reports?ts=1711620335&sid=c4c9725f-1ab0-44d8-820f-430df2718e11&s=1wosdRQoRWV38%2Bw9j4ri5MkgG9YinuNkDUVNrEyWlSY%3D\n1 < Nel: {\"report_to\":\"heroku-nel\",\"max_age\":3600,\"success_fraction\":0.005,\"failure_fraction\":0.05,\"response_headers\":[\"Via\"]}\n1 < X-Powered-By: Express\n1 < Access-Control-Allow-Origin: *\n1 < Etag: W\/\"50-t+gcNa9HT+ddytXEnr0hplfAzg4\"\n1 < Via: 1.1 vegur\n1 < CF-Cache-Status: DYNAMIC\n1 < Server: cloudflare\n1 < CF-RAY: 86b6cd773b9d45a3-BOM\n{\"name\":\"mark\",\"job\":\"leader\",\"id\":\"742\",\"createdAt\":\"2024-03-28T10:05:35.669Z\"}\n\n"},{"result":{"nanos":15900,"startTime":1711620334946,"endTime":1711620334946,"millis":0.0159,"status":"passed"},"step":{"line":14,"prefix":"And","index":4,"text":"status 201"}}],"executorName":"main","line":7,"name":"To update the User Entry for exiting users in JSON format","description":"","durationMillis":568.9519,"startTime":1711620334376,"failed":false,"refId":"[1:7]","endTime":1711620334946,"exampleIndex":-1}],"name":"To test the updation of Job entry in the test application","passedCount":1}]},{"result":{"nanos":216500,"startTime":1711620334946,"endTime":1711620334946,"millis":0.2165,"status":"passed"},"step":{"comments":["# Send the Get request with query param"],"line":23,"prefix":"Given","index":1,"text":"path '\/api\/users'"}},{"result":{"nanos":1461000,"startTime":1711620334946,"endTime":1711620334947,"millis":1.461,"status":"passed"},"step":{"line":24,"prefix":"And","index":2,"text":"params page = '1'"},"stepLog":"15:35:34.948 did not evaluate to map page = '1': [type: STRING, value: 1]\n"},{"result":{"nanos":64100,"startTime":1711620334948,"endTime":1711620334948,"millis":0.0641,"status":"passed"},"step":{"line":25,"prefix":"And","index":3,"text":"headers {Accept:'application\/json'}"}},{"result":{"nanos":274680600,"startTime":1711620334948,"endTime":1711620335223,"millis":274.6806,"status":"passed"},"step":{"line":26,"prefix":"When","index":4,"text":"method get"},"stepLog":"15:35:34.949 request:\n1 > GET https:\/\/reqres.in\/api\/users\n1 > Accept: application\/json\n1 > Host: reqres.in\n1 > Connection: Keep-Alive\n1 > User-Agent: Apache-HttpClient\/4.5.14 (Java\/17.0.2)\n1 > Accept-Encoding: gzip,deflate\n\n\n15:35:35.222 response time in milliseconds: 272\n1 < 200\n1 < Date: Thu, 28 Mar 2024 10:05:35 GMT\n1 < Content-Type: application\/json; charset=utf-8\n1 < Transfer-Encoding: chunked\n1 < Connection: keep-alive\n1 < Report-To: {\"group\":\"heroku-nel\",\"max_age\":3600,\"endpoints\":[{\"url\":\"https:\/\/nel.heroku.com\/reports?ts=1710951996&sid=c4c9725f-1ab0-44d8-820f-430df2718e11&s=XI1%2FNkfc5mqicXCSvIU2a0naZIFhJb8gC8sPWGDLGiY%3D\"}]}\n1 < Reporting-Endpoints: heroku-nel=https:\/\/nel.heroku.com\/reports?ts=1710951996&sid=c4c9725f-1ab0-44d8-820f-430df2718e11&s=XI1%2FNkfc5mqicXCSvIU2a0naZIFhJb8gC8sPWGDLGiY%3D\n1 < Nel: {\"report_to\":\"heroku-nel\",\"max_age\":3600,\"success_fraction\":0.005,\"failure_fraction\":0.05,\"response_headers\":[\"Via\"]}\n1 < X-Powered-By: Express\n1 < Access-Control-Allow-Origin: *\n1 < Etag: W\/\"3e4-2RLXvr5wTg9YQ6aH95CkYoFNuO8\"\n1 < Via: 1.1 vegur\n1 < Cache-Control: max-age=14400\n1 < CF-Cache-Status: HIT\n1 < Age: 1414\n1 < Vary: Accept-Encoding\n1 < Server: cloudflare\n1 < CF-RAY: 86b6cd7bbb005460-DEL\n{\"page\":1,\"per_page\":6,\"total\":12,\"total_pages\":2,\"data\":[{\"id\":1,\"email\":\"george.bluth@reqres.in\",\"first_name\":\"George\",\"last_name\":\"Bluth\",\"avatar\":\"https:\/\/reqres.in\/img\/faces\/1-image.jpg\"},{\"id\":2,\"email\":\"janet.weaver@reqres.in\",\"first_name\":\"Janet\",\"last_name\":\"Weaver\",\"avatar\":\"https:\/\/reqres.in\/img\/faces\/2-image.jpg\"},{\"id\":3,\"email\":\"emma.wong@reqres.in\",\"first_name\":\"Emma\",\"last_name\":\"Wong\",\"avatar\":\"https:\/\/reqres.in\/img\/faces\/3-image.jpg\"},{\"id\":4,\"email\":\"eve.holt@reqres.in\",\"first_name\":\"Eve\",\"last_name\":\"Holt\",\"avatar\":\"https:\/\/reqres.in\/img\/faces\/4-image.jpg\"},{\"id\":5,\"email\":\"charles.morris@reqres.in\",\"first_name\":\"Charles\",\"last_name\":\"Morris\",\"avatar\":\"https:\/\/reqres.in\/img\/faces\/5-image.jpg\"},{\"id\":6,\"email\":\"tracey.ramos@reqres.in\",\"first_name\":\"Tracey\",\"last_name\":\"Ramos\",\"avatar\":\"https:\/\/reqres.in\/img\/faces\/6-image.jpg\"}],\"support\":{\"url\":\"https:\/\/reqres.in\/#support-heading\",\"text\":\"To keep ReqRes free, contributions towards server costs are appreciated!\"}}\n\n"},{"result":{"nanos":5800,"startTime":1711620335223,"endTime":1711620335223,"millis":0.0058,"status":"passed"},"step":{"line":27,"prefix":"Then","index":5,"text":"status 200"}},{"result":{"nanos":112700,"startTime":1711620335223,"endTime":1711620335223,"millis":0.1127,"status":"passed"},"step":{"line":28,"prefix":"And","index":6,"text":"match header Connection == 'keep-alive'"}},{"result":{"nanos":1080100,"startTime":1711620335223,"endTime":1711620335224,"millis":1.0801,"status":"passed"},"step":{"line":29,"prefix":"And","index":7,"text":"print createJob"},"stepLog":"15:35:35.224 [print] {\n  \"responseHeaders\": {\n    \"Date\": [\n      \"Thu, 28 Mar 2024 10:05:35 GMT\"\n    ],\n    \"Content-Type\": [\n      \"application\/json; charset=utf-8\"\n    ],\n    \"Content-Length\": [\n      \"80\"\n    ],\n    \"Connection\": [\n      \"keep-alive\"\n    ],\n    \"Report-To\": [\n      \"{\\\"group\\\":\\\"heroku-nel\\\",\\\"max_age\\\":3600,\\\"endpoints\\\":[{\\\"url\\\":\\\"https:\/\/nel.heroku.com\/reports?ts=1711620335&sid=c4c9725f-1ab0-44d8-820f-430df2718e11&s=1wosdRQoRWV38%2Bw9j4ri5MkgG9YinuNkDUVNrEyWlSY%3D\\\"}]}\"\n    ],\n    \"Reporting-Endpoints\": [\n      \"heroku-nel=https:\/\/nel.heroku.com\/reports?ts=1711620335&sid=c4c9725f-1ab0-44d8-820f-430df2718e11&s=1wosdRQoRWV38%2Bw9j4ri5MkgG9YinuNkDUVNrEyWlSY%3D\"\n    ],\n    \"Nel\": [\n      \"{\\\"report_to\\\":\\\"heroku-nel\\\",\\\"max_age\\\":3600,\\\"success_fraction\\\":0.005,\\\"failure_fraction\\\":0.05,\\\"response_headers\\\":[\\\"Via\\\"]}\"\n    ],\n    \"X-Powered-By\": [\n      \"Express\"\n    ],\n    \"Access-Control-Allow-Origin\": [\n      \"*\"\n    ],\n    \"Etag\": [\n      \"W\/\\\"50-t+gcNa9HT+ddytXEnr0hplfAzg4\\\"\"\n    ],\n    \"Via\": [\n      \"1.1 vegur\"\n    ],\n    \"CF-Cache-Status\": [\n      \"DYNAMIC\"\n    ],\n    \"Server\": [\n      \"cloudflare\"\n    ],\n    \"CF-RAY\": [\n      \"86b6cd773b9d45a3-BOM\"\n    ],\n    \"Set-Cookie\": [\n    ]\n  },\n  \"responseTime\": 565,\n  \"response\": {\n    \"name\": \"mark\",\n    \"job\": \"leader\",\n    \"id\": \"742\",\n    \"createdAt\": \"2024-03-28T10:05:35.669Z\"\n  },\n  \"_path\": \"\/api\/users\",\n  \"_url\": \"https:\/\/reqres.in\",\n  \"responseStatus\": 201,\n  \"_request\": \"{\\\"name\\\": \\\"mark\\\", \\\"job\\\": \\\"leader\\\" }\"\n}\n \n"}],"line":18,"description":"","durationMillis":852.1601,"failed":false,"tags":["smoke","Regression"],"executorName":"main","name":"To get the data using Query Parameter with JobId not in the application","startTime":1711620334370,"refId":"[2:18]","endTime":1711620335224,"exampleIndex":-1}],"callDepth":0,"name":"To test the Get end point with Query Parameter","description":"GET https:\/\/reqres.in\/api\/users?page=2","resultDate":"2024-03-28 03:35:35 pm","durationMillis":930.238,"passedCount":2}